COMP3222/WKSpace/Lab3/part1/simulation/qsim/part1.msim.vcd
$comment
	File created using the following command:
		vcd file part1.msim.vcd -direction
$end
$date
	Thu Oct 10 13:02:06 2019
$end
$version
	ModelSim Version 10.1d
$end
$timescale
	1ps
$end
$scope module part1_vlg_vec_tst $end
$var reg 1 ! Clk $end
$var reg 1 " R $end
$var reg 1 # S $end
$var wire 1 $ Q $end
$var wire 1 % sampler $end
$scope module i1 $end
$var wire 1 & gnd $end
$var wire 1 ' vcc $end
$var wire 1 ( unknown $end
$var tri1 1 ) devclrn $end
$var tri1 1 * devpor $end
$var tri1 1 + devoe $end
$var wire 1 , S~combout $end
$var wire 1 - Clk~combout $end
$var wire 1 . S_g~combout $end
$var wire 1 / Qb~combout $end
$var wire 1 0 R~combout $end
$var wire 1 1 R_g~combout $end
$var wire 1 2 Qa~combout $end
$upscope $end
$upscope $end
$enddefinitions $end
#0
$dumpvars
0!
0"
0#
x$
x%
0&
1'
x(
1)
1*
1+
0,
0-
0.
x/
00
01
x2
$end
#120000
1#
1,
0%
#240000
1"
0#
10
0,
1%
#360000
1#
1,
0%
#480000
1!
0"
0#
1-
00
0,
1%
#600000
1#
1,
0%
1.
0/
12
1$
#720000
1"
0#
10
0,
1%
11
0.
02
1/
0$
#840000
1#
1,
0%
1.
0/
