COMP3222/WKSpace/Lab4/part2/simulation/qsim/part2.msim.vcd
$comment
	File created using the following command:
		vcd file part2.msim.vcd -direction
$end
$date
	Sat Oct 19 18:38:58 2019
$end
$version
	ModelSim Version 10.1d
$end
$timescale
	1ps
$end
$scope module part2_vlg_vec_tst $end
$var reg 1 ! Clear $end
$var reg 1 " Cloc $end
$var reg 1 # Enable $end
$var wire 1 $ Cout [15] $end
$var wire 1 % Cout [14] $end
$var wire 1 & Cout [13] $end
$var wire 1 ' Cout [12] $end
$var wire 1 ( Cout [11] $end
$var wire 1 ) Cout [10] $end
$var wire 1 * Cout [9] $end
$var wire 1 + Cout [8] $end
$var wire 1 , Cout [7] $end
$var wire 1 - Cout [6] $end
$var wire 1 . Cout [5] $end
$var wire 1 / Cout [4] $end
$var wire 1 0 Cout [3] $end
$var wire 1 1 Cout [2] $end
$var wire 1 2 Cout [1] $end
$var wire 1 3 Cout [0] $end
$var wire 1 4 sampler $end
$scope module i1 $end
$var wire 1 5 gnd $end
$var wire 1 6 vcc $end
$var wire 1 7 unknown $end
$var tri1 1 8 devclrn $end
$var tri1 1 9 devpor $end
$var tri1 1 : devoe $end
$var wire 1 ; Cloc~combout $end
$var wire 1 < Cloc~clkctrl_outclk $end
$var wire 1 = Enable~combout $end
$var wire 1 > Q[0]~15_combout $end
$var wire 1 ? Clear~combout $end
$var wire 1 @ Clear~clkctrl_outclk $end
$var wire 1 A Q[1]~16_combout $end
$var wire 1 B Q[1]~17 $end
$var wire 1 C Q[2]~18_combout $end
$var wire 1 D Q[2]~19 $end
$var wire 1 E Q[3]~20_combout $end
$var wire 1 F Q[3]~21 $end
$var wire 1 G Q[4]~22_combout $end
$var wire 1 H Q[4]~23 $end
$var wire 1 I Q[5]~24_combout $end
$var wire 1 J Q[5]~25 $end
$var wire 1 K Q[6]~26_combout $end
$var wire 1 L Q[6]~27 $end
$var wire 1 M Q[7]~28_combout $end
$var wire 1 N Q[7]~29 $end
$var wire 1 O Q[8]~30_combout $end
$var wire 1 P Q[8]~31 $end
$var wire 1 Q Q[9]~32_combout $end
$var wire 1 R Q[9]~33 $end
$var wire 1 S Q[10]~34_combout $end
$var wire 1 T Q[10]~35 $end
$var wire 1 U Q[11]~36_combout $end
$var wire 1 V Q[11]~37 $end
$var wire 1 W Q[12]~38_combout $end
$var wire 1 X Q[12]~39 $end
$var wire 1 Y Q[13]~40_combout $end
$var wire 1 Z Q[13]~41 $end
$var wire 1 [ Q[14]~42_combout $end
$var wire 1 \ Q[14]~43 $end
$var wire 1 ] Q[15]~44_combout $end
$var wire 1 ^ Q [15] $end
$var wire 1 _ Q [14] $end
$var wire 1 ` Q [13] $end
$var wire 1 a Q [12] $end
$var wire 1 b Q [11] $end
$var wire 1 c Q [10] $end
$var wire 1 d Q [9] $end
$var wire 1 e Q [8] $end
$var wire 1 f Q [7] $end
$var wire 1 g Q [6] $end
$var wire 1 h Q [5] $end
$var wire 1 i Q [4] $end
$var wire 1 j Q [3] $end
$var wire 1 k Q [2] $end
$var wire 1 l Q [1] $end
$var wire 1 m Q [0] $end
$upscope $end
$upscope $end
$enddefinitions $end
#0
$dumpvars
0!
0"
1#
x3
x2
x1
x0
x/
x.
x-
x,
x+
x*
x)
x(
x'
x&
x%
x$
x4
05
16
x7
18
19
1:
0;
x<
1=
x>
0?
x@
xA
xB
xC
xD
xE
xF
xG
xH
xI
xJ
xK
xL
xM
xN
xO
xP
xQ
xR
xS
xT
xU
xV
xW
xX
xY
xZ
x[
x\
x]
xm
xl
xk
xj
xi
xh
xg
xf
xe
xd
xc
xb
xa
x`
x_
x^
$end
#232
0@
#238
0<
#243
0m
0l
0k
0j
0i
0h
0g
0f
0e
0d
0c
0b
0a
0`
0_
0^
#1098
0B
#1102
1\
#1105
1D
#1106
0F
1T
#1107
0J
1X
#1138
0N
#1146
0R
#1147
0V
0Z
#1208
1P
#1326
1L
#1333
1H
#1334
0A
#1556
0C
#1560
0]
#1563
0E
#1564
0U
0G
#1565
0Y
0K
#1596
0O
#1604
0S
#1605
0[
0W
#1666
0Q
#1784
0M
#1791
0I
#3653
0'
#3672
0+
#3693
0%
#3696
0$
#3992
0,
#4006
00
#4010
0&
#4026
0)
#4042
03
#4069
02
#4106
0*
#4186
0.
#4237
0(
#4259
0/
#4276
0-
#4303
01
#5000
1"
04
#5434
1>
#6026
1;
#6264
1<
#8131
1m
#8489
0>
#9222
1A
#10000
0"
14
#11026
0;
#11264
0<
#11930
13
#15000
1"
04
#16026
1;
#16264
1<
#18131
0m
1l
#18489
1>
#20000
0"
14
#21026
0;
#21264
0<
#21930
03
#21957
12
#25000
1"
04
#26026
1;
#26264
1<
#28131
1m
#28489
0>
#29195
1B
#29222
0A
#29653
1C
#30000
0"
14
#31026
0;
#31264
0<
#31930
13
#35000
1"
04
#36026
1;
#36264
1<
#38131
0m
0l
1k
#38489
1>
#38986
0B
#40000
0"
14
#41026
0;
#41264
0<
#41930
03
#41957
02
#42191
11
#45000
1"
04
#46026
1;
#46264
1<
#48131
1m
#48489
0>
#49222
1A
#50000
0"
14
#51026
0;
#51264
0<
#51930
13
#55000
1"
04
#56026
1;
#56264
1<
#58131
0m
1l
#58489
1>
#60000
0"
14
#61026
0;
#61264
0<
#61930
03
#61957
12
#65000
1"
04
#66026
1;
#66264
1<
#68131
1m
#68489
0>
#69195
1B
#69222
0A
#69275
0D
#69653
0C
#69733
1E
#70000
0"
14
#71026
0;
#71264
0<
#71930
13
#75000
1"
04
#76026
1;
#76264
1<
#78131
0m
0l
0k
1j
#78489
1>
#78986
0B
#78993
1D
#80000
0"
14
#81026
0;
#81264
0<
#81894
10
#81930
03
#81957
02
#82191
01
#85000
1"
04
#86026
1;
#86264
1<
#88131
1m
#88489
0>
#89222
1A
#90000
0"
14
#91026
0;
#91264
0<
#91930
13
#95000
1"
04
#96026
1;
#96264
1<
#98131
0m
1l
#98489
1>
#100000
0"
14
#101026
0;
#101264
0<
#101930
03
#101957
12
#105000
1"
04
#106026
1;
#106264
1<
#108131
1m
#108489
0>
#109195
1B
#109222
0A
#109653
1C
#110000
0"
14
#111026
0;
#111264
0<
#111930
13
#115000
1"
04
#116026
1;
#116264
1<
#118131
0m
0l
1k
#118489
1>
#118986
0B
#120000
0"
14
#121026
0;
#121264
0<
#121930
03
#121957
02
#122191
11
#125000
1"
04
#126026
1;
#126264
1<
#128131
1m
#128489
0>
#129222
1A
#130000
0"
14
#131026
0;
#131264
0<
#131930
13
#135000
1"
04
#136026
1;
#136264
1<
#138131
0m
1l
#138489
1>
#140000
0"
14
#141026
0;
#141264
0<
#141930
03
#141957
12
#145000
1"
04
#146026
1;
#146264
1<
#148131
1m
#148489
0>
#149195
1B
#149222
0A
#149275
0D
#149355
1F
#149653
0C
#149733
0E
#149813
1G
#150000
0"
14
#151026
0;
#151264
0<
#151930
13
#155000
1"
04
#156026
1;
#156264
1<
#158131
0m
0l
0k
0j
1i
#158489
1>
#158986
0B
#158993
1D
#158994
0F
#160000
0"
14
#161026
0;
#161264
0<
#161894
00
#161930
03
#161957
02
#162147
1/
#162191
01
#165000
1"
04
#166026
1;
#166264
1<
#168131
1m
#168489
0>
#169222
1A
#170000
0"
14
#171026
0;
#171264
0<
#171930
13
#175000
1"
04
#176026
1;
#176264
1<
#178131
0m
1l
#178489
1>
#180000
0"
14
#181026
0;
#181264
0<
#181930
03
#181957
12
#185000
1"
04
#186026
1;
#186264
1<
#188131
1m
#188489
0>
#189195
1B
#189222
0A
#189653
1C
#190000
0"
14
#191026
0;
#191264
0<
#191930
13
#195000
1"
04
#196026
1;
#196264
1<
#198131
0m
0l
1k
#198489
1>
#198986
0B
#200000
0"
14
#201026
0;
#201264
0<
#201930
03
#201957
02
#202191
11
#205000
1"
04
#206026
1;
#206264
1<
#208131
1m
#208489
0>
#209222
1A
#210000
0"
14
#211026
0;
#211264
0<
#211930
13
#215000
1"
04
#216026
1;
#216264
1<
#218131
0m
1l
#218489
1>
#220000
0"
14
#221026
0;
#221264
0<
#221930
03
#221957
12
#225000
1"
04
#226026
1;
#226264
1<
#228131
1m
#228489
0>
#229195
1B
#229222
0A
#229275
0D
#229653
0C
#229733
1E
#230000
0"
14
#231026
0;
#231264
0<
#231930
13
#235000
1"
04
#236026
1;
#236264
1<
#238131
0m
0l
0k
1j
#238489
1>
#238986
0B
#238993
1D
#240000
0"
14
#241026
0;
#241264
0<
#241894
10
#241930
03
#241957
02
#242191
01
#245000
1"
04
#246026
1;
#246264
1<
#248131
1m
#248489
0>
#249222
1A
#250000
0"
14
#251026
0;
#251264
0<
#251930
13
#255000
1"
04
#256026
1;
#256264
1<
#258131
0m
1l
#258489
1>
#260000
0"
14
#261026
0;
#261264
0<
#261930
03
#261957
12
#265000
1"
04
#266026
1;
#266264
1<
#268131
1m
#268489
0>
#269195
1B
#269222
0A
#269653
1C
#270000
0"
14
#271026
0;
#271264
0<
#271930
13
#275000
1"
04
#276026
1;
#276264
1<
#278131
0m
0l
1k
#278489
1>
#278986
0B
#280000
0"
14
#281026
0;
#281264
0<
#281930
03
#281957
02
#282191
11
#285000
1"
04
#286026
1;
#286264
1<
#288131
1m
#288489
0>
#289222
1A
#290000
0"
14
#291026
0;
#291264
0<
#291930
13
#295000
1"
04
#296026
1;
#296264
1<
#298131
0m
1l
#298489
1>
#300000
0"
14
#301026
0;
#301264
0<
#301930
03
#301957
12
#305000
1"
04
#306026
1;
#306264
1<
#308131
1m
#308489
0>
#309195
1B
#309222
0A
#309275
0D
#309355
1F
#309435
0H
#309653
0C
#309733
0E
#309813
0G
#309893
1I
#310000
0"
14
#311026
0;
#311264
0<
#311930
13
#315000
1"
04
#316026
1;
#316264
1<
#318131
0m
0l
0k
0j
0i
1h
#318489
1>
#318986
0B
#318993
1D
#318994
0F
#318995
1J
#319021
0I
#319221
1H
#319301
0J
#319679
1I
#320000
0"
14
#321026
0;
#321264
0<
#321894
00
#321930
03
#321957
02
#322074
1.
#322147
0/
#322191
01
#325000
1"
04
#326026
1;
#326264
1<
#328131
1m
#328489
0>
#329222
1A
#330000
0"
14
#331026
0;
#331264
0<
#331930
13
#335000
1"
04
#336026
1;
#336264
1<
#338131
0m
1l
#338489
1>
#340000
0"
14
#341026
0;
#341264
0<
#341930
03
#341957
12
#345000
1"
04
#346026
1;
#346264
1<
#348131
1m
#348489
0>
#349195
1B
#349222
0A
#349653
1C
#350000
0"
14
#351026
0;
#351264
0<
#351930
13
#355000
1"
04
#356026
1;
#356264
1<
#358131
0m
0l
1k
#358489
1>
#358986
0B
#360000
0"
14
#361026
0;
#361264
0<
#361930
03
#361957
02
#362191
11
#365000
1"
04
#366026
1;
#366264
1<
#368131
1m
#368489
0>
#369222
1A
#370000
0"
14
#371026
0;
#371264
0<
#371930
13
#375000
1"
04
#376026
1;
#376264
1<
#378131
0m
1l
#378489
1>
#380000
0"
14
#381026
0;
#381264
0<
#381930
03
#381957
12
#385000
1"
04
#386026
1;
#386264
1<
#388131
1m
#388489
0>
#389195
1B
#389222
0A
#389275
0D
#389653
0C
#389733
1E
#390000
0"
14
#391026
0;
#391264
0<
#391930
13
#395000
1"
04
#396026
1;
#396264
1<
#398131
0m
0l
0k
1j
#398489
1>
#398986
0B
#398993
1D
#400000
0"
14
#401026
0;
#401264
0<
#401894
10
#401930
03
#401957
02
#402191
01
#405000
1"
04
#406026
1;
#406264
1<
#408131
1m
#408489
0>
#409222
1A
#410000
0"
14
#411026
0;
#411264
0<
#411930
13
#415000
1"
04
#416026
1;
#416264
1<
#418131
0m
1l
#418489
1>
#420000
0"
14
#421026
0;
#421264
0<
#421930
03
#421957
12
#425000
1"
04
#426026
1;
#426264
1<
#428131
1m
#428489
0>
#429195
1B
#429222
0A
#429653
1C
#430000
0"
14
#431026
0;
#431264
0<
#431930
13
#435000
1"
04
#436026
1;
#436264
1<
#438131
0m
0l
1k
#438489
1>
#438986
0B
#440000
0"
14
#441026
0;
#441264
0<
#441930
03
#441957
02
#442191
11
#445000
1"
04
#446026
1;
#446264
1<
#448131
1m
#448489
0>
#449222
1A
#450000
0"
14
#451026
0;
#451264
0<
#451930
13
#455000
1"
04
#456026
1;
#456264
1<
#458131
0m
1l
#458489
1>
#460000
0"
14
#461026
0;
#461264
0<
#461930
03
#461957
12
#465000
1"
04
#466026
1;
#466264
1<
#468131
1m
#468489
0>
#469195
1B
#469222
0A
#469275
0D
#469355
1F
#469653
0C
#469733
0E
#469813
1G
#470000
0"
14
#471026
0;
#471264
0<
#471930
13
#475000
1"
04
#476026
1;
#476264
1<
#478131
0m
0l
0k
0j
1i
#478489
1>
#478986
0B
#478993
1D
#478994
0F
#480000
0"
14
#481026
0;
#481264
0<
#481894
00
#481930
03
#481957
02
#482147
1/
#482191
01
#485000
1"
04
#486026
1;
#486264
1<
#488131
1m
#488489
0>
#489222
1A
#490000
0"
14
#491026
0;
#491264
0<
#491930
13
#495000
1"
04
#496026
1;
#496264
1<
#498131
0m
1l
#498489
1>
#500000
0"
14
#501026
0;
#501264
0<
#501930
03
#501957
12
#505000
1"
04
#506026
1;
#506264
1<
#508131
1m
#508489
0>
#509195
1B
#509222
0A
#509653
1C
#510000
0"
14
#511026
0;
#511264
0<
#511930
13
#515000
1"
04
#516026
1;
#516264
1<
#518131
0m
0l
1k
#518489
1>
#518986
0B
#520000
0"
14
#521026
0;
#521264
0<
#521930
03
#521957
02
#522191
11
#525000
1"
04
#526026
1;
#526264
1<
#528131
1m
#528489
0>
#529222
1A
#530000
0"
14
#531026
0;
#531264
0<
#531930
13
#535000
1"
04
#536026
1;
#536264
1<
#538131
0m
1l
#538489
1>
#540000
0"
14
#541026
0;
#541264
0<
#541930
03
#541957
12
#545000
1"
04
#546026
1;
#546264
1<
#548131
1m
#548489
0>
#549195
1B
#549222
0A
#549275
0D
#549653
0C
#549733
1E
#550000
0"
14
#551026
0;
#551264
0<
#551930
13
#555000
1"
04
#556026
1;
#556264
1<
#558131
0m
0l
0k
1j
#558489
1>
#558986
0B
#558993
1D
#560000
0"
14
#561026
0;
#561264
0<
#561894
10
#561930
03
#561957
02
#562191
01
#565000
1"
04
#566026
1;
#566264
1<
#568131
1m
#568489
0>
#569222
1A
#570000
0"
14
#571026
0;
#571264
0<
#571930
13
#575000
1"
04
#576026
1;
#576264
1<
#578131
0m
1l
#578489
1>
#580000
0"
14
#581026
0;
#581264
0<
#581930
03
#581957
12
#585000
1"
04
#586026
1;
#586264
1<
#588131
1m
#588489
0>
#589195
1B
#589222
0A
#589653
1C
#590000
0"
14
#591026
0;
#591264
0<
#591930
13
#595000
1"
04
#596026
1;
#596264
1<
#598131
0m
0l
1k
#598489
1>
#598986
0B
#600000
0"
14
#601026
0;
#601264
0<
#601930
03
#601957
02
#602191
11
#605000
1"
04
#606026
1;
#606264
1<
#608131
1m
#608489
0>
#609222
1A
#610000
0"
14
#611026
0;
#611264
0<
#611930
13
#615000
1"
04
#616026
1;
#616264
1<
#618131
0m
1l
#618489
1>
#620000
0"
14
#621026
0;
#621264
0<
#621930
03
#621957
12
#625000
1"
04
#626026
1;
#626264
1<
#628131
1m
#628489
0>
#629195
1B
#629222
0A
#629275
0D
#629355
1F
#629435
0H
#629515
1J
#629653
0C
#629733
0E
#629813
0G
#629893
0I
#629973
1K
#630000
0"
14
#631026
0;
#631264
0<
#631930
13
#635000
1"
04
#636026
1;
#636264
1<
#638131
0m
0l
0k
0j
0i
0h
1g
#638489
1>
#638986
0B
#638993
1D
#638994
0F
#638995
0J
#639021
1I
#639221
1H
#639679
0I
#640000
0"
14
#641026
0;
#641264
0<
#641894
00
#641930
03
#641957
02
#642074
0.
#642147
0/
#642164
1-
#642191
01
#645000
1"
04
#646026
1;
#646264
1<
#648131
1m
#648489
0>
#649222
1A
#650000
0"
14
#651026
0;
#651264
0<
#651930
13
#655000
1"
04
#656026
1;
#656264
1<
#658131
0m
1l
#658489
1>
#660000
0"
14
#661026
0;
#661264
0<
#661930
03
#661957
12
#665000
1"
04
#666026
1;
#666264
1<
#668131
1m
#668489
0>
#669195
1B
#669222
0A
#669653
1C
#670000
0"
14
#671026
0;
#671264
0<
#671930
13
#675000
1"
04
#676026
1;
#676264
1<
#678131
0m
0l
1k
#678489
1>
#678986
0B
#680000
0"
14
#681026
0;
#681264
0<
#681930
03
#681957
02
#682191
11
#685000
1"
04
#686026
1;
#686264
1<
#688131
1m
#688489
0>
#689222
1A
#690000
0"
14
#691026
0;
#691264
0<
#691930
13
#695000
1"
04
#696026
1;
#696264
1<
#698131
0m
1l
#698489
1>
#700000
0"
14
#701026
0;
#701264
0<
#701930
03
#701957
12
#705000
1"
04
#706026
1;
#706264
1<
#708131
1m
#708489
0>
#709195
1B
#709222
0A
#709275
0D
#709653
0C
#709733
1E
#710000
0"
14
#711026
0;
#711264
0<
#711930
13
#715000
1"
04
#716026
1;
#716264
1<
#718131
0m
0l
0k
1j
#718489
1>
#718986
0B
#718993
1D
#720000
0"
14
#721026
0;
#721264
0<
#721894
10
#721930
03
#721957
02
#722191
01
#725000
1"
04
#726026
1;
#726264
1<
#728131
1m
#728489
0>
#729222
1A
#730000
0"
14
#731026
0;
#731264
0<
#731930
13
#735000
1"
04
#736026
1;
#736264
1<
#738131
0m
1l
#738489
1>
#740000
0"
14
#741026
0;
#741264
0<
#741930
03
#741957
12
#745000
1"
04
#746026
1;
#746264
1<
#748131
1m
#748489
0>
#749195
1B
#749222
0A
#749653
1C
#750000
0"
14
#751026
0;
#751264
0<
#751930
13
#755000
1"
04
#756026
1;
#756264
1<
#758131
0m
0l
1k
#758489
1>
#758986
0B
#760000
0"
14
#761026
0;
#761264
0<
#761930
03
#761957
02
#762191
11
#765000
1"
04
#766026
1;
#766264
1<
#768131
1m
#768489
0>
#769222
1A
#770000
0"
14
#771026
0;
#771264
0<
#771930
13
#775000
1"
04
#776026
1;
#776264
1<
#778131
0m
1l
#778489
1>
#780000
0"
14
#781026
0;
#781264
0<
#781930
03
#781957
12
#785000
1"
04
#786026
1;
#786264
1<
#788131
1m
#788489
0>
#789195
1B
#789222
0A
#789275
0D
#789355
1F
#789653
0C
#789733
0E
#789813
1G
#790000
0"
14
#791026
0;
#791264
0<
#791930
13
#795000
1"
04
#796026
1;
#796264
1<
#798131
0m
0l
0k
0j
1i
#798489
1>
#798986
0B
#798993
1D
#798994
0F
#800000
0"
14
#801026
0;
#801264
0<
#801894
00
#801930
03
#801957
02
#802147
1/
#802191
01
#805000
1"
04
#806026
1;
#806264
1<
#808131
1m
#808489
0>
#809222
1A
#810000
0"
14
#811026
0;
#811264
0<
#811930
13
#815000
1"
04
#816026
1;
#816264
1<
#818131
0m
1l
#818489
1>
#820000
0"
14
#821026
0;
#821264
0<
#821930
03
#821957
12
#825000
1"
04
#826026
1;
#826264
1<
#828131
1m
#828489
0>
#829195
1B
#829222
0A
#829653
1C
#830000
0"
14
#831026
0;
#831264
0<
#831930
13
#835000
1"
04
#836026
1;
#836264
1<
#838131
0m
0l
1k
#838489
1>
#838986
0B
#840000
0"
14
#841026
0;
#841264
0<
#841930
03
#841957
02
#842191
11
#845000
1"
04
#846026
1;
#846264
1<
#848131
1m
#848489
0>
#849222
1A
#850000
0"
14
#851026
0;
#851264
0<
#851930
13
#855000
1"
04
#856026
1;
#856264
1<
#858131
0m
1l
#858489
1>
#860000
0"
14
#861026
0;
#861264
0<
#861930
03
#861957
12
#865000
1"
04
#866026
1;
#866264
1<
#868131
1m
#868489
0>
#869195
1B
#869222
0A
#869275
0D
#869653
0C
#869733
1E
#870000
0"
14
#871026
0;
#871264
0<
#871930
13
#875000
1"
04
#876026
1;
#876264
1<
#878131
0m
0l
0k
1j
#878489
1>
#878986
0B
#878993
1D
#880000
0"
14
#881026
0;
#881264
0<
#881894
10
#881930
03
#881957
02
#882191
01
#885000
1"
04
#886026
1;
#886264
1<
#888131
1m
#888489
0>
#889222
1A
#890000
0"
14
#891026
0;
#891264
0<
#891930
13
#895000
1"
04
#896026
1;
#896264
1<
#898131
0m
1l
#898489
1>
#900000
0"
14
#901026
0;
#901264
0<
#901930
03
#901957
12
#905000
1"
04
#906026
1;
#906264
1<
#908131
1m
#908489
0>
#909195
1B
#909222
0A
#909653
1C
#910000
0"
14
#911026
0;
#911264
0<
#911930
13
#915000
1"
04
#916026
1;
#916264
1<
#918131
0m
0l
1k
#918489
1>
#918986
0B
#920000
0"
14
#921026
0;
#921264
0<
#921930
03
#921957
02
#922191
11
#925000
1"
04
#926026
1;
#926264
1<
#928131
1m
#928489
0>
#929222
1A
#930000
0"
14
#931026
0;
#931264
0<
#931930
13
#935000
1"
04
#936026
1;
#936264
1<
#938131
0m
1l
#938489
1>
#940000
0"
14
#941026
0;
#941264
0<
#941930
03
#941957
12
#945000
1"
04
#946026
1;
#946264
1<
#948131
1m
#948489
0>
#949195
1B
#949222
0A
#949275
0D
#949355
1F
#949435
0H
#949653
0C
#949733
0E
#949813
0G
#949893
1I
#950000
0"
14
#951026
0;
#951264
0<
#951930
13
#955000
1"
04
#956026
1;
#956264
1<
#958131
0m
0l
0k
0j
0i
1h
#958489
1>
#958986
0B
#958993
1D
#958994
0F
#958995
1J
#959021
0I
#959075
0L
#959221
1H
#959301
0J
#959381
1L
#959679
1I
#960000
0"
14
#961026
0;
#961264
0<
#961894
00
#961930
03
#961957
02
#962074
1.
#962147
0/
#962191
01
#965000
1"
04
#966026
1;
#966264
1<
#968131
1m
#968489
0>
#969222
1A
#970000
0"
14
#971026
0;
#971264
0<
#971930
13
#975000
1"
04
#976026
1;
#976264
1<
#978131
0m
1l
#978489
1>
#980000
0"
14
#981026
0;
#981264
0<
#981930
03
#981957
12
#985000
1"
04
#986026
1;
#986264
1<
#988131
1m
#988489
0>
#989195
1B
#989222
0A
#989653
1C
#990000
0"
14
#991026
0;
#991264
0<
#991930
13
#995000
1"
04
#996026
1;
#996264
1<
#998131
0m
0l
1k
#998489
1>
#998986
0B
