COMP3222/WKSpace/Lab4/part2/simulation/qsim/part2.msim.vcd
$comment
	File created using the following command:
		vcd file part2.msim.vcd -direction
$end
$date
	Sun Oct 27 22:18:32 2019
$end
$version
	ModelSim Version 10.1d
$end
$timescale
	1ps
$end
$scope module part2_vlg_vec_tst $end
$var reg 1 ! Clear $end
$var reg 1 " Cloc $end
$var reg 1 # Enable $end
$var wire 1 $ Cout [15] $end
$var wire 1 % Cout [14] $end
$var wire 1 & Cout [13] $end
$var wire 1 ' Cout [12] $end
$var wire 1 ( Cout [11] $end
$var wire 1 ) Cout [10] $end
$var wire 1 * Cout [9] $end
$var wire 1 + Cout [8] $end
$var wire 1 , Cout [7] $end
$var wire 1 - Cout [6] $end
$var wire 1 . Cout [5] $end
$var wire 1 / Cout [4] $end
$var wire 1 0 Cout [3] $end
$var wire 1 1 Cout [2] $end
$var wire 1 2 Cout [1] $end
$var wire 1 3 Cout [0] $end
$var wire 1 4 sampler $end
$scope module i1 $end
$var wire 1 5 gnd $end
$var wire 1 6 vcc $end
$var wire 1 7 unknown $end
$var tri1 1 8 devclrn $end
$var tri1 1 9 devpor $end
$var tri1 1 : devoe $end
$var wire 1 ; Cloc~combout $end
$var wire 1 < Cloc~clkctrl_outclk $end
$var wire 1 = Enable~combout $end
$var wire 1 > countingUp|Q[0]~15_combout $end
$var wire 1 ? Clear~combout $end
$var wire 1 @ Clear~clkctrl_outclk $end
$var wire 1 A countingUp|Q[1]~16_combout $end
$var wire 1 B countingUp|Q[1]~17 $end
$var wire 1 C countingUp|Q[2]~18_combout $end
$var wire 1 D countingUp|Q[2]~19 $end
$var wire 1 E countingUp|Q[3]~20_combout $end
$var wire 1 F countingUp|Q[3]~21 $end
$var wire 1 G countingUp|Q[4]~22_combout $end
$var wire 1 H countingUp|Q[4]~23 $end
$var wire 1 I countingUp|Q[5]~24_combout $end
$var wire 1 J countingUp|Q[5]~25 $end
$var wire 1 K countingUp|Q[6]~26_combout $end
$var wire 1 L countingUp|Q[6]~27 $end
$var wire 1 M countingUp|Q[7]~28_combout $end
$var wire 1 N countingUp|Q[7]~29 $end
$var wire 1 O countingUp|Q[8]~30_combout $end
$var wire 1 P countingUp|Q[8]~31 $end
$var wire 1 Q countingUp|Q[9]~32_combout $end
$var wire 1 R countingUp|Q[9]~33 $end
$var wire 1 S countingUp|Q[10]~34_combout $end
$var wire 1 T countingUp|Q[10]~35 $end
$var wire 1 U countingUp|Q[11]~36_combout $end
$var wire 1 V countingUp|Q[11]~37 $end
$var wire 1 W countingUp|Q[12]~38_combout $end
$var wire 1 X countingUp|Q[12]~39 $end
$var wire 1 Y countingUp|Q[13]~40_combout $end
$var wire 1 Z countingUp|Q[13]~41 $end
$var wire 1 [ countingUp|Q[14]~42_combout $end
$var wire 1 \ countingUp|Q[14]~43 $end
$var wire 1 ] countingUp|Q[15]~44_combout $end
$var wire 1 ^ countingUp|Q [15] $end
$var wire 1 _ countingUp|Q [14] $end
$var wire 1 ` countingUp|Q [13] $end
$var wire 1 a countingUp|Q [12] $end
$var wire 1 b countingUp|Q [11] $end
$var wire 1 c countingUp|Q [10] $end
$var wire 1 d countingUp|Q [9] $end
$var wire 1 e countingUp|Q [8] $end
$var wire 1 f countingUp|Q [7] $end
$var wire 1 g countingUp|Q [6] $end
$var wire 1 h countingUp|Q [5] $end
$var wire 1 i countingUp|Q [4] $end
$var wire 1 j countingUp|Q [3] $end
$var wire 1 k countingUp|Q [2] $end
$var wire 1 l countingUp|Q [1] $end
$var wire 1 m countingUp|Q [0] $end
$upscope $end
$upscope $end
$enddefinitions $end
#0
$dumpvars
0!
0"
1#
03
02
01
00
0/
0.
0-
0,
0+
0*
0)
0(
0'
0&
0%
0$
x4
05
16
x7
18
19
1:
0;
0<
1=
1>
0?
0@
0A
0B
0C
1D
0E
0F
0G
1H
0I
0J
0K
1L
0M
0N
0O
1P
0Q
0R
0S
1T
0U
0V
0W
1X
0Y
0Z
0[
1\
0]
0m
0l
0k
0j
0i
0h
0g
0f
0e
0d
0c
0b
0a
0`
0_
0^
$end
#5000
1"
1;
1<
04
1m
1A
0>
13
#10000
0"
0;
0<
14
#15000
1"
1;
1<
04
1l
0m
1>
12
03
#20000
0"
0;
0<
14
#25000
1"
1;
1<
04
1m
1B
0A
0>
13
1C
#30000
0"
0;
0<
14
#35000
1"
1;
1<
04
1k
0l
0m
0D
0C
0B
1>
11
02
03
1E
1D
1C
0E
#40000
0"
0;
0<
14
#45000
1"
1;
1<
04
1m
1A
0>
13
#50000
0"
0;
0<
14
#55000
1"
1;
1<
04
1l
0m
1>
12
03
#60000
0"
0;
0<
14
#65000
1"
1;
1<
04
1m
1B
0A
0>
13
0D
0C
1E
#70000
0"
0;
0<
14
#75000
1"
1;
1<
04
1j
0k
0l
0m
1F
0E
1D
1C
0B
1>
10
01
02
03
1G
0F
1E
0C
0G
#80000
0"
0;
0<
14
#85000
1"
1;
1<
04
1m
1A
0>
13
#90000
0"
0;
0<
14
#95000
1"
1;
1<
04
1l
0m
1>
12
03
#100000
0"
0;
0<
14
#105000
1"
1;
1<
04
1m
1B
0A
0>
13
1C
#110000
0"
0;
0<
14
#115000
1"
1;
1<
04
1k
0l
0m
0D
0C
0B
1>
11
02
03
1F
0E
1D
1C
1G
0F
1E
0G
#120000
0"
0;
0<
14
#125000
1"
1;
1<
04
1m
1A
0>
13
#130000
0"
0;
0<
14
#135000
1"
1;
1<
04
1l
0m
1>
12
03
#140000
0"
0;
0<
14
#145000
1"
1;
1<
04
1m
1B
0A
0>
13
0D
0C
1F
0E
1G
#150000
0"
0;
0<
14
#155000
1"
1;
1<
04
1i
0j
0k
0l
0m
0H
0G
0F
1E
1D
1C
0B
1>
1/
00
01
02
03
1I
1H
1G
0E
0C
0I
#160000
0"
0;
0<
14
#165000
1"
1;
1<
04
1m
1A
0>
13
#170000
0"
0;
0<
14
#175000
1"
1;
1<
04
1l
0m
1>
12
03
#180000
0"
0;
0<
14
#185000
1"
1;
1<
04
1m
1B
0A
0>
13
1C
#190000
0"
0;
0<
14
#195000
1"
1;
1<
04
1k
0l
0m
0D
0C
0B
1>
11
02
03
1E
1D
1C
0E
#200000
0"
0;
0<
14
#205000
1"
1;
1<
04
1m
1A
0>
13
#210000
0"
0;
0<
14
#215000
1"
1;
1<
04
1l
0m
1>
12
03
#220000
0"
0;
0<
14
#225000
1"
1;
1<
04
1m
1B
0A
0>
13
0D
0C
1E
#230000
0"
0;
0<
14
#235000
1"
1;
1<
04
1j
0k
0l
0m
1F
0E
1D
1C
0B
1>
10
01
02
03
0H
0G
0F
1E
0C
1I
1H
1G
0I
#240000
0"
0;
0<
14
#245000
1"
1;
1<
04
1m
1A
0>
13
#250000
0"
0;
0<
14
#255000
1"
1;
1<
04
1l
0m
1>
12
03
#260000
0"
0;
0<
14
#265000
1"
1;
1<
04
1m
1B
0A
0>
13
1C
#270000
0"
0;
0<
14
#275000
1"
1;
1<
04
1k
0l
0m
0D
0C
0B
1>
11
02
03
1F
0E
1D
1C
0H
0G
0F
1E
1I
1H
1G
0I
#280000
0"
0;
0<
14
#285000
1"
1;
1<
04
1m
1A
0>
13
#290000
0"
0;
0<
14
#295000
1"
1;
1<
04
1l
0m
1>
12
03
#300000
0"
0;
0<
14
#305000
1"
1;
1<
04
1m
1B
0A
0>
13
0D
0C
1F
0E
0H
0G
1I
#310000
0"
0;
0<
14
#315000
1"
1;
1<
04
1h
0i
0j
0k
0l
0m
1J
0I
1H
1G
0F
1E
1D
1C
0B
1>
1.
0/
00
01
02
03
1K
0J
1I
0G
0E
0C
0K
#320000
0"
0;
0<
14
#325000
1"
1;
1<
04
1m
1A
0>
13
#330000
0"
0;
0<
14
#335000
1"
1;
1<
04
1l
0m
1>
12
03
#340000
0"
0;
0<
14
#345000
1"
1;
1<
04
1m
1B
0A
0>
13
1C
#350000
0"
0;
0<
14
#355000
1"
1;
1<
04
1k
0l
0m
0D
0C
0B
1>
11
02
03
1E
1D
1C
0E
#360000
0"
0;
0<
14
#365000
1"
1;
1<
04
1m
1A
0>
13
#370000
0"
0;
0<
14
#375000
1"
1;
1<
04
1l
0m
1>
12
03
#380000
0"
0;
0<
14
#385000
1"
1;
1<
04
1m
1B
0A
0>
13
0D
0C
1E
#390000
0"
0;
0<
14
#395000
1"
1;
1<
04
1j
0k
0l
0m
1F
0E
1D
1C
0B
1>
10
01
02
03
1G
0F
1E
0C
0G
#400000
0"
0;
0<
14
#405000
1"
1;
1<
04
1m
1A
0>
13
#410000
0"
0;
0<
14
#415000
1"
1;
1<
04
1l
0m
1>
12
03
#420000
0"
0;
0<
14
#425000
1"
1;
1<
04
1m
1B
0A
0>
13
1C
#430000
0"
0;
0<
14
#435000
1"
1;
1<
04
1k
0l
0m
0D
0C
0B
1>
11
02
03
1F
0E
1D
1C
1G
0F
1E
0G
#440000
0"
0;
0<
14
#445000
1"
1;
1<
04
1m
1A
0>
13
#450000
0"
0;
0<
14
#455000
1"
1;
1<
04
1l
0m
1>
12
03
#460000
0"
0;
0<
14
#465000
1"
1;
1<
04
1m
1B
0A
0>
13
0D
0C
1F
0E
1G
#470000
0"
0;
0<
14
#475000
1"
1;
1<
04
1i
0j
0k
0l
0m
0H
0G
0F
1E
1D
1C
0B
1>
1/
00
01
02
03
1J
0I
1H
1G
0E
0C
1K
0J
1I
0K
#480000
0"
0;
0<
14
#485000
1"
1;
1<
04
1m
1A
0>
13
#490000
0"
0;
0<
14
#495000
1"
1;
1<
04
1l
0m
1>
12
03
#500000
0"
0;
0<
14
#505000
1"
1;
1<
04
1m
1B
0A
0>
13
1C
#510000
0"
0;
0<
14
#515000
1"
1;
1<
04
1k
0l
0m
0D
0C
0B
1>
11
02
03
1E
1D
1C
0E
#520000
0"
0;
0<
14
#525000
1"
1;
1<
04
1m
1A
0>
13
#530000
0"
0;
0<
14
#535000
1"
1;
1<
04
1l
0m
1>
12
03
#540000
0"
0;
0<
14
#545000
1"
1;
1<
04
1m
1B
0A
0>
13
0D
0C
1E
#550000
0"
0;
0<
14
#555000
1"
1;
1<
04
1j
0k
0l
0m
1F
0E
1D
1C
0B
1>
10
01
02
03
0H
0G
0F
1E
0C
1J
0I
1H
1G
1K
0J
1I
0K
#560000
0"
0;
0<
14
#565000
1"
1;
1<
04
1m
1A
0>
13
#570000
0"
0;
0<
14
#575000
1"
1;
1<
04
1l
0m
1>
12
03
#580000
0"
0;
0<
14
#585000
1"
1;
1<
04
1m
1B
0A
0>
13
1C
#590000
0"
0;
0<
14
#595000
1"
1;
1<
04
1k
0l
0m
0D
0C
0B
1>
11
02
03
1F
0E
1D
1C
0H
0G
0F
1E
1J
0I
1H
1G
1K
0J
1I
0K
#600000
0"
0;
0<
14
#605000
1"
1;
1<
04
1m
1A
0>
13
#610000
0"
0;
0<
14
#615000
1"
1;
1<
04
1l
0m
1>
12
03
#620000
0"
0;
0<
14
#625000
1"
1;
1<
04
1m
1B
0A
0>
13
0D
0C
1F
0E
0H
0G
1J
0I
1K
#630000
0"
0;
0<
14
#635000
1"
1;
1<
04
1g
0h
0i
0j
0k
0l
0m
0L
0K
0J
1I
1H
1G
0F
1E
1D
1C
0B
1>
1-
0.
0/
00
01
02
03
1M
1L
1K
0I
0G
0E
0C
0M
#640000
0"
0;
0<
14
#645000
1"
1;
1<
04
1m
1A
0>
13
#650000
0"
0;
0<
14
#655000
1"
1;
1<
04
1l
0m
1>
12
03
#660000
0"
0;
0<
14
#665000
1"
1;
1<
04
1m
1B
0A
0>
13
1C
#670000
0"
0;
0<
14
#675000
1"
1;
1<
04
1k
0l
0m
0D
0C
0B
1>
11
02
03
1E
1D
1C
0E
#680000
0"
0;
0<
14
#685000
1"
1;
1<
04
1m
1A
0>
13
#690000
0"
0;
0<
14
#695000
1"
1;
1<
04
1l
0m
1>
12
03
#700000
0"
0;
0<
14
#705000
1"
1;
1<
04
1m
1B
0A
0>
13
0D
0C
1E
#710000
0"
0;
0<
14
#715000
1"
1;
1<
04
1j
0k
0l
0m
1F
0E
1D
1C
0B
1>
10
01
02
03
1G
0F
1E
0C
0G
#720000
0"
0;
0<
14
#725000
1"
1;
1<
04
1m
1A
0>
13
#730000
0"
0;
0<
14
#735000
1"
1;
1<
04
1l
0m
1>
12
03
#740000
0"
0;
0<
14
#745000
1"
1;
1<
04
1m
1B
0A
0>
13
1C
#750000
0"
0;
0<
14
#755000
1"
1;
1<
04
1k
0l
0m
0D
0C
0B
1>
11
02
03
1F
0E
1D
1C
1G
0F
1E
0G
#760000
0"
0;
0<
14
#765000
1"
1;
1<
04
1m
1A
0>
13
#770000
0"
0;
0<
14
#775000
1"
1;
1<
04
1l
0m
1>
12
03
#780000
0"
0;
0<
14
#785000
1"
1;
1<
04
1m
1B
0A
0>
13
0D
0C
1F
0E
1G
#790000
0"
0;
0<
14
#795000
1"
1;
1<
04
1i
0j
0k
0l
0m
0H
0G
0F
1E
1D
1C
0B
1>
1/
00
01
02
03
1I
1H
1G
0E
0C
0I
#800000
0"
0;
0<
14
#805000
1"
1;
1<
04
1m
1A
0>
13
#810000
0"
0;
0<
14
#815000
1"
1;
1<
04
1l
0m
1>
12
03
#820000
0"
0;
0<
14
#825000
1"
1;
1<
04
1m
1B
0A
0>
13
1C
#830000
0"
0;
0<
14
#835000
1"
1;
1<
04
1k
0l
0m
0D
0C
0B
1>
11
02
03
1E
1D
1C
0E
#840000
0"
0;
0<
14
#845000
1"
1;
1<
04
1m
1A
0>
13
#850000
0"
0;
0<
14
#855000
1"
1;
1<
04
1l
0m
1>
12
03
#860000
0"
0;
0<
14
#865000
1"
1;
1<
04
1m
1B
0A
0>
13
0D
0C
1E
#870000
0"
0;
0<
14
#875000
1"
1;
1<
04
1j
0k
0l
0m
1F
0E
1D
1C
0B
1>
10
01
02
03
0H
0G
0F
1E
0C
1I
1H
1G
0I
#880000
0"
0;
0<
14
#885000
1"
1;
1<
04
1m
1A
0>
13
#890000
0"
0;
0<
14
#895000
1"
1;
1<
04
1l
0m
1>
12
03
#900000
0"
0;
0<
14
#905000
1"
1;
1<
04
1m
1B
0A
0>
13
1C
#910000
0"
0;
0<
14
#915000
1"
1;
1<
04
1k
0l
0m
0D
0C
0B
1>
11
02
03
1F
0E
1D
1C
0H
0G
0F
1E
1I
1H
1G
0I
#920000
0"
0;
0<
14
#925000
1"
1;
1<
04
1m
1A
0>
13
#930000
0"
0;
0<
14
#935000
1"
1;
1<
04
1l
0m
1>
12
03
#940000
0"
0;
0<
14
#945000
1"
1;
1<
04
1m
1B
0A
0>
13
0D
0C
1F
0E
0H
0G
1I
#950000
0"
0;
0<
14
#955000
1"
1;
1<
04
1h
0i
0j
0k
0l
0m
1J
0I
1H
1G
0F
1E
1D
1C
0B
1>
1.
0/
00
01
02
03
0L
0K
0J
1I
0G
0E
0C
1M
1L
1K
0M
#960000
0"
0;
0<
14
#965000
1"
1;
1<
04
1m
1A
0>
13
#970000
0"
0;
0<
14
#975000
1"
1;
1<
04
1l
0m
1>
12
03
#980000
0"
0;
0<
14
#985000
1"
1;
1<
04
1m
1B
0A
0>
13
1C
#990000
0"
0;
0<
14
#995000
1"
1;
1<
04
1k
0l
0m
0D
0C
0B
1>
11
02
03
1E
1D
1C
0E
