COMP3222/WKSpace/Lab11/partFinal/simulation/qsim/part2.msim.vcd
$comment
	File created using the following command:
		vcd file part2.msim.vcd -direction
$end
$date
	Mon Nov 18 12:27:46 2019
$end
$version
	ModelSim Version 10.1d
$end
$timescale
	1ps
$end
$scope module part2_vlg_vec_tst $end
$var reg 1 ! Clock $end
$var reg 8 " Data [7:0] $end
$var reg 1 # Resetn $end
$var reg 1 $ s $end
$var wire 1 % Addr [4] $end
$var wire 1 & Addr [3] $end
$var wire 1 ' Addr [2] $end
$var wire 1 ( Addr [1] $end
$var wire 1 ) Addr [0] $end
$var wire 1 * DL [4] $end
$var wire 1 + DL [3] $end
$var wire 1 , DL [2] $end
$var wire 1 - DL [1] $end
$var wire 1 . DL [0] $end
$var wire 1 / Done $end
$var wire 1 0 DR [4] $end
$var wire 1 1 DR [3] $end
$var wire 1 2 DR [2] $end
$var wire 1 3 DR [1] $end
$var wire 1 4 DR [0] $end
$var wire 1 5 Dref [7] $end
$var wire 1 6 Dref [6] $end
$var wire 1 7 Dref [5] $end
$var wire 1 8 Dref [4] $end
$var wire 1 9 Dref [3] $end
$var wire 1 : Dref [2] $end
$var wire 1 ; Dref [1] $end
$var wire 1 < Dref [0] $end
$var wire 1 = Dsth [7] $end
$var wire 1 > Dsth [6] $end
$var wire 1 ? Dsth [5] $end
$var wire 1 @ Dsth [4] $end
$var wire 1 A Dsth [3] $end
$var wire 1 B Dsth [2] $end
$var wire 1 C Dsth [1] $end
$var wire 1 D Dsth [0] $end
$var wire 1 E Dtar [7] $end
$var wire 1 F Dtar [6] $end
$var wire 1 G Dtar [5] $end
$var wire 1 H Dtar [4] $end
$var wire 1 I Dtar [3] $end
$var wire 1 J Dtar [2] $end
$var wire 1 K Dtar [1] $end
$var wire 1 L Dtar [0] $end
$var wire 1 M Found $end
$var wire 1 N sampler $end
$scope module i1 $end
$var wire 1 O gnd $end
$var wire 1 P vcc $end
$var wire 1 Q unknown $end
$var tri1 1 R devclrn $end
$var tri1 1 S devpor $end
$var tri1 1 T devoe $end
$var wire 1 U ML~0_combout $end
$var wire 1 V Selector3~0_combout $end
$var wire 1 W Clock~combout $end
$var wire 1 X LoadData|Q~0_combout $end
$var wire 1 Y s~combout $end
$var wire 1 Z LoadData|Q~8_combout $end
$var wire 1 [ LoadData|Q~7_combout $end
$var wire 1 \ LoadData|Q~6_combout $end
$var wire 1 ] LoadData|Q~5_combout $end
$var wire 1 ^ LoadData|Q~4_combout $end
$var wire 1 _ LoadData|Q~3_combout $end
$var wire 1 ` LoadData|Q~2_combout $end
$var wire 1 a LessThan2~1_cout $end
$var wire 1 b LessThan2~3_cout $end
$var wire 1 c LessThan2~5_cout $end
$var wire 1 d LessThan2~7_cout $end
$var wire 1 e LessThan2~9_cout $end
$var wire 1 f LessThan2~11_cout $end
$var wire 1 g LessThan2~13_cout $end
$var wire 1 h LessThan2~14_combout $end
$var wire 1 i ~GND~combout $end
$var wire 1 j MR~0_combout $end
$var wire 1 k R[3]~7_combout $end
$var wire 1 l R[4]~10_combout $end
$var wire 1 m R[0]~9_combout $end
$var wire 1 n M[0]~5_cout $end
$var wire 1 o M[0]~7 $end
$var wire 1 p M[1]~9 $end
$var wire 1 q M[2]~10_combout $end
$var wire 1 r Add0~1_combout $end
$var wire 1 s R[4]~8_combout $end
$var wire 1 t L[0]~0_combout $end
$var wire 1 u Resetn~combout $end
$var wire 1 v L[4]~1_combout $end
$var wire 1 w controlsignals~0_combout $end
$var wire 1 x controlsignals~1_combout $end
$var wire 1 y controlsignals~2_combout $end
$var wire 1 z controlsignals~3_combout $end
$var wire 1 { Finish~combout $end
$var wire 1 | Selector1~0_combout $end
$var wire 1 } y.S1~regout $end
$var wire 1 ~ Finish~0_combout $end
$var wire 1 !! y.S2~regout $end
$var wire 1 "! y.S3~regout $end
$var wire 1 #! y_next.S4~0_combout $end
$var wire 1 $! y.S4~regout $end
$var wire 1 %! Add0~0_combout $end
$var wire 1 &! R[2]~11_combout $end
$var wire 1 '! M[1]~8_combout $end
$var wire 1 (! R[1]~6_combout $end
$var wire 1 )! M[0]~6_combout $end
$var wire 1 *! M[2]~11 $end
$var wire 1 +! M[3]~12_combout $end
$var wire 1 ,! LessThan1~1_cout $end
$var wire 1 -! LessThan1~3_cout $end
$var wire 1 .! LessThan1~5_cout $end
$var wire 1 /! LessThan1~7_cout $end
$var wire 1 0! LessThan1~9_cout $end
$var wire 1 1! LessThan1~11_cout $end
$var wire 1 2! LessThan1~13_cout $end
$var wire 1 3! LessThan1~14_combout $end
$var wire 1 4! Selector2~0_combout $end
$var wire 1 5! Selector2~1_combout $end
$var wire 1 6! y.S5~regout $end
$var wire 1 7! Selector0~0_combout $end
$var wire 1 8! y.SI~regout $end
$var wire 1 9! LoadData|Q~1_combout $end
$var wire 1 :! L[1]~2_combout $end
$var wire 1 ;! L[1]~3_combout $end
$var wire 1 <! L[2]~4_combout $end
$var wire 1 =! L[2]~5_combout $end
$var wire 1 >! Add1~0_combout $end
$var wire 1 ?! L[3]~6_combout $end
$var wire 1 @! L[4]~7_combout $end
$var wire 1 A! L[4]~8_combout $end
$var wire 1 B! Selector3~1_combout $end
$var wire 1 C! y.S6~regout $end
$var wire 1 D! Addr~0_combout $end
$var wire 1 E! Addr~1_combout $end
$var wire 1 F! Addr~2_combout $end
$var wire 1 G! Addr~3_combout $end
$var wire 1 H! Addr~4_combout $end
$var wire 1 I! Done~0_combout $end
$var wire 1 J! Data~combout [7] $end
$var wire 1 K! Data~combout [6] $end
$var wire 1 L! Data~combout [5] $end
$var wire 1 M! Data~combout [4] $end
$var wire 1 N! Data~combout [3] $end
$var wire 1 O! Data~combout [2] $end
$var wire 1 P! Data~combout [1] $end
$var wire 1 Q! Data~combout [0] $end
$var wire 1 R! R [4] $end
$var wire 1 S! R [3] $end
$var wire 1 T! R [2] $end
$var wire 1 U! R [1] $end
$var wire 1 V! R [0] $end
$var wire 1 W! LoadData|Q [7] $end
$var wire 1 X! LoadData|Q [6] $end
$var wire 1 Y! LoadData|Q [5] $end
$var wire 1 Z! LoadData|Q [4] $end
$var wire 1 [! LoadData|Q [3] $end
$var wire 1 \! LoadData|Q [2] $end
$var wire 1 ]! LoadData|Q [1] $end
$var wire 1 ^! LoadData|Q [0] $end
$var wire 1 _! ref [7] $end
$var wire 1 `! ref [6] $end
$var wire 1 a! ref [5] $end
$var wire 1 b! ref [4] $end
$var wire 1 c! ref [3] $end
$var wire 1 d! ref [2] $end
$var wire 1 e! ref [1] $end
$var wire 1 f! ref [0] $end
$var wire 1 g! M [4] $end
$var wire 1 h! M [3] $end
$var wire 1 i! M [2] $end
$var wire 1 j! M [1] $end
$var wire 1 k! M [0] $end
$var wire 1 l! L [4] $end
$var wire 1 m! L [3] $end
$var wire 1 n! L [2] $end
$var wire 1 o! L [1] $end
$var wire 1 p! L [0] $end
$var wire 1 q! readMemory|altsyncram_component|auto_generated|q_a [7] $end
$var wire 1 r! readMemory|altsyncram_component|auto_generated|q_a [6] $end
$var wire 1 s! readMemory|altsyncram_component|auto_generated|q_a [5] $end
$var wire 1 t! readMemory|altsyncram_component|auto_generated|q_a [4] $end
$var wire 1 u! readMemory|altsyncram_component|auto_generated|q_a [3] $end
$var wire 1 v! readMemory|altsyncram_component|auto_generated|q_a [2] $end
$var wire 1 w! readMemory|altsyncram_component|auto_generated|q_a [1] $end
$var wire 1 x! readMemory|altsyncram_component|auto_generated|q_a [0] $end
$var wire 1 y! readMemory|altsyncram_component|auto_generated|ram_block1a0_PORTADATAOUT_bus [0] $end
$var wire 1 z! readMemory|altsyncram_component|auto_generated|ram_block1a1_PORTADATAOUT_bus [0] $end
$var wire 1 {! readMemory|altsyncram_component|auto_generated|ram_block1a2_PORTADATAOUT_bus [0] $end
$var wire 1 |! readMemory|altsyncram_component|auto_generated|ram_block1a3_PORTADATAOUT_bus [0] $end
$var wire 1 }! readMemory|altsyncram_component|auto_generated|ram_block1a4_PORTADATAOUT_bus [0] $end
$var wire 1 ~! readMemory|altsyncram_component|auto_generated|ram_block1a5_PORTADATAOUT_bus [0] $end
$var wire 1 !" readMemory|altsyncram_component|auto_generated|ram_block1a6_PORTADATAOUT_bus [0] $end
$var wire 1 "" readMemory|altsyncram_component|auto_generated|ram_block1a7_PORTADATAOUT_bus [0] $end
$upscope $end
$upscope $end
$enddefinitions $end
#0
$dumpvars
1!
b0 "
0#
0$
0)
0(
0'
0&
0%
x.
x-
x,
x+
x*
0/
x4
x3
x2
x1
x0
x<
x;
x:
x9
x8
x7
x6
x5
0D
0C
0B
0A
0@
0?
0>
0=
0L
0K
0J
0I
0H
0G
0F
0E
0M
xN
0O
1P
xQ
1R
1S
1T
0U
0V
1W
0X
0Y
0Z
0[
0\
0]
0^
0_
0`
0a
1b
0c
1d
0e
1f
0g
0h
0i
0j
1k
0l
1m
xn
xo
xp
xq
0r
1s
1t
0u
0v
xw
xx
xy
xz
x{
0|
0}
0~
0!!
0"!
0#!
0$!
0%!
1&!
x'!
1(!
x)!
x*!
x+!
x,!
x-!
x.!
x/!
x0!
x1!
x2!
x3!
04!
05!
06!
07!
08!
19!
0:!
0;!
0<!
0=!
0>!
0?!
0@!
0A!
0B!
0C!
0D!
0E!
0F!
0G!
0H!
0I!
0Q!
0P!
0O!
0N!
0M!
0L!
0K!
0J!
xV!
xU!
xT!
xS!
xR!
0^!
0]!
0\!
0[!
0Z!
0Y!
0X!
0W!
xf!
xe!
xd!
xc!
xb!
xa!
x`!
x_!
0k!
0j!
0i!
0h!
zg!
xp!
xo!
xn!
xm!
xl!
0x!
0w!
0v!
0u!
0t!
0s!
0r!
0q!
0y!
0z!
0{!
0|!
0}!
0~!
0!"
0""
$end
#1000
0!
0W
0N
#2000
1!
1W
1N
xh!
xk!
xj!
xi!
x@!
x>!
x%!
xr
#2901
1#
1u
0N
1v
1l
0l!
0m!
0n!
0o!
0p!
1U!
1T!
1R!
1V!
1S!
0z
0y
0x
0w
0n
0*
0+
0,
0-
0.
13
12
10
14
11
1o
1)!
0p
1'!
1*!
1q
1+!
#3000
0!
0W
1N
#4000
1!
1W
0N
1h!
1k!
1j!
1i!
1y!
1x!
1@!
0>!
0%!
1r
1D
#5000
0!
0W
1N
#6000
1$
1!
1Y
1W
0N
17!
1|
xy!
xz!
x{!
x|!
x}!
x~!
x!"
x""
xx!
xw!
xv!
xu!
xt!
xs!
xr!
xq!
xD
xC
xB
xA
x@
x?
x>
x=
#7000
0!
0W
1N
#8000
1!
1W
0N
18!
1}
1y!
1z!
1{!
1|!
1}!
0~!
0!"
0""
1x!
1w!
1v!
1u!
1t!
0s!
0r!
0q!
09!
0|
0v
0l
1~
1D
1C
1B
1A
1@
0?
0>
0=
0{
#9000
0!
0W
1N
#10000
1!
1W
0N
1!!
0}
0~
#11000
0!
0W
1N
#12000
1!
1W
0N
1"!
0!!
1#!
1f!
1e!
1d!
1c!
1b!
0a!
0`!
0_!
1,!
0-!
1.!
0/!
10!
1<
1;
1:
19
18
07
06
05
01!
12!
13!
#13000
0!
0W
1N
#14000
1!
1W
0N
1$!
0"!
14!
0m
1l
1j
0#!
1|
0V!
0s
0R!
04
0+!
00
#15000
0!
0W
1N
#16000
1!
1W
0N
0h!
0$!
1}
0@!
1>!
0k
04!
1m
0l
0j
1~
0|
1s
1k
#17000
0!
0W
1N
#18000
1!
1W
0N
1!!
0}
0~
#19000
0!
0W
1N
#20000
1!
1W
0N
1"!
0!!
0}!
0t!
1#!
0@
0b!
08
#21000
0!
0W
1N
#22000
1!
1W
0N
1$!
0"!
14!
0m
1l
1j
0#!
1|
1R!
0s
0k
1+!
0R!
0S!
10
0+!
0q
00
01
#23000
0!
0W
1N
#24000
1!
1W
0N
0$!
1}
0i!
04!
1m
0l
0j
1~
0>!
1%!
0|
1s
1k
#25000
0!
0W
1N
#26000
1!
1W
0N
1!!
0}
0~
#27000
0!
0W
1N
#28000
1!
1W
0N
1"!
0!!
0|!
0u!
1#!
0A
0c!
09
#29000
0!
0W
1N
#30000
1!
1W
0N
1$!
0"!
1<!
14!
0&!
0m
1l
1j
0#!
1|
0T!
1R!
1S!
0s
0k
0'!
1+!
0R!
1q
0S!
02
10
11
0+!
0q
00
01
#31000
0!
0W
1N
#32000
1!
1W
0N
0j!
0$!
1}
0<!
0(!
04!
1&!
1m
0l
0j
1~
0|
1(!
1s
1k
#33000
0!
0W
1N
#34000
1!
1W
0N
1!!
0}
0~
#35000
0!
0W
1N
#36000
1!
1W
0N
1"!
0!!
0{!
0v!
1#!
0B
0d!
0:
#37000
0!
0W
1N
#38000
1!
1W
0N
1$!
0"!
1:!
14!
0&!
0m
1l
1j
0#!
1|
1R!
1S!
0(!
0s
0k
1+!
0R!
1q
0S!
0U!
10
11
0+!
0q
1w
0)!
00
01
03
1x
1y
1z
#39000
0!
0W
1N
#40000
1!
1W
0N
0k!
0$!
1}
0:!
1(!
0%!
0r
1m
04!
1&!
0l
0j
1~
1s
1k
0|
1{
#41000
0!
0W
1N
#42000
1!
1W
0N
1!!
0}
0~
#43000
0!
0W
1N
#44000
1!
1W
0N
1"!
0!!
0z!
0w!
1#!
0C
0e!
0;
#45000
0!
0W
1N
#46000
1!
1W
0N
1$!
0"!
14!
1l
1j
0#!
15!
1U!
1T!
1R!
1V!
1S!
0w
1)!
0x
1'!
1+!
0z
0y
1q
13
12
10
14
11
#47000
0!
0W
1N
#48000
1!
1W
0N
16!
1h!
1k!
1j!
0$!
1i!
1I!
1@!
0s
0k
1r
04!
0l
0j
1s
1k
1/
#49000
0!
0W
1N
#50000
1!
1W
0N
#51000
0!
0W
1N
#52000
1!
1W
0N
1z!
1{!
1|!
1}!
1w!
1v!
1u!
1t!
1C
1B
1A
1@
#53000
0!
0W
1N
#54000
1!
1W
0N
#55000
0!
0W
1N
#56000
1!
1W
0N
#57000
0!
0W
1N
#58000
1!
1W
0N
#59000
0!
0W
1N
#60000
1!
1W
0N
#61000
0!
0W
1N
#62000
1!
1W
0N
#63000
0!
0W
1N
#64000
1!
1W
0N
#65000
0!
0W
1N
#66000
1!
1W
0N
#67000
0!
0W
1N
#68000
1!
1W
0N
#69000
0!
0W
1N
#70000
1!
1W
0N
#71000
0!
0W
1N
#72000
1!
1W
0N
#73000
0!
0W
1N
#74000
1!
1W
0N
#75000
0!
0W
1N
#76000
1!
1W
0N
#77000
0!
0W
1N
#78000
1!
1W
0N
#79000
0!
0W
1N
#80000
1!
1W
0N
#81000
0!
0W
1N
#82000
1!
1W
0N
#83000
0!
0W
1N
#84000
1!
1W
0N
#85000
0!
0W
1N
#86000
1!
1W
0N
#87000
0!
0W
1N
#88000
1!
1W
0N
#89000
0!
0W
1N
#90000
1!
1W
0N
#91000
0!
0W
1N
#92000
1!
1W
0N
#93000
0!
0W
1N
#94000
1!
1W
0N
#95000
0!
0W
1N
#96000
0$
1!
0Y
1W
0N
07!
05!
#97000
0!
0W
1N
#98000
1!
1W
0N
08!
06!
19!
1v
1l
0I!
0/
#99000
0!
0W
1N
#100000
b1 "
1!
1Q!
1W
0N
1X
#101000
0!
0W
1N
#102000
1!
1W
0N
1^!
0,!
1L
1-!
0.!
1/!
00!
11!
02!
03!
#103000
0!
0W
1N
#104000
1!
1W
0N
#105000
0!
0W
1N
#106000
1$
1!
1Y
1W
0N
17!
1|
#107000
0!
0W
1N
#108000
1!
1W
0N
18!
1}
09!
0|
0v
0l
1~
0{
#109000
0!
0W
1N
#110000
1!
1W
0N
1!!
0}
0~
#111000
0!
0W
1N
#112000
1!
1W
0N
1"!
0!!
1#!
1e!
1d!
1c!
1b!
0-!
1.!
0/!
10!
1;
1:
19
18
01!
12!
13!
#113000
0!
0W
1N
#114000
1!
1W
0N
1$!
0"!
14!
0m
1l
1j
0#!
1|
0V!
0s
0R!
04
0+!
00
#115000
0!
0W
1N
#116000
1!
1W
0N
0h!
0$!
1}
0@!
1>!
0k
04!
1m
0l
0j
1~
0|
1s
1k
#117000
0!
0W
1N
#118000
1!
1W
0N
1!!
0}
0~
#119000
0!
0W
1N
#120000
1!
1W
0N
1"!
0!!
0}!
0t!
1#!
0@
0b!
08
#121000
0!
0W
1N
#122000
1!
1W
0N
1$!
0"!
14!
0m
1l
1j
0#!
1|
1R!
0s
0k
1+!
0R!
0S!
10
0+!
0q
00
01
#123000
0!
0W
1N
#124000
1!
1W
0N
0$!
1}
0i!
04!
1m
0l
0j
1~
0>!
1%!
0|
1s
1k
#125000
0!
0W
1N
#126000
1!
1W
0N
1!!
0}
0~
#127000
0!
0W
1N
#128000
1!
1W
0N
1"!
0!!
0|!
0u!
1#!
0A
0c!
09
#129000
0!
0W
1N
#130000
1!
1W
0N
1$!
0"!
1<!
14!
0&!
0m
1l
1j
0#!
1|
0T!
1R!
1S!
0s
0k
0'!
1+!
0R!
1q
0S!
02
10
11
0+!
0q
00
01
#131000
0!
0W
1N
#132000
1!
1W
0N
0j!
0$!
1}
0<!
0(!
04!
1&!
1m
0l
0j
1~
0|
1(!
1s
1k
#133000
0!
0W
1N
#134000
1!
1W
0N
1!!
0}
0~
#135000
0!
0W
1N
#136000
1!
1W
0N
1"!
0!!
0{!
0v!
1#!
0B
0d!
0:
#137000
0!
0W
1N
#138000
1!
1W
0N
1$!
0"!
1:!
14!
0&!
0m
1l
1j
0#!
1|
1R!
1S!
0(!
0s
0k
1+!
0R!
1q
0S!
0U!
10
11
0+!
0q
1w
0)!
00
01
03
1x
1y
1z
#139000
0!
0W
1N
#140000
1!
1W
0N
0k!
0$!
1}
0:!
1(!
0%!
0r
1m
04!
1&!
0l
0j
1~
1s
1k
0|
1{
#141000
0!
0W
1N
#142000
1!
1W
0N
1!!
0}
0~
#143000
0!
0W
1N
#144000
1!
1W
0N
1"!
0!!
0z!
0w!
1#!
0C
0e!
1-!
0;
0.!
1/!
00!
11!
02!
03!
#145000
0!
0W
1N
#146000
1!
1W
0N
1$!
0"!
1B!
1j
0#!
#147000
0!
0W
1N
#148000
1!
1W
0N
1C!
0$!
1I!
1H!
1V
0B!
0j
1B!
1/
1M
#149000
0!
0W
1N
#150000
1!
1W
0N
#151000
0!
0W
1N
#152000
1!
1W
0N
#153000
0!
0W
1N
#154000
1!
1W
0N
#155000
0!
0W
1N
#156000
1!
1W
0N
#157000
0!
0W
1N
#158000
1!
1W
0N
#159000
0!
0W
1N
#160000
1!
1W
0N
#161000
0!
0W
1N
#162000
1!
1W
0N
#163000
0!
0W
1N
#164000
1!
1W
0N
#165000
0!
0W
1N
#166000
1!
1W
0N
#167000
0!
0W
1N
#168000
1!
1W
0N
#169000
0!
0W
1N
#170000
1!
1W
0N
#171000
0!
0W
1N
#172000
1!
1W
0N
#173000
0!
0W
1N
#174000
1!
1W
0N
#175000
0!
0W
1N
#176000
1!
1W
0N
#177000
0!
0W
1N
#178000
1!
1W
0N
#179000
0!
0W
1N
#180000
1!
1W
0N
#181000
0!
0W
1N
#182000
1!
1W
0N
#183000
0!
0W
1N
#184000
1!
1W
0N
#185000
0!
0W
1N
#186000
1!
1W
0N
#187000
0!
0W
1N
#188000
1!
1W
0N
#189000
0!
0W
1N
#190000
1!
1W
0N
#191000
0!
0W
1N
#192000
1!
1W
0N
#193000
0!
0W
1N
#194000
1!
1W
0N
#195000
0!
0W
1N
#196000
0$
1!
0Y
1W
0N
07!
0V
0B!
#197000
0!
0W
1N
#198000
1!
1W
0N
0C!
08!
0I!
0H!
19!
1v
1l
1U!
1T!
1R!
1V!
1S!
0/
0M
0w
1)!
0x
1'!
1+!
0z
0y
1q
13
12
10
14
11
#199000
0!
0W
1N
#200000
b11 "
b10 "
1!
0Q!
1P!
1W
0N
0X
1`
1h!
1k!
1j!
1i!
1@!
1r
#201000
0!
0W
1N
#202000
1!
1W
0N
0^!
1]!
1,!
0b
0L
1K
1c
0d
1e
0f
1g
1h
#203000
0!
0W
1N
#204000
1!
1W
0N
1z!
1{!
1|!
1}!
1w!
1v!
1u!
1t!
1C
1B
1A
1@
#205000
0!
0W
1N
#206000
1$
1!
1Y
1W
0N
17!
1|
#207000
0!
0W
1N
#208000
1!
1W
0N
18!
1}
09!
0|
0v
0l
1~
0{
#209000
0!
0W
1N
#210000
1!
1W
0N
1!!
0}
0~
#211000
0!
0W
1N
#212000
1!
1W
0N
1"!
0!!
1#!
1e!
1d!
1c!
1b!
0-!
1b
1.!
0c
0/!
1d
10!
0e
1;
1:
19
18
01!
1f
12!
0g
13!
0h
#213000
0!
0W
1N
#214000
1!
1W
0N
1$!
0"!
14!
0m
1l
1j
0#!
1|
0V!
0s
0R!
04
0+!
00
#215000
0!
0W
1N
#216000
1!
1W
0N
0h!
0$!
1}
0@!
1>!
0k
04!
1m
0l
0j
1~
0|
1s
1k
#217000
0!
0W
1N
#218000
1!
1W
0N
1!!
0}
0~
#219000
0!
0W
1N
#220000
1!
1W
0N
1"!
0!!
0}!
0t!
1#!
0@
0b!
08
#221000
0!
0W
1N
#222000
1!
1W
0N
1$!
0"!
14!
0m
1l
1j
0#!
1|
1R!
0s
0k
1+!
0R!
0S!
10
0+!
0q
00
01
#223000
0!
0W
1N
#224000
1!
1W
0N
0$!
1}
0i!
04!
1m
0l
0j
1~
0>!
1%!
0|
1s
1k
#225000
0!
0W
1N
#226000
1!
1W
0N
1!!
0}
0~
#227000
0!
0W
1N
#228000
1!
1W
0N
1"!
0!!
0|!
0u!
1#!
0A
0c!
09
#229000
0!
0W
1N
#230000
1!
1W
0N
1$!
0"!
1<!
14!
0&!
0m
1l
1j
0#!
1|
0T!
1R!
1S!
0s
0k
0'!
1+!
0R!
1q
0S!
02
10
11
0+!
0q
00
01
#231000
0!
0W
1N
#232000
1!
1W
0N
0j!
0$!
1}
0<!
0(!
04!
1&!
1m
0l
0j
1~
0|
1(!
1s
1k
#233000
0!
0W
1N
#234000
1!
1W
0N
1!!
0}
0~
#235000
0!
0W
1N
#236000
1!
1W
0N
1"!
0!!
0{!
0v!
1#!
0B
0d!
0:
#237000
0!
0W
1N
#238000
1!
1W
0N
1$!
0"!
1:!
14!
0&!
0m
1l
1j
0#!
1|
1R!
1S!
0(!
0s
0k
1+!
0R!
1q
0S!
0U!
10
11
0+!
0q
1w
0)!
00
01
03
1x
1y
1z
#239000
0!
0W
1N
#240000
1!
1W
0N
0k!
0$!
1}
0:!
1(!
0%!
0r
1m
04!
1&!
0l
0j
1~
1s
1k
0|
1{
#241000
0!
0W
1N
#242000
1!
1W
0N
1!!
0}
0~
#243000
0!
0W
1N
#244000
1!
1W
0N
1"!
0!!
0z!
0w!
1#!
0C
0e!
1-!
0b
0;
0.!
1c
1/!
0d
00!
1e
11!
0f
02!
1g
03!
1h
#245000
0!
0W
1N
#246000
1!
1W
0N
1$!
0"!
14!
1j
1U
0#!
15!
0t
1v
1p!
1.
#247000
0!
0W
1N
#248000
1!
1W
0N
16!
0$!
1I!
04!
0j
0U
1t
0v
1/
#249000
0!
0W
1N
#250000
1!
1W
0N
#251000
0!
0W
1N
#252000
1!
1W
0N
#253000
0!
0W
1N
#254000
1!
1W
0N
#255000
0!
0W
1N
#256000
1!
1W
0N
#257000
0!
0W
1N
#258000
1!
1W
0N
#259000
0!
0W
1N
#260000
1!
1W
0N
#261000
0!
0W
1N
#262000
1!
1W
0N
#263000
0!
0W
1N
#264000
1!
1W
0N
#265000
0!
0W
1N
#266000
1!
1W
0N
#267000
0!
0W
1N
#268000
1!
1W
0N
#269000
0!
0W
1N
#270000
1!
1W
0N
#271000
0!
0W
1N
#272000
1!
1W
0N
#273000
0!
0W
1N
#274000
1!
1W
0N
#275000
0!
0W
1N
#276000
1!
1W
0N
#277000
0!
0W
1N
#278000
1!
1W
0N
#279000
0!
0W
1N
#280000
1!
1W
0N
#281000
0!
0W
1N
#282000
1!
1W
0N
#283000
0!
0W
1N
#284000
1!
1W
0N
#285000
0!
0W
1N
#286000
1!
1W
0N
#287000
0!
0W
1N
#288000
1!
1W
0N
#289000
0!
0W
1N
#290000
1!
1W
0N
#291000
0!
0W
1N
#292000
1!
1W
0N
#293000
0!
0W
1N
#294000
1!
1W
0N
#295000
0!
0W
1N
#296000
0$
1!
0Y
1W
0N
07!
05!
#297000
0!
0W
1N
#298000
1!
1W
0N
08!
06!
19!
1v
1l
0I!
0p!
1U!
1T!
1R!
1V!
1S!
0/
0w
1)!
0x
1'!
1+!
0z
0y
1q
0.
13
12
10
14
11
#299000
0!
0W
1N
#300000
b11 "
1!
1Q!
1W
0N
1X
1h!
1k!
1j!
1i!
1@!
1r
#301000
0!
0W
1N
#302000
1!
1W
0N
1^!
0,!
1L
#303000
0!
0W
1N
#304000
1!
1W
0N
1z!
1{!
1|!
1}!
1w!
1v!
1u!
1t!
1C
1B
1A
1@
#305000
0!
0W
1N
#306000
1$
1!
1Y
1W
0N
17!
1|
#307000
0!
0W
1N
#308000
1!
1W
0N
18!
1}
09!
0|
0v
0l
1~
0{
#309000
0!
0W
1N
#310000
1!
1W
0N
1!!
0}
0~
#311000
0!
0W
1N
#312000
1!
1W
0N
1"!
0!!
1#!
1e!
1d!
1c!
1b!
1b
1.!
0c
0/!
1d
10!
0e
1;
1:
19
18
01!
1f
12!
0g
13!
0h
#313000
0!
0W
1N
#314000
1!
1W
0N
1$!
0"!
14!
0m
1l
1j
0#!
1|
0V!
0s
0R!
04
0+!
00
#315000
0!
0W
1N
#316000
1!
1W
0N
0h!
0$!
1}
0@!
1>!
0k
04!
1m
0l
0j
1~
0|
1s
1k
#317000
0!
0W
1N
#318000
1!
1W
0N
1!!
0}
0~
#319000
0!
0W
1N
#320000
1!
1W
0N
1"!
0!!
0}!
0t!
1#!
0@
0b!
08
#321000
0!
0W
1N
#322000
1!
1W
0N
1$!
0"!
14!
0m
1l
1j
0#!
1|
1R!
0s
0k
1+!
0R!
0S!
10
0+!
0q
00
01
#323000
0!
0W
1N
#324000
1!
1W
0N
0$!
1}
0i!
04!
1m
0l
0j
1~
0>!
1%!
0|
1s
1k
#325000
0!
0W
1N
#326000
1!
1W
0N
1!!
0}
0~
#327000
0!
0W
1N
#328000
1!
1W
0N
1"!
0!!
0|!
0u!
1#!
0A
0c!
09
#329000
0!
0W
1N
#330000
1!
1W
0N
1$!
0"!
1<!
14!
0&!
0m
1l
1j
0#!
1|
0T!
1R!
1S!
0s
0k
0'!
1+!
0R!
1q
0S!
02
10
11
0+!
0q
00
01
#331000
0!
0W
1N
#332000
1!
1W
0N
0j!
0$!
1}
0<!
0(!
04!
1&!
1m
0l
0j
1~
0|
1(!
1s
1k
#333000
0!
0W
1N
#334000
1!
1W
0N
1!!
0}
0~
#335000
0!
0W
1N
#336000
1!
1W
0N
1"!
0!!
0{!
0v!
1#!
0B
0d!
0.!
0:
1/!
00!
11!
02!
03!
#337000
0!
0W
1N
#338000
1!
1W
0N
1$!
0"!
1B!
1:!
1j
0#!
#339000
0!
0W
1N
#340000
1!
1W
0N
1C!
0$!
1I!
1H!
1D!
1V
0B!
0:!
0j
1B!
1/
1M
1)
#341000
0!
0W
1N
#342000
1!
1W
0N
#343000
0!
0W
1N
#344000
1!
1W
0N
#345000
0!
0W
1N
#346000
1!
1W
0N
#347000
0!
0W
1N
#348000
1!
1W
0N
#349000
0!
0W
1N
#350000
1!
1W
0N
#351000
0!
0W
1N
#352000
1!
1W
0N
#353000
0!
0W
1N
#354000
1!
1W
0N
#355000
0!
0W
1N
#356000
1!
1W
0N
#357000
0!
0W
1N
#358000
1!
1W
0N
#359000
0!
0W
1N
#360000
1!
1W
0N
#361000
0!
0W
1N
#362000
1!
1W
0N
#363000
0!
0W
1N
#364000
1!
1W
0N
#365000
0!
0W
1N
#366000
1!
1W
0N
#367000
0!
0W
1N
#368000
1!
1W
0N
#369000
0!
0W
1N
#370000
1!
1W
0N
#371000
0!
0W
1N
#372000
1!
1W
0N
#373000
0!
0W
1N
#374000
1!
1W
0N
#375000
0!
0W
1N
#376000
1!
1W
0N
#377000
0!
0W
1N
#378000
1!
1W
0N
#379000
0!
0W
1N
#380000
1!
1W
0N
#381000
0!
0W
1N
#382000
1!
1W
0N
#383000
0!
0W
1N
#384000
1!
1W
0N
#385000
0!
0W
1N
#386000
1!
1W
0N
#387000
0!
0W
1N
#388000
1!
1W
0N
#389000
0!
0W
1N
#390000
1!
1W
0N
#391000
0!
0W
1N
#392000
1!
1W
0N
#393000
0!
0W
1N
#394000
1!
1W
0N
#395000
0!
0W
1N
#396000
0$
1!
0Y
1W
0N
07!
0V
0B!
#397000
0!
0W
1N
#398000
1!
1W
0N
0C!
08!
0I!
0H!
0D!
19!
1v
1l
1T!
1R!
1V!
1S!
0/
0M
0)
1'!
1+!
1q
12
10
14
11
#399000
0!
0W
1N
#400000
b111 "
b101 "
b100 "
1!
0Q!
0P!
1O!
1W
0N
0X
0`
1_
1h!
1j!
1i!
1@!
0%!
#401000
0!
0W
1N
#402000
1!
1W
0N
0^!
0]!
1\!
1,!
0-!
1c
0L
0K
1J
0d
1e
0f
1g
1h
#403000
0!
0W
1N
#404000
1!
1W
0N
1{!
1|!
1}!
1v!
1u!
1t!
1B
1A
1@
#405000
0!
0W
1N
#406000
1$
1!
1Y
1W
0N
17!
1|
#407000
0!
0W
1N
#408000
1!
1W
0N
18!
1}
09!
0|
0v
0l
1~
#409000
0!
0W
1N
#410000
1!
1W
0N
1!!
0}
0~
#411000
0!
0W
1N
#412000
1!
1W
0N
1"!
0!!
1#!
1d!
1c!
1b!
1.!
0c
0/!
1d
10!
0e
1:
19
18
01!
1f
12!
0g
13!
0h
#413000
0!
0W
1N
#414000
1!
1W
0N
1$!
0"!
14!
0m
1l
1j
0#!
1|
0V!
0s
0R!
04
0+!
00
#415000
0!
0W
1N
