COMP3222/WKSpace/Lab11/part2New/simulation/qsim/part2.msim.vcd
$comment
	File created using the following command:
		vcd file part2.msim.vcd -direction
$end
$date
	Mon Nov 18 12:25:46 2019
$end
$version
	ModelSim Version 10.1d
$end
$timescale
	1ps
$end
$scope module part2_vlg_vec_tst $end
$var reg 1 ! Clock $end
$var reg 8 " Data [7:0] $end
$var reg 1 # Resetn $end
$var reg 1 $ s $end
$var wire 1 % Addr [4] $end
$var wire 1 & Addr [3] $end
$var wire 1 ' Addr [2] $end
$var wire 1 ( Addr [1] $end
$var wire 1 ) Addr [0] $end
$var wire 1 * DL [4] $end
$var wire 1 + DL [3] $end
$var wire 1 , DL [2] $end
$var wire 1 - DL [1] $end
$var wire 1 . DL [0] $end
$var wire 1 / Done $end
$var wire 1 0 DR [4] $end
$var wire 1 1 DR [3] $end
$var wire 1 2 DR [2] $end
$var wire 1 3 DR [1] $end
$var wire 1 4 DR [0] $end
$var wire 1 5 Dref [7] $end
$var wire 1 6 Dref [6] $end
$var wire 1 7 Dref [5] $end
$var wire 1 8 Dref [4] $end
$var wire 1 9 Dref [3] $end
$var wire 1 : Dref [2] $end
$var wire 1 ; Dref [1] $end
$var wire 1 < Dref [0] $end
$var wire 1 = Dsth [7] $end
$var wire 1 > Dsth [6] $end
$var wire 1 ? Dsth [5] $end
$var wire 1 @ Dsth [4] $end
$var wire 1 A Dsth [3] $end
$var wire 1 B Dsth [2] $end
$var wire 1 C Dsth [1] $end
$var wire 1 D Dsth [0] $end
$var wire 1 E Dtar [7] $end
$var wire 1 F Dtar [6] $end
$var wire 1 G Dtar [5] $end
$var wire 1 H Dtar [4] $end
$var wire 1 I Dtar [3] $end
$var wire 1 J Dtar [2] $end
$var wire 1 K Dtar [1] $end
$var wire 1 L Dtar [0] $end
$var wire 1 M Found $end
$var wire 1 N sampler $end
$scope module i1 $end
$var wire 1 O gnd $end
$var wire 1 P vcc $end
$var wire 1 Q unknown $end
$var tri1 1 R devclrn $end
$var tri1 1 S devpor $end
$var tri1 1 T devoe $end
$var wire 1 U Selector4~0_combout $end
$var wire 1 V LessThan0~1_combout $end
$var wire 1 W Selector5~0_combout $end
$var wire 1 X Selector3~0_combout $end
$var wire 1 Y Clock~combout $end
$var wire 1 Z LoadData|Q~0_combout $end
$var wire 1 [ LoadData|Q~1_combout $end
$var wire 1 \ LoadData|Q~2_combout $end
$var wire 1 ] LoadData|Q~3_combout $end
$var wire 1 ^ LoadData|Q~4_combout $end
$var wire 1 _ LoadData|Q~5_combout $end
$var wire 1 ` LoadData|Q~6_combout $end
$var wire 1 a LoadData|Q~7_combout $end
$var wire 1 b Resetn~combout $end
$var wire 1 c y.S3~regout $end
$var wire 1 d Selector7~0_combout $end
$var wire 1 e Selector25~0_combout $end
$var wire 1 f LessThan2~1_cout $end
$var wire 1 g LessThan2~3_cout $end
$var wire 1 h LessThan2~5_cout $end
$var wire 1 i LessThan2~7_cout $end
$var wire 1 j LessThan2~9_cout $end
$var wire 1 k LessThan2~11_cout $end
$var wire 1 l LessThan2~13_cout $end
$var wire 1 m LessThan2~14_combout $end
$var wire 1 n Selector5~1_combout $end
$var wire 1 o y.S5~regout $end
$var wire 1 p s~combout $end
$var wire 1 q Selector2~0_combout $end
$var wire 1 r y.SI~regout $end
$var wire 1 s WideOr4~0_combout $end
$var wire 1 t Selector24~0_combout $end
$var wire 1 u Selector23~0_combout $end
$var wire 1 v Selector22~0_combout $end
$var wire 1 w Selector21~0_combout $end
$var wire 1 x Selector20~0_combout $end
$var wire 1 y Selector19~0_combout $end
$var wire 1 z LessThan1~1_cout $end
$var wire 1 { LessThan1~3_cout $end
$var wire 1 | LessThan1~5_cout $end
$var wire 1 } LessThan1~7_cout $end
$var wire 1 ~ LessThan1~9_cout $end
$var wire 1 !! LessThan1~11_cout $end
$var wire 1 "! LessThan1~13_cout $end
$var wire 1 #! LessThan1~14_combout $end
$var wire 1 $! Selector11~0_combout $end
$var wire 1 %! M[0]~5_cout $end
$var wire 1 &! M[0]~6_combout $end
$var wire 1 '! Selector13~0_combout $end
$var wire 1 (! M[0]~7 $end
$var wire 1 )! M[1]~8_combout $end
$var wire 1 *! Add0~0_combout $end
$var wire 1 +! Selector0~0_combout $end
$var wire 1 ,! M[1]~9 $end
$var wire 1 -! M[2]~10_combout $end
$var wire 1 .! Selector14~0_combout $end
$var wire 1 /! Selector17~0_combout $end
$var wire 1 0! Selector12~0_combout $end
$var wire 1 1! LessThan0~2_combout $end
$var wire 1 2! Selector1~0_combout $end
$var wire 1 3! LessThan0~3_combout $end
$var wire 1 4! Selector3~1_combout $end
$var wire 1 5! y.S1~regout $end
$var wire 1 6! y_next.S7~0_combout $end
$var wire 1 7! y.S7~regout $end
$var wire 1 8! y.S2~regout $end
$var wire 1 9! Selector18~0_combout $end
$var wire 1 :! Selector10~0_combout $end
$var wire 1 ;! M[2]~11 $end
$var wire 1 <! M[3]~12_combout $end
$var wire 1 =! Add1~0_combout $end
$var wire 1 >! Selector15~0_combout $end
$var wire 1 ?! Selector16~0_combout $end
$var wire 1 @! ~GND~combout $end
$var wire 1 A! WideOr6~0_combout $end
$var wire 1 B! Found$latch~combout $end
$var wire 1 C! LessThan0~0_combout $end
$var wire 1 D! Selector4~1_combout $end
$var wire 1 E! y.S4~regout $end
$var wire 1 F! Done~0_combout $end
$var wire 1 G! Data~combout [7] $end
$var wire 1 H! Data~combout [6] $end
$var wire 1 I! Data~combout [5] $end
$var wire 1 J! Data~combout [4] $end
$var wire 1 K! Data~combout [3] $end
$var wire 1 L! Data~combout [2] $end
$var wire 1 M! Data~combout [1] $end
$var wire 1 N! Data~combout [0] $end
$var wire 1 O! ref [7] $end
$var wire 1 P! ref [6] $end
$var wire 1 Q! ref [5] $end
$var wire 1 R! ref [4] $end
$var wire 1 S! ref [3] $end
$var wire 1 T! ref [2] $end
$var wire 1 U! ref [1] $end
$var wire 1 V! ref [0] $end
$var wire 1 W! loadReferent|altsyncram_component|auto_generated|q_a [7] $end
$var wire 1 X! loadReferent|altsyncram_component|auto_generated|q_a [6] $end
$var wire 1 Y! loadReferent|altsyncram_component|auto_generated|q_a [5] $end
$var wire 1 Z! loadReferent|altsyncram_component|auto_generated|q_a [4] $end
$var wire 1 [! loadReferent|altsyncram_component|auto_generated|q_a [3] $end
$var wire 1 \! loadReferent|altsyncram_component|auto_generated|q_a [2] $end
$var wire 1 ]! loadReferent|altsyncram_component|auto_generated|q_a [1] $end
$var wire 1 ^! loadReferent|altsyncram_component|auto_generated|q_a [0] $end
$var wire 1 _! L [4] $end
$var wire 1 `! L [3] $end
$var wire 1 a! L [2] $end
$var wire 1 b! L [1] $end
$var wire 1 c! L [0] $end
$var wire 1 d! R [4] $end
$var wire 1 e! R [3] $end
$var wire 1 f! R [2] $end
$var wire 1 g! R [1] $end
$var wire 1 h! R [0] $end
$var wire 1 i! M [4] $end
$var wire 1 j! M [3] $end
$var wire 1 k! M [2] $end
$var wire 1 l! M [1] $end
$var wire 1 m! M [0] $end
$var wire 1 n! LoadData|Q [7] $end
$var wire 1 o! LoadData|Q [6] $end
$var wire 1 p! LoadData|Q [5] $end
$var wire 1 q! LoadData|Q [4] $end
$var wire 1 r! LoadData|Q [3] $end
$var wire 1 s! LoadData|Q [2] $end
$var wire 1 t! LoadData|Q [1] $end
$var wire 1 u! LoadData|Q [0] $end
$var wire 1 v! loadReferent|altsyncram_component|auto_generated|ram_block1a0_PORTADATAOUT_bus [0] $end
$var wire 1 w! loadReferent|altsyncram_component|auto_generated|ram_block1a1_PORTADATAOUT_bus [0] $end
$var wire 1 x! loadReferent|altsyncram_component|auto_generated|ram_block1a2_PORTADATAOUT_bus [0] $end
$var wire 1 y! loadReferent|altsyncram_component|auto_generated|ram_block1a3_PORTADATAOUT_bus [0] $end
$var wire 1 z! loadReferent|altsyncram_component|auto_generated|ram_block1a4_PORTADATAOUT_bus [0] $end
$var wire 1 {! loadReferent|altsyncram_component|auto_generated|ram_block1a5_PORTADATAOUT_bus [0] $end
$var wire 1 |! loadReferent|altsyncram_component|auto_generated|ram_block1a6_PORTADATAOUT_bus [0] $end
$var wire 1 }! loadReferent|altsyncram_component|auto_generated|ram_block1a7_PORTADATAOUT_bus [0] $end
$upscope $end
$upscope $end
$enddefinitions $end
#0
$dumpvars
1!
b0 "
0#
0$
0)
0(
0'
0&
0%
0.
0-
0,
0+
0*
0/
14
13
12
11
10
0<
0;
0:
09
08
07
06
05
0D
0C
0B
0A
0@
0?
0>
0=
0L
0K
0J
0I
0H
0G
0F
0E
0M
xN
0O
1P
xQ
1R
1S
1T
0U
0V
0W
0X
1Y
0Z
0[
0\
0]
0^
0_
0`
0a
0b
0c
1d
0e
0f
1g
0h
1i
0j
1k
0l
0m
0n
0o
0p
0q
0r
1s
0t
0u
0v
0w
0x
0y
0z
1{
0|
1}
0~
1!!
0"!
0#!
1$!
0%!
1&!
0'!
1(!
1)!
0*!
1+!
0,!
1-!
0.!
1/!
00!
01!
12!
03!
04!
05!
06!
07!
08!
09!
1:!
1;!
1<!
0=!
0>!
0?!
0@!
0A!
0B!
0C!
0D!
0E!
1F!
0N!
0M!
0L!
0K!
0J!
0I!
0H!
0G!
0V!
0U!
0T!
0S!
0R!
0Q!
0P!
0O!
0^!
0]!
0\!
0[!
0Z!
0Y!
0X!
0W!
0c!
0b!
0a!
0`!
0_!
1h!
1g!
1f!
1e!
1d!
0m!
0l!
0k!
0j!
zi!
0u!
0t!
0s!
0r!
0q!
0p!
0o!
0n!
0v!
0w!
0x!
0y!
0z!
0{!
0|!
0}!
$end
#1000
0!
0Y
0N
#2000
1!
1Y
1N
1j!
1k!
1l!
1m!
1=!
1*!
1&
1'
1(
1)
#2901
1#
1b
0N
#3000
0!
0Y
1N
#4000
1!
1Y
0N
1v!
1^!
1D
#5000
0!
0Y
1N
#6000
1$
1!
1p
1Y
0N
1q
1X
14!
1z!
1y!
1x!
1w!
1Z!
1[!
1\!
1]!
1@
1A
1B
1C
#7000
0!
0Y
1N
#8000
1!
1Y
0N
15!
1r
16!
1A!
0/!
0$!
0s
0X
04!
#9000
0!
0Y
1N
#10000
1!
1Y
0N
17!
05!
06!
#11000
0!
0Y
1N
#12000
1!
1Y
0N
18!
07!
19!
1y
1x
1w
1v
1s
1V!
1U!
1T!
1S!
1R!
1z
0{
1|
0}
1~
1<
1;
1:
19
18
0!!
1"!
1#!
#13000
0!
0Y
1N
#14000
1!
1Y
0N
08!
1c
09!
0y
0x
0w
0v
0s
1?!
0:!
14!
1$!
0d
0d!
0h!
0<!
00
04
#15000
0!
0Y
1N
#16000
1!
1Y
0N
0j!
15!
0c
0?!
1:!
16!
04!
0$!
1d
0&
#17000
0!
0Y
1N
#18000
1!
1Y
0N
17!
05!
06!
#19000
0!
0Y
1N
#20000
1!
1Y
0N
18!
07!
0z!
0Z!
19!
1y
1x
1w
1s
0@
0R!
08
#21000
0!
0Y
1N
#22000
1!
1Y
0N
08!
1c
09!
0y
0x
0w
0s
1>!
0:!
14!
0+!
1$!
0d
0e!
0-!
1V
01
#23000
0!
0Y
1N
#24000
1!
1Y
0N
15!
0k!
0c
16!
0=!
0>!
1:!
04!
1+!
0$!
1d
0'
#25000
0!
0Y
1N
#26000
1!
1Y
0N
17!
05!
06!
#27000
0!
0Y
1N
#28000
1!
1Y
0N
18!
07!
0y!
0[!
19!
1y
1x
1s
0A
0S!
09
#29000
0!
0Y
1N
#30000
1!
1Y
0N
08!
1c
09!
0y
0x
0s
0:!
14!
02!
1.!
0+!
1$!
0d
0f!
0)!
02
#31000
0!
0Y
1N
#32000
1!
1Y
0N
15!
0l!
0c
16!
12!
0.!
1:!
04!
1+!
0$!
1d
0(
#33000
0!
0Y
1N
#34000
1!
1Y
0N
17!
05!
06!
#35000
0!
0Y
1N
#36000
1!
1Y
0N
18!
07!
0x!
0\!
19!
1y
1s
0B
0T!
0:
#37000
0!
0Y
1N
#38000
1!
1Y
0N
08!
1c
09!
0y
0s
0:!
14!
02!
0+!
1'!
1$!
0d
0g!
0&!
03
#39000
0!
0Y
1N
#40000
1!
1Y
0N
15!
0m!
0c
16!
12!
0*!
0'!
1d
1:!
04!
1+!
0$!
0)
#41000
0!
0Y
1N
#42000
1!
1Y
0N
17!
05!
06!
#43000
0!
0Y
1N
#44000
1!
1Y
0N
18!
07!
0w!
0]!
19!
1s
0C
0U!
0;
#45000
0!
0Y
1N
#46000
1!
1Y
0N
08!
1c
09!
0s
14!
10!
1$!
1d!
1f!
1e!
1g!
1h!
1<!
0V
1)!
1-!
1&!
10
12
11
13
14
#47000
0!
0Y
1N
#48000
1!
1Y
0N
1j!
15!
1k!
1l!
1m!
0c
16!
1=!
1*!
00!
04!
0$!
1&
1'
1(
1)
#49000
0!
0Y
1N
#50000
1!
1Y
0N
17!
05!
06!
#51000
0!
0Y
1N
#52000
1!
1Y
0N
18!
07!
1z!
1y!
1x!
1w!
1Z!
1[!
1\!
1]!
19!
1y
1x
1w
1v
1s
1@
1A
1B
1C
1U!
1T!
1S!
1R!
1;
1:
19
18
#53000
0!
0Y
1N
#54000
1!
1Y
0N
08!
1c
09!
0y
0x
0w
0v
0s
1?!
0:!
14!
1$!
0d
0d!
0h!
0<!
00
04
#55000
0!
0Y
1N
#56000
1!
1Y
0N
0j!
15!
0c
0?!
1:!
16!
04!
0$!
1d
0&
#57000
0!
0Y
1N
#58000
1!
1Y
0N
17!
05!
06!
#59000
0!
0Y
1N
#60000
1!
1Y
0N
18!
07!
0z!
0Z!
19!
1y
1x
1w
1s
0@
0R!
08
#61000
0!
0Y
1N
#62000
1!
1Y
0N
08!
1c
09!
0y
0x
0w
0s
1>!
0:!
14!
0+!
1$!
0d
0e!
0-!
1V
01
#63000
0!
0Y
1N
#64000
1!
1Y
0N
15!
0k!
0c
16!
0=!
0>!
1:!
04!
1+!
0$!
1d
0'
#65000
0!
0Y
1N
#66000
1!
1Y
0N
17!
05!
06!
#67000
0!
0Y
1N
#68000
1!
1Y
0N
18!
07!
0y!
0[!
19!
1y
1x
1s
0A
0S!
09
#69000
0!
0Y
1N
#70000
1!
1Y
0N
08!
1c
09!
0y
0x
0s
0:!
14!
02!
1.!
0+!
1$!
0d
0f!
0)!
02
#71000
0!
0Y
1N
#72000
1!
1Y
0N
15!
0l!
0c
16!
12!
0.!
1:!
04!
1+!
0$!
1d
0(
#73000
0!
0Y
1N
#74000
1!
1Y
0N
17!
05!
06!
#75000
0!
0Y
1N
#76000
1!
1Y
0N
18!
07!
0x!
0\!
19!
1y
1s
0B
0T!
0:
#77000
0!
0Y
1N
#78000
1!
1Y
0N
08!
1c
09!
0y
0s
0:!
14!
02!
0+!
1'!
1$!
0d
0g!
0&!
03
#79000
0!
0Y
1N
#80000
1!
1Y
0N
15!
0m!
0c
16!
12!
0*!
0'!
1d
1:!
04!
1+!
0$!
0)
#81000
0!
0Y
1N
#82000
1!
1Y
0N
17!
05!
06!
#83000
0!
0Y
1N
#84000
1!
1Y
0N
18!
07!
0w!
0]!
19!
1s
0C
0U!
0;
#85000
0!
0Y
1N
#86000
1!
1Y
0N
08!
1c
09!
0s
14!
10!
1$!
1d!
1f!
1e!
1g!
1h!
1<!
0V
1)!
1-!
1&!
10
12
11
13
14
#87000
0!
0Y
1N
#88000
1!
1Y
0N
1j!
15!
1k!
1l!
1m!
0c
16!
1=!
1*!
00!
04!
0$!
1&
1'
1(
1)
#89000
0!
0Y
1N
#90000
1!
1Y
0N
17!
05!
06!
#91000
0!
0Y
1N
#92000
1!
1Y
0N
18!
07!
1z!
1y!
1x!
1w!
1Z!
1[!
1\!
1]!
19!
1y
1x
1w
1v
1s
1@
1A
1B
1C
1U!
1T!
1S!
1R!
1;
1:
19
18
#93000
0!
0Y
1N
#94000
1!
1Y
0N
08!
1c
09!
0y
0x
0w
0v
0s
1?!
0:!
14!
1$!
0d
0d!
0h!
0<!
00
04
#95000
0!
0Y
1N
#96000
0$
1!
0p
1Y
0N
0j!
15!
0c
0?!
1:!
16!
04!
0$!
1d
0&
#97000
0!
0Y
1N
#98000
1!
1Y
0N
17!
05!
06!
#99000
0!
0Y
1N
#100000
b1 "
1!
1N!
1Y
0N
1Z
18!
07!
0z!
0Z!
19!
1y
1x
1w
1s
0@
0R!
08
#101000
0!
0Y
1N
#102000
1!
1Y
0N
08!
1c
1u!
09!
0y
0x
0w
0s
1>!
0:!
14!
0+!
1$!
0d
0z
1L
0e!
0-!
1V
01
#103000
0!
0Y
1N
#104000
1!
1Y
0N
15!
0k!
0c
16!
0=!
0>!
1:!
04!
1+!
0$!
1d
0'
#105000
0!
0Y
1N
#106000
1$
1!
1p
1Y
0N
17!
05!
06!
#107000
0!
0Y
1N
#108000
1!
1Y
0N
18!
07!
0y!
0[!
19!
1y
1x
1s
0A
0S!
09
#109000
0!
0Y
1N
#110000
1!
1Y
0N
08!
1c
09!
0y
0x
0s
0:!
14!
02!
1.!
0+!
1$!
0d
0f!
0)!
02
#111000
0!
0Y
1N
#112000
1!
1Y
0N
15!
0l!
0c
16!
12!
0.!
1:!
04!
1+!
0$!
1d
0(
#113000
0!
0Y
1N
#114000
1!
1Y
0N
17!
05!
06!
#115000
0!
0Y
1N
#116000
1!
1Y
0N
18!
07!
0x!
0\!
19!
1y
1s
0B
0T!
0:
#117000
0!
0Y
1N
#118000
1!
1Y
0N
08!
1c
09!
0y
0s
0:!
14!
02!
0+!
1'!
1$!
0d
0g!
0&!
03
#119000
0!
0Y
1N
#120000
1!
1Y
0N
15!
0m!
0c
16!
12!
0*!
0'!
1d
1:!
04!
1+!
0$!
0)
#121000
0!
0Y
1N
#122000
1!
1Y
0N
17!
05!
06!
#123000
0!
0Y
1N
#124000
1!
1Y
0N
18!
07!
0w!
0]!
19!
1s
0C
0U!
1{
0;
0|
1}
0~
1!!
0"!
0#!
#125000
0!
0Y
1N
#126000
1!
1Y
0N
08!
1c
09!
0s
10!
1n
#127000
0!
0Y
1N
#128000
1!
1Y
0N
1o
0c
0F!
0A!
1W
00!
0n
1B!
1n
1/
1M
#129000
0!
0Y
1N
#130000
1!
1Y
0N
#131000
0!
0Y
1N
#132000
1!
1Y
0N
#133000
0!
0Y
1N
#134000
1!
1Y
0N
#135000
0!
0Y
1N
#136000
1!
1Y
0N
#137000
0!
0Y
1N
#138000
1!
1Y
0N
#139000
0!
0Y
1N
#140000
1!
1Y
0N
#141000
0!
0Y
1N
#142000
1!
1Y
0N
#143000
0!
0Y
1N
#144000
1!
1Y
0N
#145000
0!
0Y
1N
#146000
1!
1Y
0N
#147000
0!
0Y
1N
#148000
1!
1Y
0N
#149000
0!
0Y
1N
#150000
1!
1Y
0N
#151000
0!
0Y
1N
#152000
1!
1Y
0N
#153000
0!
0Y
1N
#154000
1!
1Y
0N
#155000
0!
0Y
1N
#156000
1!
1Y
0N
#157000
0!
0Y
1N
#158000
1!
1Y
0N
#159000
0!
0Y
1N
#160000
1!
1Y
0N
#161000
0!
0Y
1N
#162000
1!
1Y
0N
#163000
0!
0Y
1N
#164000
1!
1Y
0N
#165000
0!
0Y
1N
#166000
1!
1Y
0N
#167000
0!
0Y
1N
#168000
1!
1Y
0N
#169000
0!
0Y
1N
#170000
1!
1Y
0N
#171000
0!
0Y
1N
#172000
1!
1Y
0N
#173000
0!
0Y
1N
#174000
1!
1Y
0N
#175000
0!
0Y
1N
#176000
1!
1Y
0N
#177000
0!
0Y
1N
#178000
1!
1Y
0N
#179000
0!
0Y
1N
#180000
1!
1Y
0N
#181000
0!
0Y
1N
#182000
1!
1Y
0N
#183000
0!
0Y
1N
#184000
1!
1Y
0N
#185000
0!
0Y
1N
#186000
1!
1Y
0N
#187000
0!
0Y
1N
#188000
1!
1Y
0N
#189000
0!
0Y
1N
#190000
1!
1Y
0N
#191000
0!
0Y
1N
#192000
1!
1Y
0N
#193000
0!
0Y
1N
#194000
1!
1Y
0N
#195000
0!
0Y
1N
#196000
0$
1!
0p
1Y
0N
0q
0W
0n
#197000
0!
0Y
1N
#198000
1!
1Y
0N
0r
0o
1/!
1$!
1s
1F!
0B!
1d!
1f!
1e!
1g!
1h!
0V!
0M
0/
1<!
0V
1)!
1-!
1&!
1f
10
12
11
13
14
0<
0g
1h
0i
1j
0k
1l
1m
#199000
0!
0Y
1N
#200000
b11 "
b10 "
1!
0N!
1M!
1Y
0N
0Z
1[
1j!
1k!
1l!
1m!
1=!
1*!
1&
1'
1(
1)
#201000
0!
0Y
1N
#202000
1!
1Y
0N
1t!
0u!
0f
1K
0L
#203000
0!
0Y
1N
#204000
1!
1Y
0N
1z!
1y!
1x!
1w!
1Z!
1[!
1\!
1]!
1@
1A
1B
1C
#205000
0!
0Y
1N
#206000
1$
1!
1p
1Y
0N
1q
1X
14!
#207000
0!
0Y
1N
#208000
1!
1Y
0N
15!
1r
16!
1A!
0/!
0$!
0s
0X
04!
#209000
0!
0Y
1N
#210000
1!
1Y
0N
17!
05!
06!
#211000
0!
0Y
1N
#212000
1!
1Y
0N
18!
07!
19!
1y
1x
1w
1v
1s
1V!
1U!
1T!
1S!
1R!
1z
1g
1|
0h
0}
1i
1~
0j
1<
1;
1:
19
18
0{
0!!
1k
1"!
0l
1#!
0m
#213000
0!
0Y
1N
#214000
1!
1Y
0N
08!
1c
09!
0y
0x
0w
0v
0s
1?!
0:!
14!
1$!
0d
0d!
0h!
0<!
00
04
#215000
0!
0Y
1N
#216000
1!
1Y
0N
0j!
15!
0c
0?!
1:!
16!
04!
0$!
1d
0&
#217000
0!
0Y
1N
#218000
1!
1Y
0N
17!
05!
06!
#219000
0!
0Y
1N
#220000
1!
1Y
0N
18!
07!
0z!
0Z!
19!
1y
1x
1w
1s
0@
0R!
08
#221000
0!
0Y
1N
#222000
1!
1Y
0N
08!
1c
09!
0y
0x
0w
0s
1>!
0:!
14!
0+!
1$!
0d
0e!
0-!
1V
01
#223000
0!
0Y
1N
#224000
1!
1Y
0N
15!
0k!
0c
16!
0=!
0>!
1:!
04!
1+!
0$!
1d
0'
#225000
0!
0Y
1N
#226000
1!
1Y
0N
17!
05!
06!
#227000
0!
0Y
1N
#228000
1!
1Y
0N
18!
07!
0y!
0[!
19!
1y
1x
1s
0A
0S!
09
#229000
0!
0Y
1N
#230000
1!
1Y
0N
08!
1c
09!
0y
0x
0s
0:!
14!
02!
1.!
0+!
1$!
0d
0f!
0)!
02
#231000
0!
0Y
1N
#232000
1!
1Y
0N
15!
0l!
0c
16!
12!
0.!
1:!
04!
1+!
0$!
1d
0(
#233000
0!
0Y
1N
#234000
1!
1Y
0N
17!
05!
06!
#235000
0!
0Y
1N
#236000
1!
1Y
0N
18!
07!
0x!
0\!
19!
1y
1s
0B
0T!
0:
#237000
0!
0Y
1N
#238000
1!
1Y
0N
08!
1c
09!
0y
0s
0:!
14!
02!
0+!
1'!
1$!
0d
0g!
0&!
03
#239000
0!
0Y
1N
#240000
1!
1Y
0N
15!
0m!
0c
16!
12!
0*!
0'!
1d
1:!
04!
1+!
0$!
0)
#241000
0!
0Y
1N
#242000
1!
1Y
0N
17!
05!
06!
#243000
0!
0Y
1N
#244000
1!
1Y
0N
18!
07!
0w!
0]!
19!
1s
0C
0U!
1{
0g
0;
0|
1h
1}
0i
0~
1j
1!!
0k
0"!
1l
0#!
1m
#245000
0!
0Y
1N
#246000
1!
1Y
0N
08!
1c
09!
0s
14!
10!
1/!
1c!
11!
1.
13!
#247000
0!
0Y
1N
#248000
1!
1Y
0N
15!
0c
1D!
04!
00!
0/!
#249000
0!
0Y
1N
#250000
1!
1Y
0N
1E!
05!
0F!
1U
0D!
1D!
1/
#251000
0!
0Y
1N
#252000
1!
1Y
0N
#253000
0!
0Y
1N
#254000
1!
1Y
0N
#255000
0!
0Y
1N
#256000
1!
1Y
0N
#257000
0!
0Y
1N
#258000
1!
1Y
0N
#259000
0!
0Y
1N
#260000
1!
1Y
0N
#261000
0!
0Y
1N
#262000
1!
1Y
0N
#263000
0!
0Y
1N
#264000
1!
1Y
0N
#265000
0!
0Y
1N
#266000
1!
1Y
0N
#267000
0!
0Y
1N
#268000
1!
1Y
0N
#269000
0!
0Y
1N
#270000
1!
1Y
0N
#271000
0!
0Y
1N
#272000
1!
1Y
0N
#273000
0!
0Y
1N
#274000
1!
1Y
0N
#275000
0!
0Y
1N
#276000
1!
1Y
0N
#277000
0!
0Y
1N
#278000
1!
1Y
0N
#279000
0!
0Y
1N
#280000
1!
1Y
0N
#281000
0!
0Y
1N
#282000
1!
1Y
0N
#283000
0!
0Y
1N
#284000
1!
1Y
0N
#285000
0!
0Y
1N
#286000
1!
1Y
0N
#287000
0!
0Y
1N
#288000
1!
1Y
0N
#289000
0!
0Y
1N
#290000
1!
1Y
0N
#291000
0!
0Y
1N
#292000
1!
1Y
0N
#293000
0!
0Y
1N
#294000
1!
1Y
0N
#295000
0!
0Y
1N
#296000
0$
1!
0p
1Y
0N
0q
0U
0D!
#297000
0!
0Y
1N
#298000
1!
1Y
0N
0E!
0r
1F!
0A!
1/!
1$!
1s
0c!
1d!
1f!
1e!
1g!
1h!
0V!
0/
01!
1<!
0V
03!
1)!
1-!
1&!
0z
0.
10
12
11
13
14
0<
#299000
0!
0Y
1N
#300000
b11 "
1!
1N!
1Y
0N
1Z
1j!
1k!
1l!
1m!
1=!
1*!
1&
1'
1(
1)
#301000
0!
0Y
1N
#302000
1!
1Y
0N
1u!
1f
1L
#303000
0!
0Y
1N
#304000
1!
1Y
0N
1z!
1y!
1x!
1w!
1Z!
1[!
1\!
1]!
1@
1A
1B
1C
#305000
0!
0Y
1N
#306000
1$
1!
1p
1Y
0N
1q
1X
14!
#307000
0!
0Y
1N
#308000
1!
1Y
0N
15!
1r
16!
1A!
0/!
0$!
0s
0X
04!
#309000
0!
0Y
1N
#310000
1!
1Y
0N
17!
05!
06!
#311000
0!
0Y
1N
#312000
1!
1Y
0N
18!
07!
19!
1y
1x
1w
1v
1s
1V!
1U!
1T!
1S!
1R!
0f
1|
0h
0}
1i
1~
0j
1<
1;
1:
19
18
1g
0!!
1k
1"!
0l
1#!
0m
#313000
0!
0Y
1N
#314000
1!
1Y
0N
08!
1c
09!
0y
0x
0w
0v
0s
1?!
0:!
14!
1$!
0d
0d!
0h!
0<!
00
04
#315000
0!
0Y
1N
#316000
1!
1Y
0N
0j!
15!
0c
0?!
1:!
16!
04!
0$!
1d
0&
#317000
0!
0Y
1N
#318000
1!
1Y
0N
17!
05!
06!
#319000
0!
0Y
1N
#320000
1!
1Y
0N
18!
07!
0z!
0Z!
19!
1y
1x
1w
1s
0@
0R!
08
#321000
0!
0Y
1N
#322000
1!
1Y
0N
08!
1c
09!
0y
0x
0w
0s
1>!
0:!
14!
0+!
1$!
0d
0e!
0-!
1V
01
#323000
0!
0Y
1N
#324000
1!
1Y
0N
15!
0k!
0c
16!
0=!
0>!
1:!
04!
1+!
0$!
1d
0'
#325000
0!
0Y
1N
#326000
1!
1Y
0N
17!
05!
06!
#327000
0!
0Y
1N
#328000
1!
1Y
0N
18!
07!
0y!
0[!
19!
1y
1x
1s
0A
0S!
09
#329000
0!
0Y
1N
#330000
1!
1Y
0N
08!
1c
09!
0y
0x
0s
0:!
14!
02!
1.!
0+!
1$!
0d
0f!
0)!
02
#331000
0!
0Y
1N
#332000
1!
1Y
0N
15!
0l!
0c
16!
12!
0.!
1:!
04!
1+!
0$!
1d
0(
#333000
0!
0Y
1N
#334000
1!
1Y
0N
17!
05!
06!
#335000
0!
0Y
1N
#336000
1!
1Y
0N
18!
07!
0x!
0\!
19!
1y
1s
0B
0T!
0|
0:
1}
0~
1!!
0"!
0#!
#337000
0!
0Y
1N
#338000
1!
1Y
0N
08!
1c
09!
0y
0s
0:!
02!
0+!
1'!
1n
0d
#339000
0!
0Y
1N
#340000
1!
1Y
0N
1o
0c
0F!
0A!
1W
1:!
12!
1+!
0'!
0n
1d
1B!
1n
1/
1M
#341000
0!
0Y
1N
#342000
1!
1Y
0N
#343000
0!
0Y
1N
#344000
1!
1Y
0N
#345000
0!
0Y
1N
#346000
1!
1Y
0N
#347000
0!
0Y
1N
#348000
1!
1Y
0N
#349000
0!
0Y
1N
#350000
1!
1Y
0N
#351000
0!
0Y
1N
#352000
1!
1Y
0N
#353000
0!
0Y
1N
#354000
1!
1Y
0N
#355000
0!
0Y
1N
#356000
1!
1Y
0N
#357000
0!
0Y
1N
#358000
1!
1Y
0N
#359000
0!
0Y
1N
#360000
1!
1Y
0N
#361000
0!
0Y
1N
#362000
1!
1Y
0N
#363000
0!
0Y
1N
#364000
1!
1Y
0N
#365000
0!
0Y
1N
#366000
1!
1Y
0N
#367000
0!
0Y
1N
#368000
1!
1Y
0N
#369000
0!
0Y
1N
#370000
1!
1Y
0N
#371000
0!
0Y
1N
#372000
1!
1Y
0N
#373000
0!
0Y
1N
#374000
1!
1Y
0N
#375000
0!
0Y
1N
#376000
1!
1Y
0N
#377000
0!
0Y
1N
#378000
1!
1Y
0N
#379000
0!
0Y
1N
#380000
1!
1Y
0N
#381000
0!
0Y
1N
#382000
1!
1Y
0N
#383000
0!
0Y
1N
#384000
1!
1Y
0N
#385000
0!
0Y
1N
#386000
1!
1Y
0N
#387000
0!
0Y
1N
#388000
1!
1Y
0N
#389000
0!
0Y
1N
#390000
1!
1Y
0N
#391000
0!
0Y
1N
#392000
1!
1Y
0N
#393000
0!
0Y
1N
#394000
1!
1Y
0N
#395000
0!
0Y
1N
#396000
0$
1!
0p
1Y
0N
0q
0W
0n
#397000
0!
0Y
1N
#398000
1!
1Y
0N
0r
0o
1/!
1$!
1s
1F!
0B!
1d!
1f!
1e!
1h!
0V!
0U!
0M
0/
1<!
0V
1)!
1-!
1f
0g
10
12
11
14
0<
0;
1h
0i
1j
0k
1l
1m
