COMP3222/WKSpace/Lab11/part2New/simulation/qsim/part2.msim.vcd
$comment
	File created using the following command:
		vcd file part2.msim.vcd -direction
$end
$date
	Sun Nov 17 14:03:13 2019
$end
$version
	ModelSim Version 10.1d
$end
$timescale
	1ps
$end
$scope module part2_vlg_vec_tst $end
$var reg 1 ! Clock $end
$var reg 8 " Data [7:0] $end
$var reg 1 # Resetn $end
$var reg 1 $ s $end
$var wire 1 % Addr [4] $end
$var wire 1 & Addr [3] $end
$var wire 1 ' Addr [2] $end
$var wire 1 ( Addr [1] $end
$var wire 1 ) Addr [0] $end
$var wire 1 * DL [4] $end
$var wire 1 + DL [3] $end
$var wire 1 , DL [2] $end
$var wire 1 - DL [1] $end
$var wire 1 . DL [0] $end
$var wire 1 / Done $end
$var wire 1 0 DR [4] $end
$var wire 1 1 DR [3] $end
$var wire 1 2 DR [2] $end
$var wire 1 3 DR [1] $end
$var wire 1 4 DR [0] $end
$var wire 1 5 Dref [7] $end
$var wire 1 6 Dref [6] $end
$var wire 1 7 Dref [5] $end
$var wire 1 8 Dref [4] $end
$var wire 1 9 Dref [3] $end
$var wire 1 : Dref [2] $end
$var wire 1 ; Dref [1] $end
$var wire 1 < Dref [0] $end
$var wire 1 = Dsth [7] $end
$var wire 1 > Dsth [6] $end
$var wire 1 ? Dsth [5] $end
$var wire 1 @ Dsth [4] $end
$var wire 1 A Dsth [3] $end
$var wire 1 B Dsth [2] $end
$var wire 1 C Dsth [1] $end
$var wire 1 D Dsth [0] $end
$var wire 1 E Dtar [7] $end
$var wire 1 F Dtar [6] $end
$var wire 1 G Dtar [5] $end
$var wire 1 H Dtar [4] $end
$var wire 1 I Dtar [3] $end
$var wire 1 J Dtar [2] $end
$var wire 1 K Dtar [1] $end
$var wire 1 L Dtar [0] $end
$var wire 1 M Found $end
$var wire 1 N sampler $end
$scope module i1 $end
$var wire 1 O gnd $end
$var wire 1 P vcc $end
$var wire 1 Q unknown $end
$var tri1 1 R devclrn $end
$var tri1 1 S devpor $end
$var tri1 1 T devoe $end
$var wire 1 U y.S1~regout $end
$var wire 1 V Selector3~0_combout $end
$var wire 1 W Selector3~1_combout $end
$var wire 1 X Clock~combout $end
$var wire 1 Y Resetn~combout $end
$var wire 1 Z LoadData|Q~0_combout $end
$var wire 1 [ LoadData|Q~1_combout $end
$var wire 1 \ LoadData|Q~2_combout $end
$var wire 1 ] LoadData|Q~3_combout $end
$var wire 1 ^ LoadData|Q~4_combout $end
$var wire 1 _ LoadData|Q~5_combout $end
$var wire 1 ` LoadData|Q~6_combout $end
$var wire 1 a LoadData|Q~7_combout $end
$var wire 1 b s~combout $end
$var wire 1 c Selector4~0_combout $end
$var wire 1 d Selector11~0_combout $end
$var wire 1 e Selector11~0clkctrl_outclk $end
$var wire 1 f Selector10~0_combout $end
$var wire 1 g Selector7~0_combout $end
$var wire 1 h M[0]~5_cout $end
$var wire 1 i M[0]~7 $end
$var wire 1 j M[1]~9 $end
$var wire 1 k M[2]~11 $end
$var wire 1 l M[3]~12_combout $end
$var wire 1 m Add0~0_combout $end
$var wire 1 n Selector0~0_combout $end
$var wire 1 o M[2]~10_combout $end
$var wire 1 p Selector1~0_combout $end
$var wire 1 q Selector15~0_combout $end
$var wire 1 r Clock~clkctrl_outclk $end
$var wire 1 s ~GND~combout $end
$var wire 1 t Selector25~0_combout $end
$var wire 1 u Selector24~0_combout $end
$var wire 1 v Selector23~0_combout $end
$var wire 1 w Selector21~0_combout $end
$var wire 1 x LessThan1~1_cout $end
$var wire 1 y LessThan1~3_cout $end
$var wire 1 z LessThan1~5_cout $end
$var wire 1 { LessThan1~7_cout $end
$var wire 1 | LessThan1~9_cout $end
$var wire 1 } LessThan1~11_cout $end
$var wire 1 ~ LessThan1~13_cout $end
$var wire 1 !! LessThan1~14_combout $end
$var wire 1 "! LessThan2~1_cout $end
$var wire 1 #! LessThan2~3_cout $end
$var wire 1 $! LessThan2~5_cout $end
$var wire 1 %! LessThan2~7_cout $end
$var wire 1 &! LessThan2~9_cout $end
$var wire 1 '! LessThan2~11_cout $end
$var wire 1 (! LessThan2~13_cout $end
$var wire 1 )! LessThan2~14_combout $end
$var wire 1 *! Selector17~0_combout $end
$var wire 1 +! Selector17~0clkctrl_outclk $end
$var wire 1 ,! LessThan0~1_combout $end
$var wire 1 -! LessThan0~2_combout $end
$var wire 1 .! LessThan0~3_combout $end
$var wire 1 /! y_next.S7~0_combout $end
$var wire 1 0! Resetn~clkctrl_outclk $end
$var wire 1 1! y.S7~regout $end
$var wire 1 2! y.S2~regout $end
$var wire 1 3! y.S3~regout $end
$var wire 1 4! Selector14~0_combout $end
$var wire 1 5! M[1]~8_combout $end
$var wire 1 6! Selector13~0_combout $end
$var wire 1 7! M[0]~6_combout $end
$var wire 1 8! Add1~0_combout $end
$var wire 1 9! Selector16~0_combout $end
$var wire 1 :! LessThan0~0_combout $end
$var wire 1 ;! Selector4~1_combout $end
$var wire 1 <! y.S4~regout $end
$var wire 1 =! Selector2~0_combout $end
$var wire 1 >! y.SI~regout $end
$var wire 1 ?! WideOr4~0_combout $end
$var wire 1 @! Selector18~0_combout $end
$var wire 1 A! Selector19~0_combout $end
$var wire 1 B! Selector20~0_combout $end
$var wire 1 C! Selector22~0_combout $end
$var wire 1 D! Selector12~0_combout $end
$var wire 1 E! Selector5~0_combout $end
$var wire 1 F! Selector5~1_combout $end
$var wire 1 G! y.S5~regout $end
$var wire 1 H! WideOr6~0_combout $end
$var wire 1 I! Found$latch~combout $end
$var wire 1 J! Done~0_combout $end
$var wire 1 K! Data~combout [7] $end
$var wire 1 L! Data~combout [6] $end
$var wire 1 M! Data~combout [5] $end
$var wire 1 N! Data~combout [4] $end
$var wire 1 O! Data~combout [3] $end
$var wire 1 P! Data~combout [2] $end
$var wire 1 Q! Data~combout [1] $end
$var wire 1 R! Data~combout [0] $end
$var wire 1 S! ref [7] $end
$var wire 1 T! ref [6] $end
$var wire 1 U! ref [5] $end
$var wire 1 V! ref [4] $end
$var wire 1 W! ref [3] $end
$var wire 1 X! ref [2] $end
$var wire 1 Y! ref [1] $end
$var wire 1 Z! ref [0] $end
$var wire 1 [! loadReferent|altsyncram_component|auto_generated|q_a [7] $end
$var wire 1 \! loadReferent|altsyncram_component|auto_generated|q_a [6] $end
$var wire 1 ]! loadReferent|altsyncram_component|auto_generated|q_a [5] $end
$var wire 1 ^! loadReferent|altsyncram_component|auto_generated|q_a [4] $end
$var wire 1 _! loadReferent|altsyncram_component|auto_generated|q_a [3] $end
$var wire 1 `! loadReferent|altsyncram_component|auto_generated|q_a [2] $end
$var wire 1 a! loadReferent|altsyncram_component|auto_generated|q_a [1] $end
$var wire 1 b! loadReferent|altsyncram_component|auto_generated|q_a [0] $end
$var wire 1 c! L [4] $end
$var wire 1 d! L [3] $end
$var wire 1 e! L [2] $end
$var wire 1 f! L [1] $end
$var wire 1 g! L [0] $end
$var wire 1 h! R [4] $end
$var wire 1 i! R [3] $end
$var wire 1 j! R [2] $end
$var wire 1 k! R [1] $end
$var wire 1 l! R [0] $end
$var wire 1 m! M [4] $end
$var wire 1 n! M [3] $end
$var wire 1 o! M [2] $end
$var wire 1 p! M [1] $end
$var wire 1 q! M [0] $end
$var wire 1 r! LoadData|Q [7] $end
$var wire 1 s! LoadData|Q [6] $end
$var wire 1 t! LoadData|Q [5] $end
$var wire 1 u! LoadData|Q [4] $end
$var wire 1 v! LoadData|Q [3] $end
$var wire 1 w! LoadData|Q [2] $end
$var wire 1 x! LoadData|Q [1] $end
$var wire 1 y! LoadData|Q [0] $end
$var wire 1 z! loadReferent|altsyncram_component|auto_generated|ram_block1a0_PORTADATAOUT_bus [7] $end
$var wire 1 {! loadReferent|altsyncram_component|auto_generated|ram_block1a0_PORTADATAOUT_bus [6] $end
$var wire 1 |! loadReferent|altsyncram_component|auto_generated|ram_block1a0_PORTADATAOUT_bus [5] $end
$var wire 1 }! loadReferent|altsyncram_component|auto_generated|ram_block1a0_PORTADATAOUT_bus [4] $end
$var wire 1 ~! loadReferent|altsyncram_component|auto_generated|ram_block1a0_PORTADATAOUT_bus [3] $end
$var wire 1 !" loadReferent|altsyncram_component|auto_generated|ram_block1a0_PORTADATAOUT_bus [2] $end
$var wire 1 "" loadReferent|altsyncram_component|auto_generated|ram_block1a0_PORTADATAOUT_bus [1] $end
$var wire 1 #" loadReferent|altsyncram_component|auto_generated|ram_block1a0_PORTADATAOUT_bus [0] $end
$upscope $end
$upscope $end
$enddefinitions $end
#0
$dumpvars
1!
b0 "
0#
0$
0)
0(
0'
0&
0%
0.
0-
0,
0+
0*
0/
14
13
12
11
10
0<
0;
0:
09
08
07
06
05
0D
0C
0B
0A
0@
0?
0>
0=
0L
0K
0J
0I
0H
0G
0F
0E
0M
xN
0O
1P
xQ
1R
1S
1T
0U
0V
0W
1X
0Y
0Z
0[
0\
0]
0^
0_
0`
0a
0b
0c
1d
1e
1f
1g
0h
1i
0j
1k
1l
0m
1n
1o
1p
0q
1r
0s
0t
0u
0v
0w
0x
1y
0z
1{
0|
1}
0~
0!!
0"!
1#!
0$!
1%!
0&!
1'!
0(!
0)!
1*!
1+!
0,!
0-!
0.!
0/!
00!
01!
02!
03!
04!
15!
06!
17!
08!
09!
0:!
0;!
0<!
0=!
0>!
1?!
0@!
0A!
0B!
0C!
0D!
0E!
0F!
0G!
0H!
0I!
1J!
0R!
0Q!
0P!
0O!
0N!
0M!
0L!
0K!
0Z!
0Y!
0X!
0W!
0V!
0U!
0T!
0S!
0b!
0a!
0`!
0_!
0^!
0]!
0\!
0[!
0g!
0f!
0e!
0d!
0c!
1l!
1k!
1j!
1i!
1h!
0q!
0p!
0o!
0n!
zm!
0y!
0x!
0w!
0v!
0u!
0t!
0s!
0r!
0#"
0""
0!"
0~!
0}!
0|!
0{!
0z!
$end
#1000
0!
0X
0r
0N
#2000
1!
1X
1r
1N
1q!
1p!
1o!
1n!
18!
1m
1)
1(
1'
1&
#2901
1#
1Y
10!
0N
#3000
0!
0X
0r
1N
#4000
1!
1X
1r
0N
1#"
1b!
1D
#5000
0!
0X
0r
1N
#6000
1$
1!
1b
1X
1r
0N
1=!
1V
1W
1""
1!"
1~!
1}!
1a!
1`!
1_!
1^!
1C
1B
1A
1@
#7000
0!
0X
0r
1N
#8000
1!
1X
1r
0N
1>!
1U
1H!
0?!
0*!
0d
0V
1/!
0e
0+!
0W
#9000
0!
0X
0r
1N
#10000
1!
1X
1r
0N
11!
0U
0/!
#11000
0!
0X
0r
1N
#12000
1!
1X
1r
0N
12!
01!
1C!
1B!
1A!
1@!
1?!
1w
1V!
1X!
1Y!
1Z!
1W!
1|
1z
0y
1x
0{
18
1:
1;
1<
19
0}
1~
1!!
#13000
0!
0X
0r
1N
#14000
1!
1X
1r
0N
13!
02!
19!
0g
0f
1d
1W
0C!
0B!
0A!
0@!
0?!
0w
1e
0l!
0h!
0l
04
00
#15000
0!
0X
0r
1N
#16000
1!
1X
1r
0N
03!
0n!
1U
09!
1g
1f
0d
0W
1/!
0e
0&
#17000
0!
0X
0r
1N
#18000
1!
1X
1r
0N
11!
0U
0/!
#19000
0!
0X
0r
1N
#20000
1!
1X
1r
0N
12!
01!
0}!
0^!
1B!
1A!
1@!
1?!
1w
0@
0V!
08
#21000
0!
0X
0r
1N
#22000
1!
1X
1r
0N
13!
02!
1q
0n
0g
0f
1d
1W
0B!
0A!
0@!
0?!
0w
1e
0i!
1,!
0o
01
#23000
0!
0X
0r
1N
#24000
1!
1X
1r
0N
03!
0o!
1U
0q
1n
1g
1f
0d
0W
08!
1/!
0e
0'
#25000
0!
0X
0r
1N
#26000
1!
1X
1r
0N
11!
0U
0/!
#27000
0!
0X
0r
1N
#28000
1!
1X
1r
0N
12!
01!
0~!
0_!
1B!
1A!
1@!
1?!
0A
0W!
09
#29000
0!
0X
0r
1N
#30000
1!
1X
1r
0N
13!
02!
14!
0p
0n
0g
0f
1d
1W
0B!
0A!
0@!
0?!
1e
0j!
05!
02
#31000
0!
0X
0r
1N
#32000
1!
1X
1r
0N
03!
0p!
1U
04!
1p
1n
1g
1f
0d
0W
1/!
0e
0(
#33000
0!
0X
0r
1N
#34000
1!
1X
1r
0N
11!
0U
0/!
#35000
0!
0X
0r
1N
#36000
1!
1X
1r
0N
12!
01!
0!"
0`!
1A!
1@!
1?!
0B
0X!
0:
#37000
0!
0X
0r
1N
#38000
1!
1X
1r
0N
13!
02!
16!
0p
0n
0g
0f
1d
1W
0A!
0@!
0?!
1e
0k!
07!
03
#39000
0!
0X
0r
1N
#40000
1!
1X
1r
0N
03!
0q!
1U
06!
1p
1n
1g
1f
0d
0W
0m
1/!
0e
0)
#41000
0!
0X
0r
1N
#42000
1!
1X
1r
0N
11!
0U
0/!
#43000
0!
0X
0r
1N
#44000
1!
1X
1r
0N
12!
01!
0""
0a!
1@!
1?!
0C
0Y!
0;
#45000
0!
0X
0r
1N
#46000
1!
1X
1r
0N
13!
02!
1D!
1d
1W
0@!
0?!
1e
1k!
1j!
1i!
1l!
1h!
17!
15!
0,!
1o
1l
13
12
11
14
10
#47000
0!
0X
0r
1N
#48000
1!
1X
1r
0N
03!
1q!
1p!
1o!
1n!
1U
0D!
0d
0W
18!
1m
1/!
0e
1)
1(
1'
1&
#49000
0!
0X
0r
1N
#50000
1!
1X
1r
0N
11!
0U
0/!
#51000
0!
0X
0r
1N
#52000
1!
1X
1r
0N
12!
01!
1""
1!"
1~!
1}!
1a!
1`!
1_!
1^!
1C!
1B!
1A!
1@!
1?!
1w
1C
1B
1A
1@
1V!
1X!
1Y!
1W!
18
1:
1;
19
#53000
0!
0X
0r
1N
#54000
1!
1X
1r
0N
13!
02!
19!
0g
0f
1d
1W
0C!
0B!
0A!
0@!
0?!
0w
1e
0l!
0h!
0l
04
00
#55000
0!
0X
0r
1N
#56000
1!
1X
1r
0N
03!
0n!
1U
09!
1g
1f
0d
0W
1/!
0e
0&
#57000
0!
0X
0r
1N
#58000
1!
1X
1r
0N
11!
0U
0/!
#59000
0!
0X
0r
1N
#60000
1!
1X
1r
0N
12!
01!
0}!
0^!
1B!
1A!
1@!
1?!
1w
0@
0V!
08
#61000
0!
0X
0r
1N
#62000
1!
1X
1r
0N
13!
02!
1q
0n
0g
0f
1d
1W
0B!
0A!
0@!
0?!
0w
1e
0i!
1,!
0o
01
#63000
0!
0X
0r
1N
#64000
1!
1X
1r
0N
03!
0o!
1U
0q
1n
1g
1f
0d
0W
08!
1/!
0e
0'
#65000
0!
0X
0r
1N
#66000
1!
1X
1r
0N
11!
0U
0/!
#67000
0!
0X
0r
1N
#68000
1!
1X
1r
0N
12!
01!
0~!
0_!
1B!
1A!
1@!
1?!
0A
0W!
09
#69000
0!
0X
0r
1N
#70000
1!
1X
1r
0N
13!
02!
14!
0p
0n
0g
0f
1d
1W
0B!
0A!
0@!
0?!
1e
0j!
05!
02
#71000
0!
0X
0r
1N
#72000
1!
1X
1r
0N
03!
0p!
1U
04!
1p
1n
1g
1f
0d
0W
1/!
0e
0(
#73000
0!
0X
0r
1N
#74000
1!
1X
1r
0N
11!
0U
0/!
#75000
0!
0X
0r
1N
#76000
1!
1X
1r
0N
12!
01!
0!"
0`!
1A!
1@!
1?!
0B
0X!
0:
#77000
0!
0X
0r
1N
#78000
1!
1X
1r
0N
13!
02!
16!
0p
0n
0g
0f
1d
1W
0A!
0@!
0?!
1e
0k!
07!
03
#79000
0!
0X
0r
1N
#80000
1!
1X
1r
0N
03!
0q!
1U
06!
1p
1n
1g
1f
0d
0W
0m
1/!
0e
0)
#81000
0!
0X
0r
1N
#82000
1!
1X
1r
0N
11!
0U
0/!
#83000
0!
0X
0r
1N
#84000
1!
1X
1r
0N
12!
01!
0""
0a!
1@!
1?!
0C
0Y!
0;
#85000
0!
0X
0r
1N
#86000
1!
1X
1r
0N
13!
02!
1D!
1d
1W
0@!
0?!
1e
1k!
1j!
1i!
1l!
1h!
17!
15!
0,!
1o
1l
13
12
11
14
10
#87000
0!
0X
0r
1N
#88000
1!
1X
1r
0N
03!
1q!
1p!
1o!
1n!
1U
0D!
0d
0W
18!
1m
1/!
0e
1)
1(
1'
1&
#89000
0!
0X
0r
1N
#90000
1!
1X
1r
0N
11!
0U
0/!
#91000
0!
0X
0r
1N
#92000
1!
1X
1r
0N
12!
01!
1""
1!"
1~!
1}!
1a!
1`!
1_!
1^!
1C!
1B!
1A!
1@!
1?!
1w
1C
1B
1A
1@
1V!
1X!
1Y!
1W!
18
1:
1;
19
#93000
0!
0X
0r
1N
#94000
1!
1X
1r
0N
13!
02!
19!
0g
0f
1d
1W
0C!
0B!
0A!
0@!
0?!
0w
1e
0l!
0h!
0l
04
00
#95000
0!
0X
0r
1N
#96000
0$
1!
0b
1X
1r
0N
03!
0n!
1U
09!
1g
1f
0d
0W
1/!
0e
0&
#97000
0!
0X
0r
1N
#98000
1!
1X
1r
0N
11!
0U
0/!
#99000
0!
0X
0r
1N
#100000
b1 "
1!
1R!
1X
1r
0N
1Z
12!
01!
0}!
0^!
1B!
1A!
1@!
1?!
1w
0@
0V!
08
#101000
0!
0X
0r
1N
#102000
1!
1X
1r
0N
13!
1y!
02!
1q
0n
0g
0f
1d
1W
0x
0B!
0A!
0@!
0?!
0w
1e
1L
0i!
1,!
0o
01
#103000
0!
0X
0r
1N
#104000
1!
1X
1r
0N
03!
0o!
1U
0q
1n
1g
1f
0d
0W
08!
1/!
0e
0'
#105000
0!
0X
0r
1N
#106000
1$
1!
1b
1X
1r
0N
11!
0U
0/!
#107000
0!
0X
0r
1N
#108000
1!
1X
1r
0N
12!
01!
0~!
0_!
1B!
1A!
1@!
1?!
0A
0W!
09
#109000
0!
0X
0r
1N
#110000
1!
1X
1r
0N
13!
02!
14!
0p
0n
0g
0f
1d
1W
0B!
0A!
0@!
0?!
1e
0j!
05!
02
#111000
0!
0X
0r
1N
#112000
1!
1X
1r
0N
03!
0p!
1U
04!
1p
1n
1g
1f
0d
0W
1/!
0e
0(
#113000
0!
0X
0r
1N
#114000
1!
1X
1r
0N
11!
0U
0/!
#115000
0!
0X
0r
1N
#116000
1!
1X
1r
0N
12!
01!
0!"
0`!
1A!
1@!
1?!
0B
0X!
0:
#117000
0!
0X
0r
1N
#118000
1!
1X
1r
0N
13!
02!
16!
0p
0n
0g
0f
1d
1W
0A!
0@!
0?!
1e
0k!
07!
03
#119000
0!
0X
0r
1N
#120000
1!
1X
1r
0N
03!
0q!
1U
06!
1p
1n
1g
1f
0d
0W
0m
1/!
0e
0)
#121000
0!
0X
0r
1N
#122000
1!
1X
1r
0N
11!
0U
0/!
#123000
0!
0X
0r
1N
#124000
1!
1X
1r
0N
12!
01!
0""
0a!
1@!
1?!
0C
0Y!
1y
0;
0z
1{
0|
1}
0~
0!!
#125000
0!
0X
0r
1N
#126000
1!
1X
1r
0N
13!
02!
1F!
1D!
0@!
0?!
#127000
0!
0X
0r
1N
#128000
1!
1X
1r
0N
03!
1G!
0F!
0D!
0J!
0H!
1E!
1I!
1F!
1/
1M
#129000
0!
0X
0r
1N
#130000
1!
1X
1r
0N
#131000
0!
0X
0r
1N
#132000
1!
1X
1r
0N
#133000
0!
0X
0r
1N
#134000
1!
1X
1r
0N
#135000
0!
0X
0r
1N
#136000
1!
1X
1r
0N
#137000
0!
0X
0r
1N
#138000
1!
1X
1r
0N
#139000
0!
0X
0r
1N
#140000
1!
1X
1r
0N
#141000
0!
0X
0r
1N
#142000
1!
1X
1r
0N
#143000
0!
0X
0r
1N
#144000
1!
1X
1r
0N
#145000
0!
0X
0r
1N
#146000
1!
1X
1r
0N
#147000
0!
0X
0r
1N
#148000
1!
1X
1r
0N
#149000
0!
0X
0r
1N
#150000
1!
1X
1r
0N
#151000
0!
0X
0r
1N
#152000
1!
1X
1r
0N
#153000
0!
0X
0r
1N
#154000
1!
1X
1r
0N
#155000
0!
0X
0r
1N
#156000
1!
1X
1r
0N
#157000
0!
0X
0r
1N
#158000
1!
1X
1r
0N
#159000
0!
0X
0r
1N
#160000
1!
1X
1r
0N
#161000
0!
0X
0r
1N
#162000
1!
1X
1r
0N
#163000
0!
0X
0r
1N
#164000
1!
1X
1r
0N
#165000
0!
0X
0r
1N
#166000
1!
1X
1r
0N
#167000
0!
0X
0r
1N
#168000
1!
1X
1r
0N
#169000
0!
0X
0r
1N
#170000
1!
1X
1r
0N
#171000
0!
0X
0r
1N
#172000
1!
1X
1r
0N
#173000
0!
0X
0r
1N
#174000
1!
1X
1r
0N
#175000
0!
0X
0r
1N
#176000
1!
1X
1r
0N
#177000
0!
0X
0r
1N
#178000
1!
1X
1r
0N
#179000
0!
0X
0r
1N
#180000
1!
1X
1r
0N
#181000
0!
0X
0r
1N
#182000
1!
1X
1r
0N
#183000
0!
0X
0r
1N
#184000
1!
1X
1r
0N
#185000
0!
0X
0r
1N
#186000
1!
1X
1r
0N
#187000
0!
0X
0r
1N
#188000
1!
1X
1r
0N
#189000
0!
0X
0r
1N
#190000
1!
1X
1r
0N
#191000
0!
0X
0r
1N
#192000
1!
1X
1r
0N
#193000
0!
0X
0r
1N
#194000
1!
1X
1r
0N
#195000
0!
0X
0r
1N
#196000
0$
1!
0b
1X
1r
0N
0E!
0=!
0F!
#197000
0!
0X
0r
1N
#198000
1!
1X
1r
0N
0>!
0G!
1?!
1*!
1d
1J!
0I!
1e
1+!
0Z!
1k!
1j!
1i!
1l!
1h!
0M
0/
1"!
17!
15!
0,!
1o
1l
0<
13
12
11
14
10
0#!
1$!
0%!
1&!
0'!
1(!
1)!
#199000
0!
0X
0r
1N
#200000
b11 "
b10 "
1!
0R!
1Q!
1X
1r
0N
0Z
1[
1q!
1p!
1o!
1n!
18!
1m
1)
1(
1'
1&
#201000
0!
0X
0r
1N
#202000
1!
1X
1r
0N
1x!
0y!
0"!
1K
0L
#203000
0!
0X
0r
1N
#204000
1!
1X
1r
0N
1""
1!"
1~!
1}!
1a!
1`!
1_!
1^!
1C
1B
1A
1@
#205000
0!
0X
0r
1N
#206000
1$
1!
1b
1X
1r
0N
1=!
1V
1W
#207000
0!
0X
0r
1N
#208000
1!
1X
1r
0N
1>!
1U
1H!
0?!
0*!
0d
0V
1/!
0e
0+!
0W
#209000
0!
0X
0r
1N
#210000
1!
1X
1r
0N
11!
0U
0/!
#211000
0!
0X
0r
1N
#212000
1!
1X
1r
0N
12!
01!
1C!
1B!
1A!
1@!
1?!
1w
1V!
1X!
1Y!
1Z!
1W!
0&!
1|
0$!
1z
1#!
1x
1%!
0{
18
1:
1;
1<
19
1'!
0}
0y
0(!
1~
0)!
1!!
#213000
0!
0X
0r
1N
#214000
1!
1X
1r
0N
13!
02!
19!
0g
0f
1d
1W
0C!
0B!
0A!
0@!
0?!
0w
1e
0l!
0h!
0l
04
00
#215000
0!
0X
0r
1N
#216000
1!
1X
1r
0N
03!
0n!
1U
09!
1g
1f
0d
0W
1/!
0e
0&
#217000
0!
0X
0r
1N
#218000
1!
1X
1r
0N
11!
0U
0/!
#219000
0!
0X
0r
1N
#220000
1!
1X
1r
0N
12!
01!
0}!
0^!
1B!
1A!
1@!
1?!
1w
0@
0V!
08
#221000
0!
0X
0r
1N
#222000
1!
1X
1r
0N
13!
02!
1q
0n
0g
0f
1d
1W
0B!
0A!
0@!
0?!
0w
1e
0i!
1,!
0o
01
#223000
0!
0X
0r
1N
#224000
1!
1X
1r
0N
03!
0o!
1U
0q
1n
1g
1f
0d
0W
08!
1/!
0e
0'
#225000
0!
0X
0r
1N
#226000
1!
1X
1r
0N
11!
0U
0/!
#227000
0!
0X
0r
1N
#228000
1!
1X
1r
0N
12!
01!
0~!
0_!
1B!
1A!
1@!
1?!
0A
0W!
09
#229000
0!
0X
0r
1N
#230000
1!
1X
1r
0N
13!
02!
14!
0p
0n
0g
0f
1d
1W
0B!
0A!
0@!
0?!
1e
0j!
05!
02
#231000
0!
0X
0r
1N
#232000
1!
1X
1r
0N
03!
0p!
1U
04!
1p
1n
1g
1f
0d
0W
1/!
0e
0(
#233000
0!
0X
0r
1N
#234000
1!
1X
1r
0N
11!
0U
0/!
#235000
0!
0X
0r
1N
#236000
1!
1X
1r
0N
12!
01!
0!"
0`!
1A!
1@!
1?!
0B
0X!
0:
#237000
0!
0X
0r
1N
#238000
1!
1X
1r
0N
13!
02!
16!
0p
0n
0g
0f
1d
1W
0A!
0@!
0?!
1e
0k!
07!
03
#239000
0!
0X
0r
1N
#240000
1!
1X
1r
0N
03!
0q!
1U
06!
1p
1n
1g
1f
0d
0W
0m
1/!
0e
0)
#241000
0!
0X
0r
1N
#242000
1!
1X
1r
0N
11!
0U
0/!
#243000
0!
0X
0r
1N
#244000
1!
1X
1r
0N
12!
01!
0""
0a!
1@!
1?!
0C
0Y!
0#!
1y
0;
1$!
0z
0%!
1{
1&!
0|
0'!
1}
1(!
0~
1)!
0!!
#245000
0!
0X
0r
1N
#246000
1!
1X
1r
0N
13!
02!
1D!
1*!
1W
0@!
0?!
1+!
1g!
1-!
1.
1.!
#247000
0!
0X
0r
1N
#248000
1!
1X
1r
0N
03!
1U
0D!
0*!
0W
1;!
0+!
#249000
0!
0X
0r
1N
#250000
1!
1X
1r
0N
1<!
0U
0J!
1c
0;!
1;!
1/
#251000
0!
0X
0r
1N
#252000
1!
1X
1r
0N
#253000
0!
0X
0r
1N
#254000
1!
1X
1r
0N
#255000
0!
0X
0r
1N
#256000
1!
1X
1r
0N
#257000
0!
0X
0r
1N
#258000
1!
1X
1r
0N
#259000
0!
0X
0r
1N
#260000
1!
1X
1r
0N
#261000
0!
0X
0r
1N
#262000
1!
1X
1r
0N
#263000
0!
0X
0r
1N
#264000
1!
1X
1r
0N
#265000
0!
0X
0r
1N
#266000
1!
1X
1r
0N
#267000
0!
0X
0r
1N
#268000
1!
1X
1r
0N
#269000
0!
0X
0r
1N
#270000
1!
1X
1r
0N
#271000
0!
0X
0r
1N
#272000
1!
1X
1r
0N
#273000
0!
0X
0r
1N
#274000
1!
1X
1r
0N
#275000
0!
0X
0r
1N
#276000
1!
1X
1r
0N
#277000
0!
0X
0r
1N
#278000
1!
1X
1r
0N
#279000
0!
0X
0r
1N
#280000
1!
1X
1r
0N
#281000
0!
0X
0r
1N
#282000
1!
1X
1r
0N
#283000
0!
0X
0r
1N
#284000
1!
1X
1r
0N
#285000
0!
0X
0r
1N
#286000
1!
1X
1r
0N
#287000
0!
0X
0r
1N
#288000
1!
1X
1r
0N
#289000
0!
0X
0r
1N
#290000
1!
1X
1r
0N
#291000
0!
0X
0r
1N
#292000
1!
1X
1r
0N
#293000
0!
0X
0r
1N
#294000
1!
1X
1r
0N
#295000
0!
0X
0r
1N
#296000
0$
1!
0b
1X
1r
0N
0=!
0c
0;!
#297000
0!
0X
0r
1N
#298000
1!
1X
1r
0N
0>!
0<!
0H!
1?!
1*!
1d
1J!
1e
1+!
0Z!
1k!
1j!
1i!
1l!
1h!
0g!
0/
0x
0-!
17!
0.!
15!
0,!
1o
1l
0<
13
12
11
14
10
0.
#299000
0!
0X
0r
1N
#300000
b11 "
1!
1R!
1X
1r
0N
1Z
1q!
1p!
1o!
1n!
18!
1m
1)
1(
1'
1&
#301000
0!
0X
0r
1N
#302000
1!
1X
1r
0N
1y!
1"!
1L
#303000
0!
0X
0r
1N
#304000
1!
1X
1r
0N
1""
1!"
1~!
1}!
1a!
1`!
1_!
1^!
1C
1B
1A
1@
#305000
0!
0X
0r
1N
#306000
1$
1!
1b
1X
1r
0N
1=!
1V
1W
#307000
0!
0X
0r
1N
#308000
1!
1X
1r
0N
1>!
1U
1H!
0?!
0*!
0d
0V
1/!
0e
0+!
0W
#309000
0!
0X
0r
1N
#310000
1!
1X
1r
0N
11!
0U
0/!
#311000
0!
0X
0r
1N
#312000
1!
1X
1r
0N
12!
01!
1C!
1B!
1A!
1@!
1?!
1w
1V!
1X!
1Y!
1Z!
1W!
0&!
1|
0$!
1z
0"!
1%!
0{
18
1:
1;
1<
19
1'!
0}
1#!
0(!
1~
0)!
1!!
#313000
0!
0X
0r
1N
#314000
1!
1X
1r
0N
13!
02!
19!
0g
0f
1d
1W
0C!
0B!
0A!
0@!
0?!
0w
1e
0l!
0h!
0l
04
00
#315000
0!
0X
0r
1N
#316000
1!
1X
1r
0N
03!
0n!
1U
09!
1g
1f
0d
0W
1/!
0e
0&
#317000
0!
0X
0r
1N
#318000
1!
1X
1r
0N
11!
0U
0/!
#319000
0!
0X
0r
1N
#320000
1!
1X
1r
0N
12!
01!
0}!
0^!
1B!
1A!
1@!
1?!
1w
0@
0V!
08
#321000
0!
0X
0r
1N
#322000
1!
1X
1r
0N
13!
02!
1q
0n
0g
0f
1d
1W
0B!
0A!
0@!
0?!
0w
1e
0i!
1,!
0o
01
#323000
0!
0X
0r
1N
#324000
1!
1X
1r
0N
03!
0o!
1U
0q
1n
1g
1f
0d
0W
08!
1/!
0e
0'
#325000
0!
0X
0r
1N
#326000
1!
1X
1r
0N
11!
0U
0/!
#327000
0!
0X
0r
1N
#328000
1!
1X
1r
0N
12!
01!
0~!
0_!
1B!
1A!
1@!
1?!
0A
0W!
09
#329000
0!
0X
0r
1N
#330000
1!
1X
1r
0N
13!
02!
14!
0p
0n
0g
0f
1d
1W
0B!
0A!
0@!
0?!
1e
0j!
05!
02
#331000
0!
0X
0r
1N
#332000
1!
1X
1r
0N
03!
0p!
1U
04!
1p
1n
1g
1f
0d
0W
1/!
0e
0(
#333000
0!
0X
0r
1N
#334000
1!
1X
1r
0N
11!
0U
0/!
#335000
0!
0X
0r
1N
#336000
1!
1X
1r
0N
12!
01!
0!"
0`!
1A!
1@!
1?!
0B
0X!
0z
0:
1{
0|
1}
0~
0!!
#337000
0!
0X
0r
1N
