COMP3222/WKSpace/Lab11/part2/simulation/qsim/part2.msim.vcd
$comment
	File created using the following command:
		vcd file part2.msim.vcd -direction
$end
$date
	Sat Nov 16 22:41:10 2019
$end
$version
	ModelSim Version 10.1d
$end
$timescale
	1ps
$end
$scope module part2_vlg_vec_tst $end
$var reg 1 ! Clock $end
$var reg 8 " Data [7:0] $end
$var reg 1 # Resetn $end
$var reg 1 $ s $end
$var wire 1 % Addr [4] $end
$var wire 1 & Addr [3] $end
$var wire 1 ' Addr [2] $end
$var wire 1 ( Addr [1] $end
$var wire 1 ) Addr [0] $end
$var wire 1 * Done $end
$var wire 1 + Dref [7] $end
$var wire 1 , Dref [6] $end
$var wire 1 - Dref [5] $end
$var wire 1 . Dref [4] $end
$var wire 1 / Dref [3] $end
$var wire 1 0 Dref [2] $end
$var wire 1 1 Dref [1] $end
$var wire 1 2 Dref [0] $end
$var wire 1 3 Dtar [7] $end
$var wire 1 4 Dtar [6] $end
$var wire 1 5 Dtar [5] $end
$var wire 1 6 Dtar [4] $end
$var wire 1 7 Dtar [3] $end
$var wire 1 8 Dtar [2] $end
$var wire 1 9 Dtar [1] $end
$var wire 1 : Dtar [0] $end
$var wire 1 ; Found $end
$var wire 1 < sampler $end
$scope module i1 $end
$var wire 1 = gnd $end
$var wire 1 > vcc $end
$var wire 1 ? unknown $end
$var tri1 1 @ devclrn $end
$var tri1 1 A devpor $end
$var tri1 1 B devoe $end
$var wire 1 C Selector2~0_combout $end
$var wire 1 D LessThan0~1_combout $end
$var wire 1 E Selector3~0_combout $end
$var wire 1 F Selector1~0_combout $end
$var wire 1 G Selector27~0_combout $end
$var wire 1 H Add1~0_combout $end
$var wire 1 I Selector20~0_combout $end
$var wire 1 J Clock~combout $end
$var wire 1 K ~GND~combout $end
$var wire 1 L Selector21~0_combout $end
$var wire 1 M Selector16~0_combout $end
$var wire 1 N Add0~1_cout $end
$var wire 1 O Add0~3 $end
$var wire 1 P Add0~5 $end
$var wire 1 Q Add0~7 $end
$var wire 1 R Add0~8_combout $end
$var wire 1 S LoadData|Q~8_combout $end
$var wire 1 T Selector3~1_combout $end
$var wire 1 U Resetn~combout $end
$var wire 1 V y.S5~regout $end
$var wire 1 W s~combout $end
$var wire 1 X Selector0~0_combout $end
$var wire 1 Y y.SI~regout $end
$var wire 1 Z LoadData|Q[7]~1_combout $end
$var wire 1 [ LoadData|Q~7_combout $end
$var wire 1 \ LoadData|Q~6_combout $end
$var wire 1 ] LoadData|Q~5_combout $end
$var wire 1 ^ LoadData|Q~4_combout $end
$var wire 1 _ LoadData|Q~3_combout $end
$var wire 1 ` LoadData|Q~2_combout $end
$var wire 1 a LoadData|Q~0_combout $end
$var wire 1 b LessThan2~1_cout $end
$var wire 1 c LessThan2~3_cout $end
$var wire 1 d LessThan2~5_cout $end
$var wire 1 e LessThan2~7_cout $end
$var wire 1 f LessThan2~9_cout $end
$var wire 1 g LessThan2~11_cout $end
$var wire 1 h LessThan2~13_cout $end
$var wire 1 i LessThan2~14_combout $end
$var wire 1 j Selector1~1_combout $end
$var wire 1 k LessThan1~1_cout $end
$var wire 1 l LessThan1~3_cout $end
$var wire 1 m LessThan1~5_cout $end
$var wire 1 n LessThan1~7_cout $end
$var wire 1 o LessThan1~9_cout $end
$var wire 1 p LessThan1~11_cout $end
$var wire 1 q LessThan1~13_cout $end
$var wire 1 r LessThan1~14_combout $end
$var wire 1 s Selector17~0_combout $end
$var wire 1 t Add0~6_combout $end
$var wire 1 u Selector25~0_combout $end
$var wire 1 v Selector23~0_combout $end
$var wire 1 w Selector22~0_combout $end
$var wire 1 x LessThan0~2_combout $end
$var wire 1 y LessThan0~3_combout $end
$var wire 1 z y.S1~regout $end
$var wire 1 { y_next.S2~0_combout $end
$var wire 1 | y.S2~regout $end
$var wire 1 } y.S6~regout $end
$var wire 1 ~ y.S3~regout $end
$var wire 1 !! Selector19~0_combout $end
$var wire 1 "! Add0~4_combout $end
$var wire 1 #! Selector18~0_combout $end
$var wire 1 $! Add0~2_combout $end
$var wire 1 %! Addr~0_combout $end
$var wire 1 &! Addr[0]$latch~combout $end
$var wire 1 '! Addr[1]$latch~combout $end
$var wire 1 (! Addr[2]$latch~combout $end
$var wire 1 )! Addr[3]$latch~combout $end
$var wire 1 *! WideOr5~0_combout $end
$var wire 1 +! Dtar[0]$latch~combout $end
$var wire 1 ,! Dtar[1]$latch~combout $end
$var wire 1 -! Dtar[2]$latch~combout $end
$var wire 1 .! Dtar[3]$latch~combout $end
$var wire 1 /! Dtar[4]$latch~combout $end
$var wire 1 0! Dtar[5]$latch~combout $end
$var wire 1 1! Dtar[6]$latch~combout $end
$var wire 1 2! Dtar[7]$latch~combout $end
$var wire 1 3! Dref[0]$latch~combout $end
$var wire 1 4! Dref[1]$latch~combout $end
$var wire 1 5! Dref[2]$latch~combout $end
$var wire 1 6! Dref[3]$latch~combout $end
$var wire 1 7! Dref[4]$latch~combout $end
$var wire 1 8! Dref[5]$latch~combout $end
$var wire 1 9! Dref[6]$latch~combout $end
$var wire 1 :! Dref[7]$latch~combout $end
$var wire 1 ;! WideOr4~0_combout $end
$var wire 1 <! Found$latch~combout $end
$var wire 1 =! Add2~0_combout $end
$var wire 1 >! Selector26~0_combout $end
$var wire 1 ?! LessThan0~0_combout $end
$var wire 1 @! Selector2~1_combout $end
$var wire 1 A! y.S4~regout $end
$var wire 1 B! Done~0_combout $end
$var wire 1 C! Data~combout [7] $end
$var wire 1 D! Data~combout [6] $end
$var wire 1 E! Data~combout [5] $end
$var wire 1 F! Data~combout [4] $end
$var wire 1 G! Data~combout [3] $end
$var wire 1 H! Data~combout [2] $end
$var wire 1 I! Data~combout [1] $end
$var wire 1 J! Data~combout [0] $end
$var wire 1 K! loadReferent|altsyncram_component|auto_generated|q_a [7] $end
$var wire 1 L! loadReferent|altsyncram_component|auto_generated|q_a [6] $end
$var wire 1 M! loadReferent|altsyncram_component|auto_generated|q_a [5] $end
$var wire 1 N! loadReferent|altsyncram_component|auto_generated|q_a [4] $end
$var wire 1 O! loadReferent|altsyncram_component|auto_generated|q_a [3] $end
$var wire 1 P! loadReferent|altsyncram_component|auto_generated|q_a [2] $end
$var wire 1 Q! loadReferent|altsyncram_component|auto_generated|q_a [1] $end
$var wire 1 R! loadReferent|altsyncram_component|auto_generated|q_a [0] $end
$var wire 1 S! L [4] $end
$var wire 1 T! L [3] $end
$var wire 1 U! L [2] $end
$var wire 1 V! L [1] $end
$var wire 1 W! L [0] $end
$var wire 1 X! sum [4] $end
$var wire 1 Y! sum [3] $end
$var wire 1 Z! sum [2] $end
$var wire 1 [! sum [1] $end
$var wire 1 \! sum [0] $end
$var wire 1 ]! M [4] $end
$var wire 1 ^! M [3] $end
$var wire 1 _! M [2] $end
$var wire 1 `! M [1] $end
$var wire 1 a! M [0] $end
$var wire 1 b! R [4] $end
$var wire 1 c! R [3] $end
$var wire 1 d! R [2] $end
$var wire 1 e! R [1] $end
$var wire 1 f! R [0] $end
$var wire 1 g! LoadData|Q [7] $end
$var wire 1 h! LoadData|Q [6] $end
$var wire 1 i! LoadData|Q [5] $end
$var wire 1 j! LoadData|Q [4] $end
$var wire 1 k! LoadData|Q [3] $end
$var wire 1 l! LoadData|Q [2] $end
$var wire 1 m! LoadData|Q [1] $end
$var wire 1 n! LoadData|Q [0] $end
$var wire 1 o! loadReferent|altsyncram_component|auto_generated|ram_block1a0_PORTADATAOUT_bus [0] $end
$var wire 1 p! loadReferent|altsyncram_component|auto_generated|ram_block1a1_PORTADATAOUT_bus [0] $end
$var wire 1 q! loadReferent|altsyncram_component|auto_generated|ram_block1a2_PORTADATAOUT_bus [0] $end
$var wire 1 r! loadReferent|altsyncram_component|auto_generated|ram_block1a3_PORTADATAOUT_bus [0] $end
$var wire 1 s! loadReferent|altsyncram_component|auto_generated|ram_block1a4_PORTADATAOUT_bus [0] $end
$var wire 1 t! loadReferent|altsyncram_component|auto_generated|ram_block1a5_PORTADATAOUT_bus [0] $end
$var wire 1 u! loadReferent|altsyncram_component|auto_generated|ram_block1a6_PORTADATAOUT_bus [0] $end
$var wire 1 v! loadReferent|altsyncram_component|auto_generated|ram_block1a7_PORTADATAOUT_bus [0] $end
$upscope $end
$upscope $end
$enddefinitions $end
#0
$dumpvars
1!
b0 "
0#
0$
x)
x(
x'
x&
0%
0*
x2
x1
x0
x/
x.
x-
x,
x+
x:
x9
x8
x7
x6
x5
x4
x3
0;
x<
0=
1>
x?
1@
1A
1B
0C
0D
0E
0F
0G
xH
1I
1J
0K
1L
1M
0N
1O
0P
1Q
1R
0S
0T
0U
0V
0W
0X
0Y
1Z
0[
0\
0]
0^
0_
0`
0a
0b
1c
0d
1e
0f
1g
0h
0i
0j
0k
1l
0m
1n
0o
1p
0q
0r
1s
1t
0u
1v
0w
0x
0y
0z
0{
0|
0}
0~
1!!
1"!
1#!
1$!
0%!
x&!
x'!
x(!
x)!
0*!
x+!
x,!
x-!
x.!
x/!
x0!
x1!
x2!
x3!
x4!
x5!
x6!
x7!
x8!
x9!
x:!
0;!
0<!
x=!
0>!
0?!
0@!
0A!
1B!
0J!
0I!
0H!
0G!
0F!
0E!
0D!
0C!
0R!
0Q!
0P!
0O!
0N!
0M!
0L!
0K!
0W!
0V!
0U!
0T!
0S!
z\!
x[!
xZ!
xY!
xX!
xa!
x`!
x_!
x^!
z]!
1f!
1e!
1d!
1c!
1b!
0n!
0m!
0l!
0k!
0j!
0i!
0h!
0g!
0o!
0p!
0q!
0r!
0s!
0t!
0u!
0v!
$end
#1000
0!
0J
0<
#2000
1!
1J
1<
#2901
1#
1U
0<
#3000
0!
0J
1<
#4000
1!
1J
0<
xo!
xp!
xq!
xr!
xs!
xt!
xu!
xv!
xR!
xQ!
xP!
xO!
xN!
xM!
xL!
xK!
xk
xl
xm
xn
xo
xp
xq
xr
#5000
0!
0J
1<
#6000
1$
1!
1W
1J
0<
0Z
1X
1F
1j
1[!
1Z!
1Y!
1X!
1a!
1`!
1_!
1^!
1=!
1&!
1H
1'!
1(!
1)!
1)
1(
1'
1&
#7000
0!
0J
1<
#8000
1!
1J
0<
1z
1Y
1%!
1{
1;!
0v
0s
0F
0j
#9000
0!
0J
1<
#10000
1!
1J
0<
1|
0z
1o!
1p!
1q!
1r!
1s!
0t!
0u!
0v!
1R!
1Q!
1P!
1O!
1N!
0M!
0L!
0K!
1*!
0%!
0{
1k
0l
1m
0n
1o
0:!
09!
08!
17!
16!
15!
14!
13!
02!
01!
00!
0/!
0.!
0-!
0,!
0+!
0p
1q
0+
0,
0-
1.
1/
10
11
12
03
04
05
06
07
08
09
0:
1r
#11000
0!
0J
1<
#12000
1!
1J
0<
1}
0|
#13000
0!
0J
1<
