COMP3222/WKSpace/Lab4/part1Sub/simulation/qsim/syncnt8.msim.vcd
$comment
	File created using the following command:
		vcd file syncnt8.msim.vcd -direction
$end
$date
	Sun Oct 27 22:19:53 2019
$end
$version
	ModelSim Version 10.1d
$end
$timescale
	1ps
$end
$scope module syncnt8_vlg_vec_tst $end
$var reg 1 ! Clear $end
$var reg 1 " Clock $end
$var reg 1 # Enable $end
$var wire 1 $ Cout [7] $end
$var wire 1 % Cout [6] $end
$var wire 1 & Cout [5] $end
$var wire 1 ' Cout [4] $end
$var wire 1 ( Cout [3] $end
$var wire 1 ) Cout [2] $end
$var wire 1 * Cout [1] $end
$var wire 1 + Cout [0] $end
$var wire 1 , sampler $end
$scope module i1 $end
$var wire 1 - gnd $end
$var wire 1 . vcc $end
$var wire 1 / unknown $end
$var tri1 1 0 devclrn $end
$var tri1 1 1 devpor $end
$var tri1 1 2 devoe $end
$var wire 1 3 G1:6:TCounti|outPut~0_combout $end
$var wire 1 4 Clock~combout $end
$var wire 1 5 Clock~clkctrl_outclk $end
$var wire 1 6 Enable~combout $end
$var wire 1 7 TCount0|outPut~0_combout $end
$var wire 1 8 Clear~combout $end
$var wire 1 9 Clear~clkctrl_outclk $end
$var wire 1 : TCount0|outPut~regout $end
$var wire 1 ; G1:1:TCounti|outPut~0_combout $end
$var wire 1 < G1:1:TCounti|outPut~regout $end
$var wire 1 = G1:2:TCounti|outPut~0_combout $end
$var wire 1 > G1:2:TCounti|outPut~regout $end
$var wire 1 ? G1:3:TCounti|outPut~0_combout $end
$var wire 1 @ G1:3:TCounti|outPut~regout $end
$var wire 1 A G1:4:TCounti|outPut~0_combout $end
$var wire 1 B G1:4:TCounti|outPut~regout $end
$var wire 1 C G1:5:TCounti|outPut~0_combout $end
$var wire 1 D G1:5:TCounti|outPut~regout $end
$var wire 1 E G1:6:TCounti|outPut~1_combout $end
$var wire 1 F G1:6:TCounti|outPut~regout $end
$var wire 1 G G1:7:TCounti|outPut~0_combout $end
$var wire 1 H G1:7:TCounti|outPut~1_combout $end
$var wire 1 I G1:7:TCounti|outPut~regout $end
$var wire 1 J Ein [7] $end
$var wire 1 K Ein [6] $end
$var wire 1 L Ein [5] $end
$var wire 1 M Ein [4] $end
$var wire 1 N Ein [3] $end
$var wire 1 O Ein [2] $end
$var wire 1 P Ein [1] $end
$var wire 1 Q Ein [0] $end
$upscope $end
$upscope $end
$enddefinitions $end
#0
$dumpvars
1!
0"
1#
0+
0*
0)
0(
0'
0&
0%
0$
x,
0-
1.
x/
10
11
12
13
04
05
16
17
18
19
0:
0;
0<
0=
0>
0?
0@
0A
0B
0C
0D
0E
0F
1G
0H
0I
zQ
zP
zO
0N
zM
zL
zK
zJ
$end
#3000
1"
14
15
0,
#6000
0"
04
05
1,
#9000
1"
14
15
0,
#12000
0"
04
05
1,
#15000
1"
14
15
0,
#18000
0"
04
05
1,
#21000
1"
14
15
0,
#24000
0"
04
05
1,
#27000
1"
14
15
0,
#30000
0"
04
05
1,
#33000
1"
14
15
0,
#36000
0"
04
05
1,
#39000
1"
14
15
0,
#42000
0"
04
05
1,
#45000
1"
14
15
0,
#48000
0"
04
05
1,
#51000
1"
14
15
0,
#54000
0"
04
05
1,
#57000
1"
14
15
0,
#60000
0"
04
05
1,
#63000
1"
14
15
0,
#66000
0"
04
05
1,
#69000
1"
14
15
0,
#72000
0"
04
05
1,
#75000
1"
14
15
0,
#78000
0"
04
05
1,
#81000
1"
14
15
0,
#84000
0"
04
05
1,
#87000
1"
14
15
0,
#90000
0"
04
05
1,
#93000
1"
14
15
0,
#96000
0"
04
05
1,
#99000
1"
14
15
0,
#100000
0!
08
09
1,
#102000
0"
04
05
0,
#105000
1"
14
15
1,
1:
1;
07
1+
#108000
0"
04
05
0,
#111000
1"
14
15
1,
1<
0:
17
1*
0+
#114000
0"
04
05
0,
#117000
1"
14
15
1,
1:
1=
0;
07
1+
#120000
0"
04
05
0,
#123000
1"
14
15
1,
1>
0<
0:
17
1)
0*
0+
#126000
0"
04
05
0,
#129000
1"
14
15
1,
1:
1;
07
1+
#132000
0"
04
05
0,
#135000
1"
14
15
1,
1<
0:
17
1*
0+
#138000
0"
04
05
0,
#141000
1"
14
15
1,
1:
1N
0=
0;
07
1+
1?
#144000
0"
04
05
0,
#147000
1"
14
15
1,
1@
0>
0<
0:
1A
0?
0N
17
1(
0)
0*
0+
0A
1?
#150000
0"
04
05
0,
#153000
1"
14
15
1,
1:
1;
07
1+
#156000
0"
04
05
0,
#159000
1"
14
15
1,
1<
0:
17
1*
0+
#162000
0"
04
05
0,
#165000
1"
14
15
1,
1:
1=
0;
07
1+
#168000
0"
04
05
0,
#171000
1"
14
15
1,
1>
0<
0:
17
1)
0*
0+
#174000
0"
04
05
0,
#177000
1"
14
15
1,
1:
1;
07
1+
#180000
0"
04
05
0,
#183000
1"
14
15
1,
1<
0:
17
1*
0+
#186000
0"
04
05
0,
#189000
1"
14
15
1,
1:
1N
0=
0;
07
1+
1A
0?
#192000
0"
04
05
0,
#195000
1"
14
15
1,
1B
0@
0>
0<
0:
1?
0N
17
1'
0(
0)
0*
0+
0?
#198000
0"
04
05
0,
#201000
1"
14
15
1,
1:
1;
07
1+
#204000
0"
04
05
0,
#207000
1"
14
15
1,
1<
0:
17
1*
0+
#210000
0"
04
05
0,
#213000
1"
14
15
1,
1:
1=
0;
07
1+
#216000
0"
04
05
0,
#219000
1"
14
15
1,
1>
0<
0:
17
1)
0*
0+
#222000
0"
04
05
0,
#225000
1"
14
15
1,
1:
1;
07
1+
#228000
0"
04
05
0,
#231000
1"
14
15
1,
1<
0:
17
1*
0+
#234000
0"
04
05
0,
#237000
1"
14
15
1,
1:
1N
0=
0;
07
1+
1?
#240000
0"
04
05
0,
#243000
1"
14
15
1,
1@
0>
0<
0:
1C
0A
0?
0N
17
1(
0)
0*
0+
0C
1A
1?
#246000
0"
04
05
0,
#249000
1"
14
15
1,
1:
1;
07
1+
#252000
0"
04
05
0,
#255000
1"
14
15
1,
1<
0:
17
1*
0+
#258000
0"
04
05
0,
#261000
1"
14
15
1,
1:
1=
0;
07
1+
#264000
0"
04
05
0,
#267000
1"
14
15
1,
1>
0<
0:
17
1)
0*
0+
#270000
0"
04
05
0,
#273000
1"
14
15
1,
1:
1;
07
1+
#276000
0"
04
05
0,
#279000
1"
14
15
1,
1<
0:
17
1*
0+
#282000
0"
04
05
0,
#285000
1"
14
15
1,
1:
1N
0=
0;
07
1+
1C
0A
0?
#288000
0"
04
05
0,
#291000
1"
14
15
1,
1D
0B
0@
0>
0<
0:
1?
0N
17
1&
0'
0(
0)
0*
0+
0?
#294000
0"
04
05
0,
#297000
1"
14
15
1,
1:
1;
07
1+
#300000
0"
04
05
0,
#303000
1"
14
15
1,
1<
0:
17
1*
0+
#306000
0"
04
05
0,
#309000
1"
14
15
1,
1:
1=
0;
07
1+
#312000
0"
04
05
0,
#315000
1"
14
15
1,
1>
0<
0:
17
1)
0*
0+
#318000
0"
04
05
0,
#321000
1"
14
15
1,
1:
1;
07
1+
#324000
0"
04
05
0,
#327000
1"
14
15
1,
1<
0:
17
1*
0+
#330000
0"
04
05
0,
#333000
1"
14
15
1,
1:
1N
0=
0;
07
1+
1?
#336000
0"
04
05
0,
#339000
1"
14
15
1,
1@
0>
0<
0:
1A
0?
0N
17
1(
0)
0*
0+
0A
1?
#342000
0"
04
05
0,
#345000
1"
14
15
1,
1:
1;
07
1+
#348000
0"
04
05
0,
#351000
1"
14
15
1,
1<
0:
17
1*
0+
#354000
0"
04
05
0,
#357000
1"
14
15
1,
1:
1=
0;
07
1+
#360000
0"
04
05
0,
#363000
1"
14
15
1,
1>
0<
0:
17
1)
0*
0+
#366000
0"
04
05
0,
#369000
1"
14
15
1,
1:
1;
07
1+
#372000
0"
04
05
0,
#375000
1"
14
15
1,
1<
0:
17
1*
0+
#378000
0"
04
05
0,
#381000
1"
14
15
1,
1:
1N
0=
0;
07
1+
1A
0?
#384000
0"
04
05
0,
#387000
1"
14
15
1,
1B
0@
0>
0<
0:
03
1?
0N
17
1'
0(
0)
0*
0+
0?
#390000
0"
04
05
0,
#393000
1"
14
15
1,
1:
1;
07
1+
#396000
0"
04
05
0,
#399000
1"
14
15
1,
1<
0:
17
1*
0+
#402000
0"
04
05
0,
#405000
1"
14
15
1,
1:
1=
0;
07
1+
#408000
0"
04
05
0,
#411000
1"
14
15
1,
1>
0<
0:
17
1)
0*
0+
#414000
0"
04
05
0,
#417000
1"
14
15
1,
1:
1;
07
1+
#420000
0"
04
05
0,
#423000
1"
14
15
1,
1<
0:
17
1*
0+
#426000
0"
04
05
0,
#429000
1"
14
15
1,
1:
1N
0=
0;
07
1+
1?
#432000
0"
04
05
0,
#435000
1"
14
15
1,
1@
0>
0<
0:
0G
1E
0C
0A
0?
0N
17
1(
0)
0*
0+
0E
1C
1A
1?
#438000
0"
04
05
0,
#441000
1"
14
15
1,
1:
1;
07
1+
#444000
0"
04
05
0,
#447000
1"
14
15
1,
1<
0:
17
1*
0+
#450000
0"
04
05
0,
#453000
1"
14
15
1,
1:
1=
0;
07
1+
#456000
0"
04
05
0,
#459000
1"
14
15
1,
1>
0<
0:
17
1)
0*
0+
#462000
0"
04
05
0,
#465000
1"
14
15
1,
1:
1;
07
1+
#468000
0"
04
05
0,
#471000
1"
14
15
1,
1<
0:
17
1*
0+
#474000
0"
04
05
0,
#477000
1"
14
15
1,
1:
1N
0=
0;
07
1+
1E
0C
0A
0?
#480000
0"
04
05
0,
#483000
1"
14
15
1,
1F
0D
0B
0@
0>
0<
0:
1H
1G
13
1?
0N
17
1%
0&
0'
0(
0)
0*
0+
0H
0?
#486000
0"
04
05
0,
#489000
1"
14
15
1,
1:
1;
07
1+
#492000
0"
04
05
0,
#495000
1"
14
15
1,
1<
0:
17
1*
0+
#498000
0"
04
05
0,
#501000
1"
14
15
1,
1:
1=
0;
07
1+
#504000
0"
04
05
0,
#507000
1"
14
15
1,
1>
0<
0:
17
1)
0*
0+
#510000
0"
04
05
0,
#513000
1"
14
15
1,
1:
1;
07
1+
#516000
0"
04
05
0,
#519000
1"
14
15
1,
1<
0:
17
1*
0+
#522000
0"
04
05
0,
#525000
1"
14
15
1,
1:
1N
0=
0;
07
1+
1?
#528000
0"
04
05
0,
#531000
1"
14
15
1,
1@
0>
0<
0:
1A
0?
0N
17
1(
0)
0*
0+
0A
1?
#534000
0"
04
05
0,
#537000
1"
14
15
1,
1:
1;
07
1+
#540000
0"
04
05
0,
#543000
1"
14
15
1,
1<
0:
17
1*
0+
#546000
0"
04
05
0,
#549000
1"
14
15
1,
1:
1=
0;
07
1+
#552000
0"
04
05
0,
#555000
1"
14
15
1,
1>
0<
0:
17
1)
0*
0+
#558000
0"
04
05
0,
#561000
1"
14
15
1,
1:
1;
07
1+
#564000
0"
04
05
0,
#567000
1"
14
15
1,
1<
0:
17
1*
0+
#570000
0"
04
05
0,
#573000
1"
14
15
1,
1:
1N
0=
0;
07
1+
1A
0?
#576000
0"
04
05
0,
#579000
1"
14
15
1,
1B
0@
0>
0<
0:
1?
0N
17
1'
0(
0)
0*
0+
0?
#582000
0"
04
05
0,
#585000
1"
14
15
1,
1:
1;
07
1+
#588000
0"
04
05
0,
#591000
1"
14
15
1,
1<
0:
17
1*
0+
#594000
0"
04
05
0,
#597000
1"
14
15
1,
1:
1=
0;
07
1+
#600000
0"
04
05
0,
#603000
1"
14
15
1,
1>
0<
0:
17
1)
0*
0+
#606000
0"
04
05
0,
#609000
1"
14
15
1,
1:
1;
07
1+
#612000
0"
04
05
0,
#615000
1"
14
15
1,
1<
0:
17
1*
0+
#618000
0"
04
05
0,
#621000
1"
14
15
1,
1:
1N
0=
0;
07
1+
1?
#624000
0"
04
05
0,
#627000
1"
14
15
1,
1@
0>
0<
0:
1C
0A
0?
0N
17
1(
0)
0*
0+
0C
1A
1?
#630000
0"
04
05
0,
#633000
1"
14
15
1,
1:
1;
07
1+
#636000
0"
04
05
0,
#639000
1"
14
15
1,
1<
0:
17
1*
0+
#642000
0"
04
05
0,
#645000
1"
14
15
1,
1:
1=
0;
07
1+
#648000
0"
04
05
0,
#651000
1"
14
15
1,
1>
0<
0:
17
1)
0*
0+
#654000
0"
04
05
0,
#657000
1"
14
15
1,
1:
1;
07
1+
#660000
0"
04
05
0,
#663000
1"
14
15
1,
1<
0:
17
1*
0+
#666000
0"
04
05
0,
#669000
1"
14
15
1,
1:
1N
0=
0;
07
1+
1C
0A
0?
#672000
0"
04
05
0,
#675000
1"
14
15
1,
1D
0B
0@
0>
0<
0:
1?
0N
17
1&
0'
0(
0)
0*
0+
0?
#678000
0"
04
05
0,
#681000
1"
14
15
1,
1:
1;
07
1+
#684000
0"
04
05
0,
#687000
1"
14
15
1,
1<
0:
17
1*
0+
#690000
0"
04
05
0,
#693000
1"
14
15
1,
1:
1=
0;
07
1+
#696000
0"
04
05
0,
#699000
1"
14
15
1,
1>
0<
0:
17
1)
0*
0+
#702000
0"
04
05
0,
#705000
1"
14
15
1,
1:
1;
07
1+
#708000
0"
04
05
0,
#711000
1"
14
15
1,
1<
0:
17
1*
0+
#714000
0"
04
05
0,
#717000
1"
14
15
1,
1:
1N
0=
0;
07
1+
1?
#720000
0"
04
05
0,
#723000
1"
14
15
1,
1@
0>
0<
0:
1A
0?
0N
17
1(
0)
0*
0+
0A
1?
#726000
0"
04
05
0,
#729000
1"
14
15
1,
1:
1;
07
1+
#732000
0"
04
05
0,
#735000
1"
14
15
1,
1<
0:
17
1*
0+
#738000
0"
04
05
0,
#741000
1"
14
15
1,
1:
1=
0;
07
1+
#744000
0"
04
05
0,
#747000
1"
14
15
1,
1>
0<
0:
17
1)
0*
0+
#750000
0"
04
05
0,
#753000
1"
14
15
1,
1:
1;
07
1+
#756000
0"
04
05
0,
#759000
1"
14
15
1,
1<
0:
17
1*
0+
#762000
0"
04
05
0,
#765000
1"
14
15
1,
1:
1N
0=
0;
07
1+
1A
0?
#768000
0"
04
05
0,
#771000
1"
14
15
1,
1B
0@
0>
0<
0:
03
1?
0N
17
1'
0(
0)
0*
0+
0?
#774000
0"
04
05
0,
#777000
1"
14
15
1,
1:
1;
07
1+
#780000
0"
04
05
0,
#783000
1"
14
15
1,
1<
0:
17
1*
0+
#786000
0"
04
05
0,
#789000
1"
14
15
1,
1:
1=
0;
07
1+
#792000
0"
04
05
0,
#795000
1"
14
15
1,
1>
0<
0:
17
1)
0*
0+
#798000
0"
04
05
0,
#801000
1"
14
15
1,
1:
1;
07
1+
#804000
0"
04
05
0,
#807000
1"
14
15
1,
1<
0:
17
1*
0+
#810000
0"
04
05
0,
#813000
1"
14
15
1,
1:
1N
0=
0;
07
1+
1?
#816000
0"
04
05
0,
#819000
1"
14
15
1,
1@
0>
0<
0:
0G
0E
0C
0A
0?
0N
17
1(
0)
0*
0+
1E
1C
1A
1?
#822000
0"
04
05
0,
#825000
1"
14
15
1,
1:
1;
07
1+
#828000
0"
04
05
0,
#831000
1"
14
15
1,
1<
0:
17
1*
0+
#834000
0"
04
05
0,
#837000
1"
14
15
1,
1:
1=
0;
07
1+
#840000
0"
04
05
0,
#843000
1"
14
15
1,
1>
0<
0:
17
1)
0*
0+
#846000
0"
04
05
0,
#849000
1"
14
15
1,
1:
1;
07
1+
#852000
0"
04
05
0,
#855000
1"
14
15
1,
1<
0:
17
1*
0+
#858000
0"
04
05
0,
#861000
1"
14
15
1,
1:
1N
0=
0;
07
1+
1H
0E
0C
0A
0?
#864000
0"
04
05
0,
#867000
1"
14
15
1,
1I
0F
0D
0B
0@
0>
0<
0:
1G
13
1?
0N
17
1$
0%
0&
0'
0(
0)
0*
0+
0?
#870000
0"
04
05
0,
#873000
1"
14
15
1,
1:
1;
07
1+
#876000
0"
04
05
0,
#879000
1"
14
15
1,
1<
0:
17
1*
0+
#882000
0"
04
05
0,
#885000
1"
14
15
1,
1:
1=
0;
07
1+
#888000
0"
04
05
0,
#891000
1"
14
15
1,
1>
0<
0:
17
1)
0*
0+
#894000
0"
04
05
0,
#897000
1"
14
15
1,
1:
1;
07
1+
#900000
0"
04
05
0,
#903000
1"
14
15
1,
1<
0:
17
1*
0+
#906000
0"
04
05
0,
#909000
1"
14
15
1,
1:
1N
0=
0;
07
1+
1?
#912000
0"
04
05
0,
#915000
1"
14
15
1,
1@
0>
0<
0:
1A
0?
0N
17
1(
0)
0*
0+
0A
1?
#918000
0"
04
05
0,
#921000
1"
14
15
1,
1:
1;
07
1+
#924000
0"
04
05
0,
#927000
1"
14
15
1,
1<
0:
17
1*
0+
#930000
0"
04
05
0,
#933000
1"
14
15
1,
1:
1=
0;
07
1+
#936000
0"
04
05
0,
#939000
1"
14
15
1,
1>
0<
0:
17
1)
0*
0+
#942000
0"
04
05
0,
#945000
1"
14
15
1,
1:
1;
07
1+
#948000
0"
04
05
0,
#951000
1"
14
15
1,
1<
0:
17
1*
0+
#954000
0"
04
05
0,
#957000
1"
14
15
1,
1:
1N
0=
0;
07
1+
1A
0?
#960000
0"
04
05
0,
#963000
1"
14
15
1,
1B
0@
0>
0<
0:
1?
0N
17
1'
0(
0)
0*
0+
0?
#966000
0"
04
05
0,
#969000
1"
14
15
1,
1:
1;
07
1+
#972000
0"
04
05
0,
#975000
1"
14
15
1,
1<
0:
17
1*
0+
#978000
0"
04
05
0,
#981000
1"
14
15
1,
1:
1=
0;
07
1+
#984000
0"
04
05
0,
#987000
1"
14
15
1,
1>
0<
0:
17
1)
0*
0+
#990000
0"
04
05
0,
#993000
1"
14
15
1,
1:
1;
07
1+
#996000
0"
04
05
0,
#999000
1"
14
15
1,
1<
0:
17
1*
0+
