COMP3222/WKSpace/Lab4/part1Sub/simulation/qsim/syncnt8.msim.vcd
$comment
	File created using the following command:
		vcd file syncnt8.msim.vcd -direction
$end
$date
	Sat Oct 19 12:46:25 2019
$end
$version
	ModelSim Version 10.1d
$end
$timescale
	1ps
$end
$scope module syncnt8_vlg_vec_tst $end
$var reg 1 ! Clear $end
$var reg 1 " Clock $end
$var reg 1 # Enable $end
$var wire 1 $ Cout [7] $end
$var wire 1 % Cout [6] $end
$var wire 1 & Cout [5] $end
$var wire 1 ' Cout [4] $end
$var wire 1 ( Cout [3] $end
$var wire 1 ) Cout [2] $end
$var wire 1 * Cout [1] $end
$var wire 1 + Cout [0] $end
$var wire 1 , sampler $end
$scope module i1 $end
$var wire 1 - gnd $end
$var wire 1 . vcc $end
$var wire 1 / unknown $end
$var tri1 1 0 devclrn $end
$var tri1 1 1 devpor $end
$var tri1 1 2 devoe $end
$var wire 1 3 G1:6:TCounti|Resv~0_combout $end
$var wire 1 4 Clock~combout $end
$var wire 1 5 Clock~clkctrl_outclk $end
$var wire 1 6 Enable~combout $end
$var wire 1 7 TCount0|Resv~0_combout $end
$var wire 1 8 Clear~combout $end
$var wire 1 9 Clear~clkctrl_outclk $end
$var wire 1 : TCount0|Resv~regout $end
$var wire 1 ; G1:1:TCounti|Resv~0_combout $end
$var wire 1 < G1:1:TCounti|Resv~regout $end
$var wire 1 = G1:2:TCounti|Resv~0_combout $end
$var wire 1 > G1:2:TCounti|Resv~regout $end
$var wire 1 ? G1:3:TCounti|Resv~0_combout $end
$var wire 1 @ G1:3:TCounti|Resv~regout $end
$var wire 1 A G1:4:TCounti|Resv~0_combout $end
$var wire 1 B G1:4:TCounti|Resv~regout $end
$var wire 1 C G1:5:TCounti|Resv~0_combout $end
$var wire 1 D G1:5:TCounti|Resv~regout $end
$var wire 1 E G1:6:TCounti|Resv~1_combout $end
$var wire 1 F G1:6:TCounti|Resv~regout $end
$var wire 1 G G1:7:TCounti|Resv~0_combout $end
$var wire 1 H G1:7:TCounti|Resv~1_combout $end
$var wire 1 I G1:7:TCounti|Resv~regout $end
$var wire 1 J Ein [7] $end
$var wire 1 K Ein [6] $end
$var wire 1 L Ein [5] $end
$var wire 1 M Ein [4] $end
$var wire 1 N Ein [3] $end
$var wire 1 O Ein [2] $end
$var wire 1 P Ein [1] $end
$var wire 1 Q Ein [0] $end
$upscope $end
$upscope $end
$enddefinitions $end
#0
$dumpvars
1!
0"
1#
x+
x*
x)
x(
x'
x&
x%
x$
x,
0-
1.
x/
10
11
12
x3
04
x5
16
x7
18
x9
x:
x;
x<
x=
x>
x?
x@
xA
xB
xC
xD
xE
xF
xG
xH
xI
zQ
zP
zO
xN
zM
zL
zK
zJ
$end
#232
19
#238
05
#243
0I
0:
0<
0>
0@
0B
0D
0F
#789
1G
#954
13
#1025
0;
#1096
0N
#1133
0=
#1170
0H
#1178
0A
#1368
0C
#1369
0E
#1589
0?
#3000
1"
0,
#3662
0'
#3667
0&
#3910
0*
#3917
0+
#3991
0%
#4004
0$
#4005
0)
#4026
0(
14
#4264
15
#5300
17
#6000
0"
1,
#7026
04
#7264
05
#9000
1"
0,
#10026
14
#10264
15
#12000
0"
1,
#13026
04
#13264
05
#15000
1"
0,
#16026
14
#16264
15
#18000
0"
1,
#19026
04
#19264
05
#21000
1"
0,
#22026
14
#22264
15
#24000
0"
1,
#25026
04
#25264
05
#27000
1"
0,
#28026
14
#28264
15
#30000
0"
1,
#31026
04
#31264
05
#33000
1"
0,
#34026
14
#34264
15
#36000
0"
1,
#37026
04
#37264
05
#39000
1"
0,
#40026
14
#40264
15
#42000
0"
1,
#43026
04
#43264
05
#45000
1"
0,
#46026
14
#46264
15
#48000
0"
1,
#49026
04
#49264
05
#51000
1"
0,
#52026
14
#52264
15
#54000
0"
1,
#55026
04
#55264
05
#57000
1"
0,
#58026
14
#58264
15
#60000
0"
1,
#61026
04
#61264
05
#63000
1"
0,
#64026
14
#64264
15
#66000
0"
1,
#67026
04
#67264
05
#69000
1"
0,
#70026
14
#70264
15
#72000
0"
1,
#73026
04
#73264
05
#75000
1"
0,
#76026
14
#76264
15
#78000
0"
1,
#79026
04
#79264
05
#81000
1"
0,
#82026
14
#82264
15
#84000
0"
1,
#85026
04
#85264
05
#87000
1"
0,
#88026
14
#88264
15
#90000
0"
1,
#91026
04
#91264
05
#93000
1"
0,
#94026
14
#94264
15
#96000
0"
1,
#97026
04
#97264
05
#99000
1"
0,
#100000
0!
1,
#100026
14
#100264
15
#101026
08
#101258
09
#102000
0"
0,
#103026
04
#103264
05
#105000
1"
1,
#106026
14
#106264
15
#108000
0"
0,
#108127
1:
#108485
07
#108909
1;
#109026
04
#109264
05
#111000
1"
1,
#111801
1+
#112026
14
#112264
15
#114000
0"
0,
#114127
0:
1<
#114485
0;
17
#114909
1;
#115026
04
#115264
05
#117000
1"
1,
#117794
1*
#117801
0+
#118026
14
#118264
15
#120000
0"
0,
#120127
1:
#120485
07
#120909
0;
#120910
1=
#121026
04
#121264
05
#123000
1"
1,
#123801
1+
#124026
14
#124264
15
#126000
0"
0,
#126127
0:
0<
1>
#126485
0=
1;
17
#126909
0;
#127017
1=
#127026
04
#127264
05
#129000
1"
1,
#129794
0*
#129801
0+
#129889
1)
#130026
14
#130264
15
#132000
0"
0,
#132127
1:
#132485
07
#132909
1;
#133026
04
#133264
05
#135000
1"
1,
#135801
1+
#136026
14
#136264
15
#138000
0"
0,
#138127
0:
1<
#138485
0;
17
#138909
1;
#139026
04
#139264
05
#141000
1"
1,
#141794
1*
#141801
0+
#142026
14
#142264
15
#144000
0"
0,
#144127
1:
#144485
07
#144820
1N
#144909
0;
#144910
0=
#145026
04
#145264
05
#145313
1?
#147000
1"
1,
#147801
1+
#148026
14
#148264
15
#150000
0"
0,
#150127
0:
0<
0>
1@
#150485
0?
1=
1;
17
#150909
0;
#150980
0N
#151017
0=
#151026
04
#151062
1A
#151264
05
#151473
1?
0A
#153000
1"
1,
#153794
0*
#153801
0+
#153889
0)
#153910
1(
#154026
14
#154264
15
#156000
0"
0,
#156127
1:
#156485
07
#156909
1;
#157026
04
#157264
05
#159000
1"
1,
#159801
1+
#160026
14
#160264
15
#162000
0"
0,
#162127
0:
1<
#162485
0;
17
#162909
1;
#163026
04
#163264
05
#165000
1"
1,
#165794
1*
#165801
0+
#166026
14
#166264
15
#168000
0"
0,
#168127
1:
#168485
07
#168909
0;
#168910
1=
#169026
04
#169264
05
#171000
1"
1,
#171801
1+
#172026
14
#172264
15
#174000
0"
0,
#174127
0:
0<
1>
#174485
0=
1;
17
#174909
0;
#175017
1=
#175026
04
#175264
05
#177000
1"
1,
#177794
0*
#177801
0+
#177889
1)
#178026
14
#178264
15
#180000
0"
0,
#180127
1:
#180485
07
#180909
1;
#181026
04
#181264
05
#183000
1"
1,
#183801
1+
#184026
14
#184264
15
#186000
0"
0,
#186127
0:
1<
#186485
0;
17
#186909
1;
#187026
04
#187264
05
#189000
1"
1,
#189794
1*
#189801
0+
#190026
14
#190264
15
#192000
0"
0,
#192127
1:
#192485
07
#192820
1N
#192909
0;
#192910
0=
#193026
04
#193264
05
#193313
0?
1A
#195000
1"
1,
#195801
1+
#196026
14
#196264
15
#198000
0"
0,
#198127
0:
0<
0>
0@
1B
#198485
0A
1?
1=
1;
17
#198909
0;
#198980
0N
#199017
0=
#199026
04
#199062
1A
#199264
05
#199473
0?
#201000
1"
1,
#201546
1'
#201794
0*
#201801
0+
#201889
0)
#201910
0(
#202026
14
#202264
15
#204000
0"
0,
#204127
1:
#204485
07
#204909
1;
#205026
04
#205264
05
#207000
1"
1,
#207801
1+
#208026
14
#208264
15
#210000
0"
0,
#210127
0:
1<
#210485
0;
17
#210909
1;
#211026
04
#211264
05
#213000
1"
1,
#213794
1*
#213801
0+
#214026
14
#214264
15
#216000
0"
0,
#216127
1:
#216485
07
#216909
0;
#216910
1=
#217026
04
#217264
05
#219000
1"
1,
#219801
1+
#220026
14
#220264
15
#222000
0"
0,
#222127
0:
0<
1>
#222485
0=
1;
17
#222909
0;
#223017
1=
#223026
04
#223264
05
#225000
1"
1,
#225794
0*
#225801
0+
#225889
1)
#226026
14
#226264
15
#228000
0"
0,
#228127
1:
#228485
07
#228909
1;
#229026
04
#229264
05
#231000
1"
1,
#231801
1+
#232026
14
#232264
15
#234000
0"
0,
#234127
0:
1<
#234485
0;
17
#234909
1;
#235026
04
#235264
05
#237000
1"
1,
#237794
1*
#237801
0+
#238026
14
#238264
15
#240000
0"
0,
#240127
1:
#240485
07
#240820
1N
#240909
0;
#240910
0=
#241026
04
#241264
05
#241313
1?
#243000
1"
1,
#243801
1+
#244026
14
#244264
15
#246000
0"
0,
#246127
0:
0<
0>
1@
#246485
0?
1=
1;
17
#246909
0;
#246980
0N
#247017
0=
#247026
04
#247062
0A
#247252
1C
#247264
05
#247473
1?
1A
#247476
0C
#249000
1"
1,
#249794
0*
#249801
0+
#249889
0)
#249910
1(
#250026
14
#250264
15
#252000
0"
0,
#252127
1:
#252485
07
#252909
1;
#253026
04
#253264
05
#255000
1"
1,
#255801
1+
#256026
14
#256264
15
#258000
0"
0,
#258127
0:
1<
#258485
0;
17
#258909
1;
#259026
04
#259264
05
#261000
1"
1,
#261794
1*
#261801
0+
#262026
14
#262264
15
#264000
0"
0,
#264127
1:
#264485
07
#264909
0;
#264910
1=
#265026
04
#265264
05
#267000
1"
1,
#267801
1+
#268026
14
#268264
15
#270000
0"
0,
#270127
0:
0<
1>
#270485
0=
1;
17
#270909
0;
#271017
1=
#271026
04
#271264
05
#273000
1"
1,
#273794
0*
#273801
0+
#273889
1)
#274026
14
#274264
15
#276000
0"
0,
#276127
1:
#276485
07
#276909
1;
#277026
04
#277264
05
#279000
1"
1,
#279801
1+
#280026
14
#280264
15
#282000
0"
0,
#282127
0:
1<
#282485
0;
17
#282909
1;
#283026
04
#283264
05
#285000
1"
1,
#285794
1*
#285801
0+
#286026
14
#286264
15
#288000
0"
0,
#288127
1:
#288485
07
#288820
1N
#288909
0;
#288910
0=
#289026
04
#289264
05
#289313
0?
0A
#289316
1C
#291000
1"
1,
#291801
1+
#292026
14
#292264
15
#294000
0"
0,
#294127
0:
0<
0>
0@
0B
1D
#294485
0C
1A
1?
1=
1;
17
#294909
0;
#294980
0N
#295017
0=
#295026
04
#295062
0A
#295252
1C
#295264
05
#295473
0?
#297000
1"
1,
#297546
0'
#297551
1&
#297794
0*
#297801
0+
#297889
0)
#297910
0(
#298026
14
#298264
15
#300000
0"
0,
#300127
1:
#300485
07
#300909
1;
#301026
04
#301264
05
#303000
1"
1,
#303801
1+
#304026
14
#304264
15
#306000
0"
0,
#306127
0:
1<
#306485
0;
17
#306909
1;
#307026
04
#307264
05
#309000
1"
1,
#309794
1*
#309801
0+
#310026
14
#310264
15
#312000
0"
0,
#312127
1:
#312485
07
#312909
0;
#312910
1=
#313026
04
#313264
05
#315000
1"
1,
#315801
1+
#316026
14
#316264
15
#318000
0"
0,
#318127
0:
0<
1>
#318485
0=
1;
17
#318909
0;
#319017
1=
#319026
04
#319264
05
#321000
1"
1,
#321794
0*
#321801
0+
#321889
1)
#322026
14
#322264
15
#324000
0"
0,
#324127
1:
#324485
07
#324909
1;
#325026
04
#325264
05
#327000
1"
1,
#327801
1+
#328026
14
#328264
15
#330000
0"
0,
#330127
0:
1<
#330485
0;
17
#330909
1;
#331026
04
#331264
05
#333000
1"
1,
#333794
1*
#333801
0+
#334026
14
#334264
15
#336000
0"
0,
#336127
1:
#336485
07
#336820
1N
#336909
0;
#336910
0=
#337026
04
#337264
05
#337313
1?
#339000
1"
1,
#339801
1+
#340026
14
#340264
15
#342000
0"
0,
#342127
0:
0<
0>
1@
#342485
0?
1=
1;
17
#342909
0;
#342980
0N
#343017
0=
#343026
04
#343062
1A
#343264
05
#343473
1?
0A
#345000
1"
1,
#345794
0*
#345801
0+
#345889
0)
#345910
1(
#346026
14
#346264
15
#348000
0"
0,
#348127
1:
#348485
07
#348909
1;
#349026
04
#349264
05
#351000
1"
1,
#351801
1+
#352026
14
#352264
15
#354000
0"
0,
#354127
0:
1<
#354485
0;
17
#354909
1;
#355026
04
#355264
05
#357000
1"
1,
#357794
1*
#357801
0+
#358026
14
#358264
15
#360000
0"
0,
#360127
1:
#360485
07
#360909
0;
#360910
1=
#361026
04
#361264
05
#363000
1"
1,
#363801
1+
#364026
14
#364264
15
#366000
0"
0,
#366127
0:
0<
1>
#366485
0=
1;
17
#366909
0;
#367017
1=
#367026
04
#367264
05
#369000
1"
1,
#369794
0*
#369801
0+
#369889
1)
#370026
14
#370264
15
#372000
0"
0,
#372127
1:
#372485
07
#372909
1;
#373026
04
#373264
05
#375000
1"
1,
#375801
1+
#376026
14
#376264
15
#378000
0"
0,
#378127
0:
1<
#378485
0;
17
#378909
1;
#379026
04
#379264
05
#381000
1"
1,
#381794
1*
#381801
0+
#382026
14
#382264
15
#384000
0"
0,
#384127
1:
#384485
07
#384820
1N
#384909
0;
#384910
0=
#385026
04
#385264
05
#385313
0?
1A
#387000
1"
1,
#387801
1+
#388026
14
#388264
15
#390000
0"
0,
#390127
0:
0<
0>
0@
1B
#390485
0A
1?
1=
1;
17
#390838
03
#390909
0;
#390980
0N
#391017
0=
#391026
04
#391062
1A
#391264
05
#391473
0?
#393000
1"
1,
#393546
1'
#393794
0*
#393801
0+
#393889
0)
#393910
0(
#394026
14
#394264
15
#396000
0"
0,
#396127
1:
#396485
07
#396909
1;
#397026
04
#397264
05
#399000
1"
1,
#399801
1+
#400026
14
#400264
15
#402000
0"
0,
#402127
0:
1<
#402485
0;
17
#402909
1;
#403026
04
#403264
05
#405000
1"
1,
#405794
1*
#405801
0+
#406026
14
#406264
15
#408000
0"
0,
#408127
1:
#408485
07
#408909
0;
#408910
1=
#409026
04
#409264
05
#411000
1"
1,
#411801
1+
#412026
14
#412264
15
#414000
0"
0,
#414127
0:
0<
1>
#414485
0=
1;
17
#414909
0;
#415017
1=
#415026
04
#415264
05
#417000
1"
1,
#417794
0*
#417801
0+
#417889
1)
#418026
14
#418264
15
#420000
0"
0,
#420127
1:
#420485
07
#420909
1;
#421026
04
#421264
05
#423000
1"
1,
#423801
1+
#424026
14
#424264
15
#426000
0"
0,
#426127
0:
1<
#426485
0;
17
#426909
1;
#427026
04
#427264
05
#429000
1"
1,
#429794
1*
#429801
0+
#430026
14
#430264
15
#432000
0"
0,
#432127
1:
#432485
07
#432820
1N
#432909
0;
#432910
0=
#433026
04
#433264
05
#433313
1?
#435000
1"
1,
#435801
1+
#436026
14
#436264
15
#438000
0"
0,
#438127
0:
0<
0>
1@
#438485
0?
1=
1;
17
#438673
0G
#438909
0;
#438980
0N
#439017
0=
#439026
04
#439062
0A
#439252
0C
#439253
1E
#439264
05
#439473
1?
1A
#439476
1C
#439479
0E
#441000
1"
1,
#441794
0*
#441801
0+
#441889
0)
#441910
1(
#442026
14
#442264
15
#444000
0"
0,
#444127
1:
#444485
07
#444909
1;
#445026
04
#445264
05
#447000
1"
1,
#447801
1+
#448026
14
#448264
15
#450000
0"
0,
#450127
0:
1<
#450485
0;
17
#450909
1;
#451026
04
#451264
05
#453000
1"
1,
#453794
1*
#453801
0+
#454026
14
#454264
15
#456000
0"
0,
#456127
1:
#456485
07
#456909
0;
#456910
1=
#457026
04
#457264
05
#459000
1"
1,
#459801
1+
#460026
14
#460264
15
#462000
0"
0,
#462127
0:
0<
1>
#462485
0=
1;
17
#462909
0;
#463017
1=
#463026
04
#463264
05
#465000
1"
1,
#465794
0*
#465801
0+
#465889
1)
#466026
14
#466264
15
#468000
0"
0,
#468127
1:
#468485
07
#468909
1;
#469026
04
#469264
05
#471000
1"
1,
#471801
1+
#472026
14
#472264
15
#474000
0"
0,
#474127
0:
1<
#474485
0;
17
#474909
1;
#475026
04
#475264
05
#477000
1"
1,
#477794
1*
#477801
0+
#478026
14
#478264
15
#480000
0"
0,
#480127
1:
#480485
07
#480820
1N
#480909
0;
#480910
0=
#481026
04
#481264
05
#481313
0?
0A
#481316
0C
#481319
1E
#483000
1"
1,
#483801
1+
#484026
14
#484264
15
#486000
0"
0,
#486127
0:
0<
0>
0@
0B
0D
1F
#486485
0E
1C
1A
1?
1=
1;
17
#486673
1G
#486838
13
#486909
0;
#486980
0N
#487017
0=
#487026
04
#487062
0A
#487252
0C
#487253
1E
#487264
05
#487473
0?
#489000
1"
1,
#489546
0'
#489551
0&
#489794
0*
#489801
0+
#489875
1%
#489889
0)
#489910
0(
#490026
14
#490264
15
#492000
0"
0,
#492127
1:
#492485
07
#492909
1;
#493026
04
#493264
05
#495000
1"
1,
#495801
1+
#496026
14
#496264
15
#498000
0"
0,
#498127
0:
1<
#498485
0;
17
#498909
1;
#499026
04
#499264
05
#501000
1"
1,
#501794
1*
#501801
0+
#502026
14
#502264
15
#504000
0"
0,
#504127
1:
#504485
07
#504909
0;
#504910
1=
#505026
04
#505264
05
#507000
1"
1,
#507801
1+
#508026
14
#508264
15
#510000
0"
0,
#510127
0:
0<
1>
#510485
0=
1;
17
#510909
0;
#511017
1=
#511026
04
#511264
05
#513000
1"
1,
#513794
0*
#513801
0+
#513889
1)
#514026
14
#514264
15
#516000
0"
0,
#516127
1:
#516485
07
#516909
1;
#517026
04
#517264
05
#519000
1"
1,
#519801
1+
#520026
14
#520264
15
#522000
0"
0,
#522127
0:
1<
#522485
0;
17
#522909
1;
#523026
04
#523264
05
#525000
1"
1,
#525794
1*
#525801
0+
#526026
14
#526264
15
#528000
0"
0,
#528127
1:
#528485
07
#528820
1N
#528909
0;
#528910
0=
#529026
04
#529264
05
#529313
1?
#531000
1"
1,
#531801
1+
#532026
14
#532264
15
#534000
0"
0,
#534127
0:
0<
0>
1@
#534485
0?
1=
1;
17
#534909
0;
#534980
0N
#535017
0=
#535026
04
#535062
1A
#535264
05
#535473
1?
0A
#537000
1"
1,
#537794
0*
#537801
0+
#537889
0)
#537910
1(
#538026
14
#538264
15
#540000
0"
0,
#540127
1:
#540485
07
#540909
1;
#541026
04
#541264
05
#543000
1"
1,
#543801
1+
#544026
14
#544264
15
#546000
0"
0,
#546127
0:
1<
#546485
0;
17
#546909
1;
#547026
04
#547264
05
#549000
1"
1,
#549794
1*
#549801
0+
#550026
14
#550264
15
#552000
0"
0,
#552127
1:
#552485
07
#552909
0;
#552910
1=
#553026
04
#553264
05
#555000
1"
1,
#555801
1+
#556026
14
#556264
15
#558000
0"
0,
#558127
0:
0<
1>
#558485
0=
1;
17
#558909
0;
#559017
1=
#559026
04
#559264
05
#561000
1"
1,
#561794
0*
#561801
0+
#561889
1)
#562026
14
#562264
15
#564000
0"
0,
#564127
1:
#564485
07
#564909
1;
#565026
04
#565264
05
#567000
1"
1,
#567801
1+
#568026
14
#568264
15
#570000
0"
0,
#570127
0:
1<
#570485
0;
17
#570909
1;
#571026
04
#571264
05
#573000
1"
1,
#573794
1*
#573801
0+
#574026
14
#574264
15
#576000
0"
0,
#576127
1:
#576485
07
#576820
1N
#576909
0;
#576910
0=
#577026
04
#577264
05
#577313
0?
1A
#579000
1"
1,
#579801
1+
#580026
14
#580264
15
#582000
0"
0,
#582127
0:
0<
0>
0@
1B
#582485
0A
1?
1=
1;
17
#582909
0;
#582980
0N
#583017
0=
#583026
04
#583062
1A
#583264
05
#583473
0?
#585000
1"
1,
#585546
1'
#585794
0*
#585801
0+
#585889
0)
#585910
0(
#586026
14
#586264
15
#588000
0"
0,
#588127
1:
#588485
07
#588909
1;
#589026
04
#589264
05
#591000
1"
1,
#591801
1+
#592026
14
#592264
15
#594000
0"
0,
#594127
0:
1<
#594485
0;
17
#594909
1;
#595026
04
#595264
05
#597000
1"
1,
#597794
1*
#597801
0+
#598026
14
#598264
15
#600000
0"
0,
#600127
1:
#600485
07
#600909
0;
#600910
1=
#601026
04
#601264
05
#603000
1"
1,
#603801
1+
#604026
14
#604264
15
#606000
0"
0,
#606127
0:
0<
1>
#606485
0=
1;
17
#606909
0;
#607017
1=
#607026
04
#607264
05
#609000
1"
1,
#609794
0*
#609801
0+
#609889
1)
#610026
14
#610264
15
#612000
0"
0,
#612127
1:
#612485
07
#612909
1;
#613026
04
#613264
05
#615000
1"
1,
#615801
1+
#616026
14
#616264
15
#618000
0"
0,
#618127
0:
1<
#618485
0;
17
#618909
1;
#619026
04
#619264
05
#621000
1"
1,
#621794
1*
#621801
0+
#622026
14
#622264
15
#624000
0"
0,
#624127
1:
#624485
07
#624820
1N
#624909
0;
#624910
0=
#625026
04
#625264
05
#625313
1?
#627000
1"
1,
#627801
1+
#628026
14
#628264
15
#630000
0"
0,
#630127
0:
0<
0>
1@
#630485
0?
1=
1;
17
#630909
0;
#630980
0N
#631017
0=
#631026
04
#631062
0A
#631252
1C
#631264
05
#631473
1?
1A
#631476
0C
#633000
1"
1,
#633794
0*
#633801
0+
#633889
0)
#633910
1(
#634026
14
#634264
15
#636000
0"
0,
#636127
1:
#636485
07
#636909
1;
#637026
04
#637264
05
#639000
1"
1,
#639801
1+
#640026
14
#640264
15
#642000
0"
0,
#642127
0:
1<
#642485
0;
17
#642909
1;
#643026
04
#643264
05
#645000
1"
1,
#645794
1*
#645801
0+
#646026
14
#646264
15
#648000
0"
0,
#648127
1:
#648485
07
#648909
0;
#648910
1=
#649026
04
#649264
05
#651000
1"
1,
#651801
1+
#652026
14
#652264
15
#654000
0"
0,
#654127
0:
0<
1>
#654485
0=
1;
17
#654909
0;
#655017
1=
#655026
04
#655264
05
#657000
1"
1,
#657794
0*
#657801
0+
#657889
1)
#658026
14
#658264
15
#660000
0"
0,
#660127
1:
#660485
07
#660909
1;
#661026
04
#661264
05
#663000
1"
1,
#663801
1+
#664026
14
#664264
15
#666000
0"
0,
#666127
0:
1<
#666485
0;
17
#666909
1;
#667026
04
#667264
05
#669000
1"
1,
#669794
1*
#669801
0+
#670026
14
#670264
15
#672000
0"
0,
#672127
1:
#672485
07
#672820
1N
#672909
0;
#672910
0=
#673026
04
#673264
05
#673313
0?
0A
#673316
1C
#675000
1"
1,
#675801
1+
#676026
14
#676264
15
#678000
0"
0,
#678127
0:
0<
0>
0@
0B
1D
#678485
0C
1A
1?
1=
1;
17
#678909
0;
#678980
0N
#679017
0=
#679026
04
#679062
0A
#679252
1C
#679264
05
#679473
0?
#681000
1"
1,
#681546
0'
#681551
1&
#681794
0*
#681801
0+
#681889
0)
#681910
0(
#682026
14
#682264
15
#684000
0"
0,
#684127
1:
#684485
07
#684909
1;
#685026
04
#685264
05
#687000
1"
1,
#687801
1+
#688026
14
#688264
15
#690000
0"
0,
#690127
0:
1<
#690485
0;
17
#690909
1;
#691026
04
#691264
05
#693000
1"
1,
#693794
1*
#693801
0+
#694026
14
#694264
15
#696000
0"
0,
#696127
1:
#696485
07
#696909
0;
#696910
1=
#697026
04
#697264
05
#699000
1"
1,
#699801
1+
#700026
14
#700264
15
#702000
0"
0,
#702127
0:
0<
1>
#702485
0=
1;
17
#702909
0;
#703017
1=
#703026
04
#703264
05
#705000
1"
1,
#705794
0*
#705801
0+
#705889
1)
#706026
14
#706264
15
#708000
0"
0,
#708127
1:
#708485
07
#708909
1;
#709026
04
#709264
05
#711000
1"
1,
#711801
1+
#712026
14
#712264
15
#714000
0"
0,
#714127
0:
1<
#714485
0;
17
#714909
1;
#715026
04
#715264
05
#717000
1"
1,
#717794
1*
#717801
0+
#718026
14
#718264
15
#720000
0"
0,
#720127
1:
#720485
07
#720820
1N
#720909
0;
#720910
0=
#721026
04
#721264
05
#721313
1?
#723000
1"
1,
#723801
1+
#724026
14
#724264
15
#726000
0"
0,
#726127
0:
0<
0>
1@
#726485
0?
1=
1;
17
#726909
0;
#726980
0N
#727017
0=
#727026
04
#727062
1A
#727264
05
#727473
1?
0A
#729000
1"
1,
#729794
0*
#729801
0+
#729889
0)
#729910
1(
#730026
14
#730264
15
#732000
0"
0,
#732127
1:
#732485
07
#732909
1;
#733026
04
#733264
05
#735000
1"
1,
#735801
1+
#736026
14
#736264
15
#738000
0"
0,
#738127
0:
1<
#738485
0;
17
#738909
1;
#739026
04
#739264
05
#741000
1"
1,
#741794
1*
#741801
0+
#742026
14
#742264
15
#744000
0"
0,
#744127
1:
#744485
07
#744909
0;
#744910
1=
#745026
04
#745264
05
#747000
1"
1,
#747801
1+
#748026
14
#748264
15
#750000
0"
0,
#750127
0:
0<
1>
#750485
0=
1;
17
#750909
0;
#751017
1=
#751026
04
#751264
05
#753000
1"
1,
#753794
0*
#753801
0+
#753889
1)
#754026
14
#754264
15
#756000
0"
0,
#756127
1:
#756485
07
#756909
1;
#757026
04
#757264
05
#759000
1"
1,
#759801
1+
#760026
14
#760264
15
#762000
0"
0,
#762127
0:
1<
#762485
0;
17
#762909
1;
#763026
04
#763264
05
#765000
1"
1,
#765794
1*
#765801
0+
#766026
14
#766264
15
#768000
0"
0,
#768127
1:
#768485
07
#768820
1N
#768909
0;
#768910
0=
#769026
04
#769264
05
#769313
0?
1A
#771000
1"
1,
#771801
1+
#772026
14
#772264
15
#774000
0"
0,
#774127
0:
0<
0>
0@
1B
#774485
0A
1?
1=
1;
17
#774838
03
#774909
0;
#774980
0N
#775017
0=
#775026
04
#775062
1A
#775264
05
#775473
0?
#777000
1"
1,
#777546
1'
#777794
0*
#777801
0+
#777889
0)
#777910
0(
#778026
14
#778264
15
#780000
0"
0,
#780127
1:
#780485
07
#780909
1;
#781026
04
#781264
05
#783000
1"
1,
#783801
1+
#784026
14
#784264
15
#786000
0"
0,
#786127
0:
1<
#786485
0;
17
#786909
1;
#787026
04
#787264
05
#789000
1"
1,
#789794
1*
#789801
0+
#790026
14
#790264
15
#792000
0"
0,
#792127
1:
#792485
07
#792909
0;
#792910
1=
#793026
04
#793264
05
#795000
1"
1,
#795801
1+
#796026
14
#796264
15
#798000
0"
0,
#798127
0:
0<
1>
#798485
0=
1;
17
#798909
0;
#799017
1=
#799026
04
#799264
05
#801000
1"
1,
#801794
0*
#801801
0+
#801889
1)
#802026
14
#802264
15
#804000
0"
0,
#804127
1:
#804485
07
#804909
1;
#805026
04
#805264
05
#807000
1"
1,
#807801
1+
#808026
14
#808264
15
#810000
0"
0,
#810127
0:
1<
#810485
0;
17
#810909
1;
#811026
04
#811264
05
#813000
1"
1,
#813794
1*
#813801
0+
#814026
14
#814264
15
#816000
0"
0,
#816127
1:
#816485
07
#816820
1N
#816909
0;
#816910
0=
#817026
04
#817264
05
#817313
1?
#819000
1"
1,
#819801
1+
#820026
14
#820264
15
#822000
0"
0,
#822127
0:
0<
0>
1@
#822485
0?
1=
1;
17
#822673
0G
#822909
0;
#822980
0N
#823017
0=
#823026
04
#823062
0A
#823252
0C
#823253
0E
#823264
05
#823473
1?
1A
#823476
1C
#823479
1E
#825000
1"
1,
#825794
0*
#825801
0+
#825889
0)
#825910
1(
#826026
14
#826264
15
#828000
0"
0,
#828127
1:
#828485
07
#828909
1;
#829026
04
#829264
05
#831000
1"
1,
#831801
1+
#832026
14
#832264
15
#834000
0"
0,
#834127
0:
1<
#834485
0;
17
#834909
1;
#835026
04
#835264
05
#837000
1"
1,
#837794
1*
#837801
0+
#838026
14
#838264
15
#840000
0"
0,
#840127
1:
#840485
07
#840909
0;
#840910
1=
#841026
04
#841264
05
#843000
1"
1,
#843801
1+
#844026
14
#844264
15
#846000
0"
0,
#846127
0:
0<
1>
#846485
0=
1;
17
#846909
0;
#847017
1=
#847026
04
#847264
05
#849000
1"
1,
#849794
0*
#849801
0+
#849889
1)
#850026
14
#850264
15
#852000
0"
0,
#852127
1:
#852485
07
#852909
1;
#853026
04
#853264
05
#855000
1"
1,
#855801
1+
#856026
14
#856264
15
#858000
0"
0,
#858127
0:
1<
#858485
0;
17
#858909
1;
#859026
04
#859264
05
#861000
1"
1,
#861794
1*
#861801
0+
#862026
14
#862264
15
#864000
0"
0,
#864127
1:
#864485
07
#864820
1N
#864909
0;
#864910
0=
#865026
04
#865264
05
#865313
0?
0A
#865316
0C
#865319
0E
1H
#867000
1"
1,
#867801
1+
#868026
14
#868264
15
#870000
0"
0,
#870127
1I
0:
0<
0>
0@
0B
0D
0F
#870485
1E
1C
1A
1?
1=
1;
17
0H
#870673
1G
#870838
13
#870909
0;
#870980
0N
#871017
0=
#871026
04
#871054
1H
#871062
0A
#871252
0C
#871253
0E
#871264
05
#871473
0?
#873000
1"
1,
#873546
0'
#873551
0&
#873794
0*
#873801
0+
#873875
0%
#873888
1$
#873889
0)
#873910
0(
#874026
14
#874264
15
#876000
0"
0,
#876127
1:
#876485
07
#876909
1;
#877026
04
#877264
05
#879000
1"
1,
#879801
1+
#880026
14
#880264
15
#882000
0"
0,
#882127
0:
1<
#882485
0;
17
#882909
1;
#883026
04
#883264
05
#885000
1"
1,
#885794
1*
#885801
0+
#886026
14
#886264
15
#888000
0"
0,
#888127
1:
#888485
07
#888909
0;
#888910
1=
#889026
04
#889264
05
#891000
1"
1,
#891801
1+
#892026
14
#892264
15
#894000
0"
0,
#894127
0:
0<
1>
#894485
0=
1;
17
#894909
0;
#895017
1=
#895026
04
#895264
05
#897000
1"
1,
#897794
0*
#897801
0+
#897889
1)
#898026
14
#898264
15
#900000
0"
0,
#900127
1:
#900485
07
#900909
1;
#901026
04
#901264
05
#903000
1"
1,
#903801
1+
#904026
14
#904264
15
#906000
0"
0,
#906127
0:
1<
#906485
0;
17
#906909
1;
#907026
04
#907264
05
#909000
1"
1,
#909794
1*
#909801
0+
#910026
14
#910264
15
#912000
0"
0,
#912127
1:
#912485
07
#912820
1N
#912909
0;
#912910
0=
#913026
04
#913264
05
#913313
1?
#915000
1"
1,
#915801
1+
#916026
14
#916264
15
#918000
0"
0,
#918127
0:
0<
0>
1@
#918485
0?
1=
1;
17
#918909
0;
#918980
0N
