COMP3222/WKSpace/Lab5/part24Simulating/simulation/qsim/part2.msim.vcd
$comment
	File created using the following command:
		vcd file part2.msim.vcd -direction
$end
$date
	Mon Oct 28 21:41:36 2019
$end
$version
	ModelSim Version 10.1d
$end
$timescale
	1ps
$end
$scope module part2_vlg_vec_tst $end
$var reg 1 ! KEY [0:0] $end
$var reg 2 " SW [1:0] $end
$var wire 1 # LEDG [0] $end
$var wire 1 $ LEDR [3] $end
$var wire 1 % LEDR [2] $end
$var wire 1 & LEDR [1] $end
$var wire 1 ' LEDR [0] $end
$var wire 1 ( sampler $end
$scope module i1 $end
$var wire 1 ) gnd $end
$var wire 1 * vcc $end
$var wire 1 + unknown $end
$var tri1 1 , devclrn $end
$var tri1 1 - devpor $end
$var tri1 1 . devoe $end
$var wire 1 / KEY[0]~clkctrl_outclk $end
$var wire 1 0 toggleFSM|state~29_combout $end
$var wire 1 1 toggleFSM|state~28_combout $end
$var wire 1 2 toggleFSM|state~37_combout $end
$var wire 1 3 toggleFSM|state~2_regout $end
$var wire 1 4 toggleFSM|state~22_combout $end
$var wire 1 5 toggleFSM|state~21_combout $end
$var wire 1 6 toggleFSM|state~36_combout $end
$var wire 1 7 toggleFSM|state~4_regout $end
$var wire 1 8 toggleFSM|state~35_combout $end
$var wire 1 9 toggleFSM|state~33_combout $end
$var wire 1 : toggleFSM|state~3_regout $end
$var wire 1 ; toggleFSM|state~32_combout $end
$var wire 1 < toggleFSM|state~34_combout $end
$var wire 1 = toggleFSM|state~5_regout $end
$var wire 1 > toggleFSM|z~combout $end
$var wire 1 ? SW~combout [1] $end
$var wire 1 @ SW~combout [0] $end
$var wire 1 A KEY~combout [0] $end
$upscope $end
$upscope $end
$enddefinitions $end
#0
$dumpvars
b0 !
b0 "
0#
0'
0&
0%
0$
x(
0)
1*
x+
1,
1-
1.
0/
10
11
02
03
04
05
06
07
08
09
0:
1;
0<
0=
0>
0@
0?
0A
$end
#10000
b1 !
1A
1/
0(
#20000
b0 !
0A
0/
1(
#30000
b1 "
b1 !
1@
1A
1/
0(
18
12
#40000
b0 !
0A
0/
1(
#50000
b1 !
1A
1/
0(
13
19
14
01
00
1'
02
#60000
b0 !
0A
0/
1(
#70000
b11 "
b1 !
1?
1A
1/
0(
08
15
11
09
16
12
1:
03
1&
0'
#80000
b0 !
0A
0/
1(
#90000
b1 !
1A
1/
0(
0:
17
13
01
18
04
0&
1%
1'
02
19
#100000
b0 !
0A
0/
1(
#110000
b1 !
1A
1/
0(
1:
03
06
11
10
14
1&
0'
12
16
#120000
b0 !
0A
0/
1(
#130000
b1 !
1A
1/
0(
13
0;
09
04
01
00
1'
1<
06
02
#140000
b0 !
0A
0/
1(
#150000
b1 !
1A
1/
0(
1=
0:
07
03
1>
05
16
11
08
1$
0&
0%
0'
06
1#
#160000
b0 !
0A
0/
1(
#170000
b1 !
1A
1/
0(
#180000
b0 !
0A
0/
1(
#190000
b1 !
1A
1/
0(
#200000
b0 !
0A
0/
1(
#210000
b1 !
1A
1/
0(
#220000
b0 !
0A
0/
1(
#230000
b1 !
1A
1/
0(
#240000
b0 !
0A
0/
1(
#250000
b1 "
b1 !
0?
1A
1/
0(
0<
18
10
12
#260000
b0 !
0A
0/
1(
#270000
b1 !
1A
1/
0(
0=
13
0>
1;
14
19
01
00
0$
1'
02
0#
#280000
b0 !
0A
0/
1(
#290000
b1 !
1A
1/
0(
1:
03
16
11
10
04
1&
0'
12
06
#300000
b0 !
0A
0/
1(
#310000
b1 !
1A
1/
0(
13
09
14
01
00
1'
16
02
#320000
b0 !
0A
0/
1(
#330000
b11 "
b1 !
1?
1A
1/
0(
08
15
11
12
0:
17
03
1>
18
0&
1%
0'
1#
#340000
b0 !
0A
0/
1(
#350000
b1 "
b1 !
0?
1A
1/
0(
08
04
01
02
13
0>
05
11
10
1'
06
12
0#
#360000
b0 !
0A
0/
1(
#370000
b1 !
1A
1/
0(
07
18
14
01
00
0%
19
02
#380000
b0 !
0A
0/
1(
#390000
b1 !
1A
1/
0(
1:
03
16
11
10
04
1&
0'
12
06
#400000
b0 !
0A
0/
1(
#410000
b1 !
1A
1/
0(
13
09
14
01
00
1'
16
02
#420000
b0 !
0A
0/
1(
#430000
b1 !
1A
1/
0(
0:
17
03
1>
06
08
15
04
0&
1%
0'
16
1#
#440000
b0 !
0A
0/
1(
#450000
b1 !
1A
1/
0(
#460000
b0 !
0A
0/
1(
#470000
b1 !
1A
1/
0(
#480000
b0 !
0A
0/
1(
#490000
b1 !
1A
1/
0(
#500000
b0 !
0A
0/
1(
#510000
b1 !
1A
1/
0(
#520000
b0 !
0A
0/
1(
#530000
b1 !
1A
1/
0(
#540000
b0 !
0A
0/
1(
#550000
b1 !
1A
1/
0(
#560000
b0 !
0A
0/
1(
#570000
b1 !
1A
1/
0(
#580000
b0 !
0A
0/
1(
#590000
b1 !
1A
1/
0(
#600000
b0 !
0A
0/
1(
#610000
b1 !
1A
1/
0(
#620000
b0 !
0A
0/
1(
#630000
b1 !
1A
1/
0(
#640000
b0 !
0A
0/
1(
#650000
b1 !
1A
1/
0(
#660000
b0 !
0A
0/
1(
#670000
b1 !
1A
1/
0(
#680000
b0 !
0A
0/
1(
#690000
b1 !
1A
1/
0(
#700000
b0 !
0A
0/
1(
#710000
b1 !
1A
1/
0(
#720000
b0 !
0A
0/
1(
#730000
b1 !
1A
1/
0(
#740000
b0 !
0A
0/
1(
#750000
b1 !
1A
1/
0(
#760000
b0 !
0A
0/
1(
#770000
b1 !
1A
1/
0(
#780000
b0 !
0A
0/
1(
#790000
b1 !
1A
1/
0(
#800000
b0 !
0A
0/
1(
#810000
b1 !
1A
1/
0(
#820000
b0 !
0A
0/
1(
#830000
b1 !
1A
1/
0(
#840000
b0 !
0A
0/
1(
#850000
b1 !
1A
1/
0(
#860000
b0 !
0A
0/
1(
#870000
b1 !
1A
1/
0(
#880000
b0 !
0A
0/
1(
#890000
b1 !
1A
1/
0(
#900000
b0 !
0A
0/
1(
#910000
b1 !
1A
1/
0(
#920000
b0 !
0A
0/
1(
#930000
b1 !
1A
1/
0(
#940000
b0 !
0A
0/
1(
#950000
b0 "
b1 !
0@
1A
1/
0(
06
#960000
b0 !
0A
0/
1(
#970000
b1 !
1A
1/
0(
07
0>
05
11
10
0%
0#
#980000
b0 !
0A
0/
1(
#990000
b1 !
1A
1/
0(
