COMP3222/WKSpace/Lab3/part2/simulation/qsim/part2.msim.vcd
$comment
	File created using the following command:
		vcd file part2.msim.vcd -direction
$end
$date
	Fri Oct 11 11:08:57 2019
$end
$version
	ModelSim Version 10.1d
$end
$timescale
	1ps
$end
$scope module part2_vlg_vec_tst $end
$var reg 1 ! Clk $end
$var reg 1 " D $end
$var wire 1 # Q $end
$var wire 1 $ sampler $end
$scope module i1 $end
$var wire 1 % gnd $end
$var wire 1 & vcc $end
$var wire 1 ' unknown $end
$var tri1 1 ( devclrn $end
$var tri1 1 ) devpor $end
$var tri1 1 * devoe $end
$var wire 1 + Clk~combout $end
$var wire 1 , D~combout $end
$var wire 1 - R_g~combout $end
$var wire 1 . Qb~combout $end
$var wire 1 / S_g~combout $end
$var wire 1 0 Qa~combout $end
$upscope $end
$upscope $end
$enddefinitions $end
#0
$dumpvars
0!
1"
x#
x$
0%
1&
x'
1(
1)
1*
0+
1,
x-
x.
x/
x0
$end
#5023
1-
#5410
1/
#10000
0"
0$
#10844
0,
#20000
1!
1"
1$
#20844
1,
#20874
1+
#26284
0/
#26750
10
#27373
0.
#30000
0"
0$
#30098
1#
#30844
0,
#35867
0-
#35869
1/
#36682
1.
#37497
00
#40000
0!
1$
#40845
0#
#40874
0+
#46253
1-
#50000
1"
1!
0$
#50844
1,
#50874
1+
#56284
0/
#56750
10
#57373
0.
#60000
0"
0!
1$
#60098
1#
#60844
0,
#60874
0+
#65869
1/
