COMP3222/PraticalExam/divby3/simulation/qsim/divby3.msim.vcd
$comment
	File created using the following command:
		vcd file divby3.msim.vcd -direction
$end
$date
	Mon Nov 18 14:57:40 2019
$end
$version
	ModelSim Version 10.1d
$end
$timescale
	1ps
$end
$scope module divby3_vlg_vec_tst $end
$var reg 8 ! A [7:0] $end
$var reg 1 " clk $end
$var reg 1 # Resetn $end
$var reg 1 $ s $end
$var wire 1 % Div3 $end
$var wire 1 & Done $end
$var wire 1 ' R [7] $end
$var wire 1 ( R [6] $end
$var wire 1 ) R [5] $end
$var wire 1 * R [4] $end
$var wire 1 + R [3] $end
$var wire 1 , R [2] $end
$var wire 1 - R [1] $end
$var wire 1 . R [0] $end
$var wire 1 / sampler $end
$scope module i1 $end
$var wire 1 0 gnd $end
$var wire 1 1 vcc $end
$var wire 1 2 unknown $end
$var tri1 1 3 devclrn $end
$var tri1 1 4 devpor $end
$var tri1 1 5 devoe $end
$var wire 1 6 clk~combout $end
$var wire 1 7 sub[0]~8_combout $end
$var wire 1 8 Resetn~combout $end
$var wire 1 9 s~combout $end
$var wire 1 : sub[0]~9 $end
$var wire 1 ; sub[1]~11_combout $end
$var wire 1 < sub[0]~10_combout $end
$var wire 1 = sub[1]~12 $end
$var wire 1 > sub[2]~13_combout $end
$var wire 1 ? sub[2]~14 $end
$var wire 1 @ sub[3]~16 $end
$var wire 1 A sub[4]~17_combout $end
$var wire 1 B sub[4]~18 $end
$var wire 1 C sub[5]~19_combout $end
$var wire 1 D Equal0~0_combout $end
$var wire 1 E sub[5]~20 $end
$var wire 1 F sub[6]~22 $end
$var wire 1 G sub[7]~23_combout $end
$var wire 1 H sub[6]~21_combout $end
$var wire 1 I Equal0~1_combout $end
$var wire 1 J LessThan0~5_combout $end
$var wire 1 K Selector1~0_combout $end
$var wire 1 L y.S1~regout $end
$var wire 1 M Selector0~0_combout $end
$var wire 1 N y.SI~regout $end
$var wire 1 O LD~0_combout $end
$var wire 1 P sub[3]~15_combout $end
$var wire 1 Q LessThan0~4_combout $end
$var wire 1 R Selector5~0_combout $end
$var wire 1 S Selector2~0_combout $end
$var wire 1 T y.S3~regout $end
$var wire 1 U Equal0~2_combout $end
$var wire 1 V Selector4~0_combout $end
$var wire 1 W Selector3~0_combout $end
$var wire 1 X y.S4~regout $end
$var wire 1 Y Selector5~1_combout $end
$var wire 1 Z sub [7] $end
$var wire 1 [ sub [6] $end
$var wire 1 \ sub [5] $end
$var wire 1 ] sub [4] $end
$var wire 1 ^ sub [3] $end
$var wire 1 _ sub [2] $end
$var wire 1 ` sub [1] $end
$var wire 1 a sub [0] $end
$var wire 1 b A~combout [7] $end
$var wire 1 c A~combout [6] $end
$var wire 1 d A~combout [5] $end
$var wire 1 e A~combout [4] $end
$var wire 1 f A~combout [3] $end
$var wire 1 g A~combout [2] $end
$var wire 1 h A~combout [1] $end
$var wire 1 i A~combout [0] $end
$upscope $end
$upscope $end
$enddefinitions $end
#0
$dumpvars
b0 !
0"
1#
0$
0%
0&
0.
0-
0,
0+
0*
0)
0(
0'
x/
00
11
x2
13
14
15
06
17
18
09
0:
0;
1<
1=
1>
0?
1@
1A
0B
1C
1D
1E
0F
1G
1H
1I
0J
0K
0L
0M
0N
1O
1P
0Q
0R
0S
0T
0U
0V
0W
0X
0Y
0a
0`
0_
0^
0]
0\
0[
0Z
0i
0h
0g
0f
0e
0d
0c
0b
$end
#500
1"
16
0/
#1000
0#
0"
08
06
1/
#1500
1"
16
0/
#2000
1#
0"
18
06
1/
#2500
1"
16
0/
#3000
b100 !
b110 !
0"
1h
1g
06
1/
#3500
1"
16
0/
1_
1`
0D
1?
0>
1U
1;
1,
1-
1J
0@
0P
1B
0A
0E
0C
1F
0H
0G
#4000
1$
0"
19
06
1/
0O
1M
1K
0<
#4500
1"
16
0/
1N
1L
1<
#5000
0"
06
1/
#5500
1"
16
0/
1a
0_
1Q
1:
07
1D
0?
1>
1.
0,
0=
0;
1@
1P
1?
0>
0B
1A
0@
0P
1E
1C
1B
0A
0F
1H
0E
0C
1G
1F
0H
0G
#6000
0"
06
1/
#6500
1"
16
0/
0a
0`
0U
0Q
0J
0:
17
1=
1;
0.
0-
1R
0K
0<
0;
0?
1>
1Y
1V
1S
1@
1P
0B
1A
1&
1%
1E
1C
0F
1H
1G
#7000
0"
06
1/
#7500
1"
16
0/
1T
0L
0R
#8000
0"
06
1/
#8014
0$
09
0/
0S
0M
#8500
1"
16
1/
0T
0N
0Y
0V
1O
1<
0&
0%
#9000
b1110 !
b1010 !
0"
0g
1f
06
0/
#9500
1"
16
1/
1^
1`
0D
0@
0P
1U
1;
1+
1-
1J
1B
0A
0E
0C
1F
0H
0G
#10000
1$
0"
19
06
0/
0O
1M
1K
0<
#10500
1"
16
1/
1N
1L
1<
#11000
0"
06
0/
#11500
1"
16
1/
0^
1a
1_
1@
1P
1Q
1:
07
1?
0>
0+
1.
1,
0B
1A
0=
0;
0@
0P
1E
1C
1>
1B
0A
0F
1H
0E
0C
1G
1F
0H
0G
#12000
0"
06
0/
#12500
1"
16
1/
0a
0`
0Q
0:
17
1=
1;
0.
0-
0;
0>
#13000
0$
0"
09
06
0/
#13500
1"
16
1/
1a
0_
1:
07
1D
0?
1>
1.
0,
1;
1R
0J
1@
1P
1Y
1W
0K
0<
0B
1A
1E
1C
1&
0F
1H
1G
#14000
0"
06
0/
#14500
1"
16
1/
1X
0L
0R
0M
0W
#15000
0"
06
0/
#15500
1"
16
1/
0X
0N
0Y
1O
1<
0&
#16000
0"
06
0/
#16108
b10 !
0f
1/
#16500
1"
16
0/
0a
1`
0:
17
0=
0;
0.
1-
1=
1;
1?
0>
0?
1>
0@
0P
1@
1P
1B
0A
0B
1A
0E
0C
1E
1C
1F
0H
0F
1H
0G
1G
#17000
0"
06
1/
#17500
1"
16
0/
#17898
1$
19
1/
0O
1M
1K
0<
#18000
0"
06
0/
#18500
1"
16
1/
1N
1L
0K
1R
1Y
1W
1&
#19000
0"
06
0/
#19500
1"
16
1/
1X
0L
0R
#20000
0$
0"
09
06
0/
0W
0M
#20500
1"
16
1/
0X
0N
0Y
1O
1<
0&
#21000
0"
06
0/
#21500
1"
16
1/
#22000
b11 !
b1 !
0"
1i
0h
06
0/
#22039
b0 !
0i
1/
#22500
1"
16
0/
0`
0U
0;
0-
#23000
0"
06
1/
#23500
1"
16
0/
#24000
1$
0"
19
06
1/
0O
1M
1K
0<
#24500
1"
16
0/
1N
1L
0K
1R
1Y
1V
1S
1&
1%
#25000
0"
06
1/
#25500
1"
16
0/
1T
0L
0R
#26000
0"
06
1/
#26500
1"
16
0/
#27000
0"
06
1/
#27016
0$
09
0/
0S
0M
#27500
1"
16
1/
0T
0N
0Y
0V
1O
1<
0&
0%
#28000
0"
06
0/
#28500
1"
16
1/
#29000
0"
06
0/
#29500
1"
16
1/
